SKU,ORDERED,STOCK
MFGEX,,37
MMSRE,,641
MPALL,AFG300123180,1
RSBB4032,AFG66200003316,1
MPELL,,11
DDIWZC,AFG300123170,1
MLPRYL,AFG300123158,1
DDTCDFL,AFG300117446,1
DDTCACX,,69
RSPP3832,,17
MLMOMM,,269
MMPMM,,981
RMPB1XXL,,42
MMPZO,,215
MLPRPUL,AFG300123200,1
R2RD3832,,1
DDTAKL,,431
MCCMO20L,,94
MCCLMAGSLT1,,436
DDTCDFX,AFG300123167,1
DDTMFIL,,43
RPYT3030,,9
RSBB4032,,6
MPSH2,,55
RPHR4034,,4
MLPRPX,AFG300123196,1
KSPIL,AFG300120890,1
RSOXW111,,428
DDCJFRL,,164
RWSPP12R,,13
MLPRPX,,6
MLMSBX,AFG300119279,1
RPMD3232,,20
RWSFW08R,,8
MLFRPRX,,14
RWKHR12R,,8
RSRD4232,,9
RWKHB10R,,5
MGOL,,70
KSGRS,,106
RWPW111S,,15
RSOXR111,,391
MSWHL,AFG300123107,1
DDTMIM2,,50
MLMSCX,,450
RWPPP16R,,15
RMPW111M,,68
KPALL,,12
FBLAS,,1
DDTHZX,AFG300123016,1
STPSBM,AFGTUS248672363,128
RWPWT12R,,9
MIRE,,350
RWPYT16R,,7
STPTUL,AFGTUS235741500,66
RWKYT08R,,6
RBELTW11,,356
MCCMIPRIL,,4
RWKPP18R,,10
MPSAM,,20
MSGRX,AFG300122786,3
MPLEX,,170
MPWWM,,38
MCCKOSOLL,,32
MPWWX,,74
MMTBY,,524
DDCJGBS,,86
RWPR11XL,,17
MPSOL,,229
KSGRM,,194
RWPZZ18R,,4
RWPPP18R,,4
MIGR,,134
MCCMARVAML,,150
MSTQ2,,25
KSPIL,,79
MCCKOSOLM,AFG300123030,1
KLJAL,,1
FGSXS,,42
RPHB3230,,5
MPMUX,,99
RSWT3032,,23
FGSHS,,31
KPMUM,,7
RPRT3832,,13
RWKHB06R,,2
MPCOX,,142
FBLAX,,136
DDTMFRM,AFG300123168,1
MXSPU,,182
MPGWX,,177
MCCFIZOMM,AFG300123103,1
MSWHL,AFG300122852,1
RWKWT18R,,6
MXFGO,,150
RSFW3032,,15
RSWT3232,,24
MPZEL,,22
RPPP3632,,37
RPWT3430,,11
RSMD3632,,10
KPZEM,,180
MSYEL,AFG300122852,1
MSBKL,AFG300122852,1
MPSAX,,140
MFUSL,,8
MMSGR,,674
MSWHM,,146
MPIZO2,,3
RWSYT12R,,11
STSBLM,AFGTUS248672363,45
RPRT3634,,4
RPWT4434,,2
MLMADM,,15
RWKMD16R,,10
RPBB3430,,8
FGSHM,,30
MFUN2,,40
MPMUM,,176
MXWYE,,441
MCCFO20L,,4
RWKFW12R,,19
RPBB4434,,8
RSPP3232,,18
DDTMFRL,,111
MGTOL,,181
R2BD4232,AFGTUS355841210,1
DDCJSCL,,129
MLJOLM,,37
RWKYT12R,,11
MFEN2,,66
RWPB11XL,,16
MMPFM,,774
MSBK2,,163
RPHR3430,,7
RPPP4434,,7
FGSS,,87
DDTCYBM,,375
RPWT3630,,16
MSREL,AFG300122786,1
MSSIL,AFG300122852,1
MXWWH,,333
KPTUS,,80
MPMSX,,100
RWSZZ18R,,4
RMPW111L,,169
KLMOML,,25
MXSYE,,319
DDTMEN2,,212
RWSZZ10R,,3
RPHB3834,,12
RWKMD10R,,13
KLMOZM,AFGTUS107267155,1
MPTWL,AFG300122637,1
MCCULTETL1,,34
MLPRRL,,87
RPBD3834,,1
MCCMIINDM,,4
MPSLL,,6
MFIRX,,80
MIBA,,387
DDCJSCX,,50
RPRT3834,,8
MLPRBLS,,1
MFITL,,39
RSWT4032,,11
RSYT3832,,1
MPMFLX,,153
RWSYT08R,,4
KPTDL,,6
R2WT4032,,15
DDSSKRL,,30
MPSP2,,91
RWKMD14R,,12
DDTMEN2,AFG300123097,1
RWPB111L,,9
MSPIX,,3
RPHB4434,,12
KLVBS,,20
MCCUORR1,AFG300123099,1
MPBCL,,147
R2YT3432,,20
RWSBB14R,,19
RPBB3030,,8
MPTUL,,258
DDTCDFL,,183
MSPIM,,1
RPSR4034,,9
RWPFW10R,,9
MXFRE,AFG300123087,1
RWKRT12R,,19
RPWT4034,,14
RWPMD14R,,13
MFCA2,,29
MPNIX,,222
STSBKX,,432
DDTCDFX,,157
MMPTD,,823
DDTFCX,,265
DDTCYBS,,183
MMTWB,,176
RPPP3434,,10
KLGBL,,22
MPTBM,,94
MCCUIDOCM,,4
MPBTL,,112
DDMSCU,,377
MFSCL,,61
RWKPP12R,,19
MIBU,AFG300123033,1
MPLEM,,22
MPALX,AFG300115609,1
MXBBL,,285
RWPHB18R,,5
MPBS2,,66
KLTIM,,65
R2YT3232,,9
RWKYT06R,,5
RWSYT14R,,15
RWSBD06R,,6
MLPRGL,,91
MPNIM,,218
RWSHR06R,,3
MFENM,,71
MXFBK,,66
STSRE2,AFGTUS248672363,1
RWSWT12R,,11
STSGRM,AFGTUS235741500,158
MMPCH,,2082
MMFAU,,29
MPVAM,,204
MGTPX,,146
KLVBM,,9
MPVAX,,403
RPRT3432,AFG66200003317,1
DDCJSRM,,118
RSFW4432,,10
RSBD3832,,10
MPTBS,,46
MXWBK,,267
RSBB4432,,8
MMSBL,,648
MPMGL,,81
RWKBB12R,,19
MPGW2,,25
RPRD3030,,3
RPRD3634,,7
MLMZOL,,207
MPRTL,,182
KSREL,,110
RWSBD16R,,11
MLPRBLL,,198
MLMSCL,AFG300123098,1
MSSI2,,31
MPGAM,,175
MCCUIBB1,AFG300123016,1
RWPR111L,,10
KPMSM,,60
KLMOSBS,AFG300123049,1
RSFW3832,,26
MLFRPAX,,23
MFGEM,,42
RSMD4432,,10
RHWT1111,,208
RWSMD08R,,5
MSBKM,AFG300123109,1
MXSPI,,76
MGOM,,32
RWSHR14R,,8
MMTGR,,130
DDTMCA2,,50
MSGRM,,166
MCCFOMP3PS,,6
MGGL,,222
RSRD3832,,3
MSBKX,AFG300119891,1
RPHB3432,,20
RPBD3634,,16
3024L,AFGEBAY93468,1
KPMUS,,2
RWSBB08R,,10
RWKFW10R,,14
FBLAM,,48
MPCOM,,141
MSWHM,AFG300123156,1
MLPRPUX,,26
MPSUM,AFG300123012,1
MPSUL,,399
RPZZ4434,,6
MFAUM,,18
RWPFW08R,,7
MFAUX,,118
MFENX,,69
MSSIL,,35
MLTIX,,67
MLPRY2,,1
RPSR3832,,6
RWSWT08R,,5
RSHB3432,,18
MSWHX,,511
MSBKL,AFG300123028,1
RPYT4434,,5
DDTCDFM,AFGTUS223818828,1
MPNZO2,,26
5058XL,,50
DDTDSTPL,,193
RPHB3232,,21
MPPOL,,318
MXBBK,,451
KPMUCL,AFG300123169,1
RWPR111S,,14
MLPRPU2,,19
KLVBS,AFG300117809,1
DDTAKM,AFG300123085,1
MIBU,AFG300123015,1
MCCULTETS1,,39
FWAIS,,136
RSMD3232,,1
MCCMIZOML,AFG300123103,1
RPSR3634,,8
MFIT2,,94
KLBGM,,29
MMFSC,,20
MMTBG,,116
RMPR111M,,42
MXWBL,,683
MPAL2,,21
RSRD3632,,1
RSRT3032,,4
DDTMCAS,,75
MCCLMAGACBL,,3808
MPTDM,,83
MCCMIZOML,,61
RWSFW10R,,16
RHFW1111,,99
RPBD4234,,4
R2WT4232,,14
KLMOFS,,26
MXGSI,,3
MMPCA,,663
MFIR2,,64
MFSPL,,57
MXFPI,,119
DDTHMX,,406
MPVA2,,88
MFIRM,,72
RSHR3032,,3
MPTPL,,139
MGTPM,,65
RWKWT16R,,7
KLMOSBS,,23
KSPIL,AFG300122465,1
STSREM,AFGTUS235741500,5
RPBB3230,,10
RWSHR08R,,5
RABROCHURE,,145
KPTDS,,6
MSGRX,AFG300112450,1
MLKCO2,,23
DDIWFW,AFG300123118,1
RPMD3834,,10
MLJOLL,,207
MMFCA,,261
STSBKL,,340
MLPRYM,AFG300123108,1
KSGRM,AFG300112256,1
RPBD4434,,7
DDTMFR2,,26
MPRTM,AFG300111755,1
RWSMD10R,,9
MFCAL,,55
MCCLMAGSEH1,AFGTUS403273850,1
RPBB3834,,5
RPFW3832,,24
MPBC2,,72
MCCFOMP3BS,,4
DDTHM2,,48
RWPWT10R,,13
DDTCYB2,,184
MXWGO,,40
MPFS2,,59
RPMD4034,,11
RWPWT18R,,6
RWSFW18R,,4
STSBK2,,127
DDTMCAM,,91
MPIMS2,,23
MSGOL,,16
RSFW4232,,2
RWKBD18R,,9
RSPP4432,,3
RWSWT16R,,10
MLMSCL,,669
RSWT3832,,23
RWKHB08R,,7
RHBB1111,,48
LCDSCREEN,,284
DDCJSRS,,60
RSSR4432,,10
R2RD3432,,3
RPHB3832,,15
DDTFC2,,11
3024L,,597
MPSOX,,252
RSPP4032,,4
MPPUL,,337
DDTMFIS,,25
RWSFW12R,,9
MFAU2,,5
RPFW4434,,6
RSSR4232,,15
RPHR3434,,4
RWSPP08R,,7
MPZEX,,105
DDIWFW,AFG300123137,1
KPASL,,33
R2BD4032,,10
KPMUCM,,6
MLMSCM,,173
MSGO2,,23
RWKRT10R,,20
RWPHB12R,,5
DDTDSTP2,,24
MGTOM,,60
KLMOSBL,AFG300123010,1
RWPWT14R,,11
RSBD3432,,13
MPLHL,,23
FTIE,,445
MXSGR,,129
MLTIM,,2
KPELL,,115
RPWT4234,,7
KLMOSBM,AFG300123179,1
RWKYT16R,,5
RPMD4434,,4
KPNIM,,1
MFMEL,,172
MXFMU,,50
RPPP3430,,14
MPCTL,,2
MMPAL,,567
MFSPM,,66
RWKRT14R,,18
RPZZ3430,,13
DDTCDFM,AFG300123035,1
MSORL,,98
RWPBD08R,,8
RWPFW12R,,14
MPMU2,,95
KPBCL,,4
RSRD3232,,16
RPHR3832,,9
MLMSCM,AFGTUS768510176,1
RPBB4034,,12
RPRT3232,,4
MPEL2,,62
FGSM,,79
RWKWT08R,,12
RPHR3630,,9
MLPRGM,,96
FPANM,,226
DDMZMB,,58
DDTMIMM,,92
RWPB111S,,10
MCCMICOWL,,4
MLPRRL,AFG300123074,1
MPBCX,,147
DDSSTBM,,53
DDTCYCL,AFG300123084,1
MSRE2,,54
MPELX,,82
RWKSR12R,,19
RWKFW06R,,8
RWPZZ16R,,2
DDTMFRS,,41
RWKRT16R,,11
RPZZ4034,,5
RWSFW14R,,15
RSRT3832,,16
MPBT2,,64
R2BD3832,,8
RSHB3032,,8
KLMOAM,,64
RPHR3634,,10
DDTDSTPM,,50
MCCFO20M,,118
RWKBB10R,,14
RPFW3434,,18
KLMOCS,,45
MMPFC,,758
MPSAX,AFG300122786,1
FHAT,,140
MLSBGM,,24
RWKYT10R,,10
KSPIS,,178
STPSBM,AFGTUS235741500,83
STPSB2,AFGTUS248672363,9
KLKCOM,,24
MCCUOWM1,,110
MFITM,,88
MLPRPUL,,37
MFUNX,,29
MFITX,,39
RWSPP14R,,13
MLKCOL,,47
DDTMIMS,,47
MPELM,,16
MMPMU,,559
DDTCAC2,,22
RWSHB14R,,3
RSRT3432,,21
RSBD3232,,4
DDCJPSL,,120
RPBD4034,,11
MFSCM,,40
RPWT3232,,30
RHHR1111,,32
RWPBD14R,,14
DDSSSGS,,15
MFGEL,,28
MPIMSM,,8
KSORL,AFG300123032,1
MGTGL,,68
KSORM,,140
RWPPP10R,,13
MPTWL,,51
MSBKX,AFG300122389,1
MCCFOSMM,,3
MCCUIDOC1,AFG300123019,1
MPMS2,,2
MPPWX,,102
STPTU2,AFGTUS248672363,9
DDTZEM,AFG300123086,1
MPPWM,,9
DDTHZ2,,1
RWKRT18R,,10
RPHR4234,,4
MXFTU,,48
MPSGM,,276
DDTCYCL,,97
RPYT3834,,8
MFME2,,41
RPPP3030,,12
DDTMEN2,AFG300123114,1
RPWT3432,,63
RWPFW18R,,2
MCCKOBLOKM,,8
MGTOX,,316
KSPIM,,331
RMPB111L,,62
MMFUN,,9
RWPPP12R,,12
MSTQL,AFG300122852,1
MLPRGX,AFG300123172,1
KPALS,,230
MCCFOBPS,,4
RSWT3432,,41
DDTFCL,,490
R2WT3832,,12
MBATTERYPACK,,47
RPYT3632,,31
RPRD3434,,7
DDCJFRS,,80
RPWT3632,,46
DDIWZC,,2756
MGGM,,41
MPALM,,52
MLPRYS,,16
MPFSL,,213
RWSWT10R,,13
MCCLMAGHFD1,,965
RWSPP06R,,8
FBLAL,,61
MFUSM,,6
MPSPL,,69
RPFW3834,,16
STPSBL,AFGTUS235741500,81
KLMOAL,AFGTUS456048762,1
MPTBL,,43
MCCFOMP3PUL,,4
RPRD3834,,1
DDTHM2,AFG300123120,1
MSBL2,AFG300122786,1
RPHR3432,,4
MMTRB,,92
RPFW3632,,41
KPZEL,,142
KPNIS,,7
RWPBB08R,,6
MXFOR,,183
KLVBM,AFG300113492A,1
MPLH2,,20
RPRD4234,,3
MSBKX,AFG300115609,1
RSOXB111,AFGTUS355841210,1
RMPW1XXL,,107
RPPP3834,,14
MPBCM,,28
MGP2,,27
MLPRYM,,32
DDIWFW,AFG300123103,1
MPSWL,,124
RPRT3230,,3
DDSSFRM,,46
KSORS,,228
MGGPL,,285
MMSOR,,590
MFFRM,,86
DDTMENM,,236
RMPB111M,,38
RWPBB12R,,17
MPRT2,,70
MCCFREECAT,,83
MPIZOX,,85
R2WT3432,,20
MXFSI,,77
RPSR3834,,10
RWSMD06R,,8
MCCKOBLOKS,,22
MPSLX,,76
RWPBB18R,,4
RWPB111M,,26
RWSZZ14R,,3
RWKZZ08R,,6
MMSWH,AFG300111657A,1
MPMGL,AFG300122786,1
MSORM,AFG300123011,1
MLPRRL,AFG300109810A,1
MLMZO2,,268
RWSBD12R,,15
RWPYT06R,,8
RPFW3634,,15
DDTFCM,,100
DDTMFIM,,35
MPTD2,,4
MLSLMS,,1062
DDCJSSX,,60
RPRT3434,,3
KLMOZS,,21
RWKWT12R,,18
DDSSFRS,,25
MCCLMAGACBL,AFGAMZUS104-4924600-2162638,1
MCCFOMP3GS,,4
MPBTX,,216
MPFR2,,119
KPMSS,,138
MCCLMAGACBX,,1984
MPSG2,,86
DDTMENS,,209
MLMSBM,,339
MLPRPX,AFG300123054,1
MMTBO,,60
RPBB3232,,14
MLPRRX,AFG300123095,1
MPMGX,,85
RSZZ4032,,1
KPSMM,,46
MLPRRM,,75
RWSBD08R,,2
MLMADX,,67
MSGOX,,32
KPSGL,,5
RPMD3832,,24
MCCUOBLOK1,,223
RWKWT06R,,9
RPPP3432,,51
MPTPX,,143
DDTHZM,,16
MFSCX,,68
MPMG2,,44
RPMD3230,,7
MSWHX,AFG300123107,1
RSMD3032,,12
R2YT4032,,11
KPBCS,,79
MPSDL,,90
RMPB11XL,,51
RWPMD18R,,4
RPBB4234,,9
KPMUCS,,9
RPWT3434,,16
MGTP2,,154
RWPZZ14R,,9
MGGX,,55
KPALM,,37
MLPRBLL,AFG300123108,1
RPFW3030,,6
RPHB3434,,6
RWPFW06R,,6
RPRD3232,,3
STPTUM,AFGTUS248672363,164
RWKHB12R,,4
RWKBD06R,,9
RMPW111S,,50
RWSPP18R,,2
MXFPU,,118
MSREX,,98
FPANX,,126
MCCUOSOLL,,128
MMPKC,,575
RSBB3232,,24
RSSR4032,,5
MSPUL,AFG300122852,1
RWSBD18R,,4
MXGOR,,132
MPIMSL,,105
STPTU2,,4
DDTCYCX,,89
RWPHR12R,,7
FPANS,,159
MPMGM,,36
DDCJPSX,,60
DDTAKS,,168
MLPRBLL,AFG300123074,1
FGDRXS,,48
RWSYT18R,,3
5058S,,125
DDTMFRM,,74
DDTCDF2,,34
MFENL,,83
DDSSSGM,,28
MLVBL,,29
MLCYNL,,583
RWPHR16R,,4
RPBB3434,,8
MPSA2,,151
RMPR1XXL,,11
MPMFL2,,164
WMLFRBCM,,23
RPZZ3832,,2
MFCAM,,37
MLJOLX,,165
MLJA2,,34
DDMCYC,AFG300117446,1
MFFRX,,69
RWPBB06R,,7
DDSSTBS,,44
RSYT3232,,12
MFCAX,,66
KSBKL,AFG300123138,1
MPTUX,AFG300123044,1
RWPR1XXL,,12
RWSBB06R,,9
MMPSG,,248
MFGE2,,35
DDTCDFL,AFG300123093,1
MPRTM,,329
MCCLMAGSEH1,AFG300123045,1
RWKBD12R,,3
KLMOAL,,54
MLPRG2,,20
MPRTX,,197
RPYT3232,,17
KSREM,,87
MLPRW2,AFG300123162,1
RHZZ1111,,71
MLPRP2,AFG300123083,1
MMPPU,,774
MPNZOM,,34
MFSPX,,67
RWPFW14R,,17
RSWT4232,,16
MLMADL,,58
RPPP3630,,9
5058M,,200
MMSWH,AFG300123025,1
RWPZZ12R,,2
MSBLL,,22
MCCFIZOMM,,45
RWPPP14R,,12
RPBD3230,,12
STSBL2,AFGTUS235741500,17
KPZES,,91
MLMOM2,,48
MLPRPL,,3
MLPRRX,AFG300123172,1
KSRES,,216
DDTHZL,,560
RSRT3232,,8
RWKZZ06R,,5
MCCUIFB1,,17
RSYT3032,,13
MXFRE,,308
MCCUISM1,,57
RWSHB10R,,5
RMPR111S,,14
RHBD1111,AFGTUS355841210,1
RWKZZ16R,,13
MPTPS,,146
RPFW3630,,15
MGTGX,,248
DDTMEL,,1
RSHR4232,,3
RSFW3432,,36
RSHB3832,,22
MLPRPUM,,35
RWKPP10R,,19
MSBKM,AFG300123038,1
MPPWL,,92
MLFRGLX,,48
MCCMIPRIM,,18
DDCJGBL,,187
RWPYT10R,,13
RWKPP14R,,15
KLMOZM,,1
RWKWT14R,,14
R2WT3632,,9
MLPRBKM,,76
MSWH2,,107
RSBB3632,,8
KPSKM,,103
RPZZ3232,,3
MFSC2,,40
MLFRBSX,,7
MPPOM,,178
RWPYT14R,,18
MXWGR,,153
DDTCYBM,AFG300123036,1
DDCJGBX,,107
RWPBD18R,,3
DDIWFW,,3513
RWPR111M,,22
MCCMIINDL,,1
RPZZ3230,,4
STPSB2,AFGTUS235741500,14
STSBKM,AFGTUS248672363,115
DDCJSRX,,61
MPNZOX,,187
MSTQL,,121
KPSKS,,15
MCCULTETI1,,39
MPNZOM,AFG300123115,1
RWSMD12R,,8
DDSSSGL,,24
RSPP4232,,5
MPFRL,,482
MLMOML,,446
RWSFW06R,,8
RWPMD06R,,6
STPTU2,AFGTUS235741500,33
RWKMD18R,,7
MXSOR,,101
PARTYCITYSTICKERS,,782
KSBLL,,336
RPZZ4234,,2
KLGBS,,37
RPHB4034,,11
RWSHR16R,,2
MXGWH,,92
MSWHL,AFG300123068,1
KLMOMS,,25
MMPMU,AFG300123131,1
RWSBD10R,,8
MLMZOX,,325
MPPO2,,95
RWKYT14R,,17
RWPWT06R,,8
RSHR3632,,9
DDTCYBX,,370
MPFSM,,86
MXWSI,,86
DDCJSSL,,120
DDTMENX,,242
FSHIX,,65
KSPUS,,113
MLPRGS,,6
MPLHL,AFG300119281,1
STPTUL,AFGTUS248672363,77
FWAIL,,234
MITU,,39
RPBB3432,,33
MPNIL,,128
RSZZ3032,,4
RWPYT08R,,8
MPBCM,AFGTUS238435422,1
KPALS,AFG300123030,1
KSGRL,AFG300123092,1
MCCUOMP31,,14
RWSBB18R,,4
MGTO2,,144
MPCTX,,41
MCCLMAGHFD1,AFG300123020,1
MMFEN,,113
RWPPP06R,,10
MMPSK,,153
RSWT3632,,48
RPPP3832,,31
RPSR3632,,5
RPSR3432,,14
RPRD4434,,3
RPSR4234,,4
RWPFW16R,,6
KLGBM,,73
MXBRE,AFG300123087,1
MFMEM,,31
MMFIR,,18
KLTIL,,25
FSHIS,,175
RSRD4432,,8
MLFRPLX,,20
MPSPX,,66
KPSMS,,6
MCCUONINY1,,3
MCCMO20X,,4
MLJAM,,29
RPYT3630,,9
MMSWH,AFG300123031,1
FGBS,,103
MCCKOSOLM,,45
RPHB3430,,9
KLKCOL,,14
DDTMENX,AFG300119337,1
MGPM,,9
MXGGR,,291
MSBKM,AFGTUS376101401,1
KPCOL,,6
MCCKOSOLS,,59
RPFW3230,,14
MLJAX,,86
RPZZ3434,,1
MCCFOMP3BL,,4
RWSHR18R,,5
RWPBD10R,,11
MIBU,,189
RWPHR06R,,2
RWPMD08R,,9
RWPW11XL,,24
MSYEL,,108
RWKRT08R,,10
RPRD3632,,4
RSRT3632,,9
MSBLX,AFG300122786,1
3024M,,999
RPHB3630,,3
FGLM,,37
STSGRM,,5
RWSYT16R,,13
MSGRM,AFG300123059,1
MFMEX,,126
MSBKL,AFG300123046,1
STSGRM,AFGTUS248672363,166
3024S,,100
DDCJSRL,,125
KPBCM,,7
RHBD1111,,21
MCCUIDOC1,,56
MPBUX,,465
MSBKX,AFG300123087,1
MPPUX,,318
RPWT3230,,9
MLPRPUS,,3
KPSGM,,118
MSPIX,AFG300112016,1
MLPRW2,,26
RWPMD12R,,10
MXWPI,,125
MPPUM,,180
RWKPP06R,,8
MCCMICOWX,,4
RWPBB16R,,13
RPRD3630,,2
RPYT4234,,10
MLPRYL,AFG300123101,1
RWPZZ08R,,5
RSSR3232,,8
MCCUOWAN1,,10
MPMFLM,,38
MSGRL,,70
RPFW4234,,5
DDCJPSS,,60
MPSB2,,76
RSPP3632,,35
KLMOFM,,25
MCCKOBLOKL,,39
MPTWX,,66
STSRE2,AFGTUS235741500,19
MSMAX,,60
RWKBD10R,,14
MSMA2,,39
RPFW4034,,10
R2BD4232,,13
MCCUOEM3,,47
RPRT3630,,7
RWKWT10R,,18
RSYT4432,,6
MPBSL,,155
MPGAL,,297
MXSBK,,110
MLPRG2,AFG300123154,1
RWSZZ06R,,1
MPES2,,132
RPBD3630,,17
MPSHL,,109
STSGR2,,27
RPBB3632,,26
MPSGX,,188
MXWPU,,211
MLFRPSX,,10
RMPR11XL,,39
RSSR3832,,10
DDTCYCM,AFG300123021,1
RWSMD14R,,12
DDTHZX,,344
RWPWT16R,,8
MPTUM,AFG300119891,1
RWKZZ10R,,12
RWSYT10R,,13
MSBKL,AFG300123067,1
KPLEL,,209
KLMOCS,AFG300123179,1
RWKBD14R,,11
MSGOL,AFG300122852,1
MPESL,,164
FSHOS,,142
MSMAL,,1
RWSPP16R,,14
MSBK2,AFG300123037,1
MCCUOPUPM,,50
DDTMFIX,,45
MSBKL,AFG300123039,1
RSBB3832,,10
MXSWH,,48
STSGR2,AFGTUS248672363,5
MSBKL,AFG300123073,1
MCCUOBLOKZ1,,76
MLFRASX,,49
MGTGM,,87
DDTZEM,,11
MLSLML,,1899
RWSBB16R,,12
RSHB4232,,8
MCCFOMP3GM,,4
MPTWM,,11
MSREL,,82
MPSO2,,144
MSBLX,,175
RPSR3630,,9
RSYT4232,,10
DDMCMM,,17
RWPBB14R,,16
RSYT3632,,11
MLPRGX,AFG300109720,1
MSBKX,AFG300123034,1
MGPX,,45
DDTCYBL,,524
MCCFOSMS,,5
MCCLMAGSEH1,,3467
DDMCYB,AFG300123090,1
DDTMCAX,,136
R2BD3232,,3
RPFW3430,,19
RPBD3232,,28
MPSWX,,142
RSBB3432,,24
KLMOFL,,41
DDTCDFS,,52
MLFRBDX,,23
DDSSKRX,,25
MPTWX,AFG300123017,1
RPYT3434,,14
MGO2,,45
RSHR4432,,4
MFUNM,,23
RPBD3030,,6
MPLHM,,5
RWKZZ18R,,8
DDTAKX,,124
RWSHR10R,,5
KSBKL,AFG300123281,1
5058L,,124
RWKSR14R,,15
MXWOR,,305
MXSBL,,157
DDTCDFX,AFG300113243RO,1
MLPRPX,AFG300123160,1
MLPRRS,,8
MLPRYL,AFG300123181,1
FGWS,,51
MLVBX,,45
MPBUL,,428
RPZZ3632,,3
MCCULTETO1,,41
MSORX,,134
MLVBM,,185
RHHB1111,,48
MMTTW,,134
MSORM,,81
RPYT3430,,14
MPSU2,,171
MPIZOM,,1
MPWWL,,45
MSPUL,,137
RSPP3432,,43
RPRT3632,,2
DDTCACM,,64
MLFRSWX,,50
MPSWM,,72
MCCUOFLAP1,,232
RPMD3030,,7
DDTCDFM,,164
RWPW111M,,31
RWKSR06R,,2
R2YT3632,,16
MPSDM,,3
LCDCORD,,276
MLPRPM,,89
RWKSR10R,,25
MCCFOBPL,,4
RSSR3632,,21
DDCJSCS,,58
MCCMIZOMM,,1
MLPRP2,,58
MFFR2,,72
RPMD3432,,18
MMTWR,,64
MSGOX,AFG300122786,1
RWPBD16R,,12
MCCUORR1,,49
MLPRRX,AFG300123052,1
RPMD3634,,17
MMSYE,,743
MLPRYX,,50
RSSR3032,,3
RSBD4432,,12
MSBKL,,145
KLKCOS,,23
MFSP2,,76
RWPPP08R,,8
RPYT3230,,12
KPELM,,130
MMSWH,AFG300123043,1
MLPRRX,AFG300122786,1
STPTUX,AFGTUS248672363,17
RSHB4432,,10
DDTMFRX,,123
MLFRBSX,AFG300123088,1
RWKSR16R,,7
KSPUM,,73
RSPP3032,,18
RSZZ4232,,1
RPBD3432,,22
MCCUONIN1,,98
MCCFOBPM,,116
MXSRE,,75
DDCJSCM,,120
MPIZOL,,81
RSHB4032,,15
MCCUISM1,AFG300123170,1
MLPRRX,,70
RWPHR18R,,4
RWKFW08R,,11
RWPW1XXL,,24
RWKBB06R,,4
MGGPX,,226
MLPRRL,AFG300123106,1
RWPHB16R,,5
RHRD1111,,4
DDTCACS,,47
FSHOX,,255
MMFGE,,24
MPSOM,,80
FSHOM,,216
STPTUM,AFGTUS235741500,40
MCCUIDOCL,,15
MPSDX,,84
RWSBB10R,,15
RWSHB06R,,6
STSREX,,1
RPYT4034,,2
MPSPL,AFG300122786,1
MSBUM,,250
RWPW111L,,17
MPALX,,190
MPPU2,,101
MPZEM,,1
5090L,,150
MSBKX,AFG300123066,1
KSBKL,,209
RWSMD16R,,8
RPHR3230,,3
RPZZ3030,,7
DDTAKS,AFG300123179,1
RWKBD08R,,12
MGG2,,38
MPSL2,,68
MSORM,AFG300120176,1
RWPYT18R,,3
MPSW2,AFG300123070,1
MCCFOMP3PL,,4
RWKRT06R,,5
MCCULTETT1,,36
MPSD2,,23
MXBRE,,316
RSHR3432,,13
MCCFOMP3BM,,4
RWSHB08R,,8
MPTWX,AFG300122786,1
MXSSI,,67
MPBSX,,113
RWSZZ16R,,5
STPSBL,,1
RSSR3432,,24
MLCYNM,,111
FWAIM,,197
RPWT3832,,32
MLJAL,,30
DDTCDF2,AFG300123099,1
STSGRL,AFGTUS235741500,140
MPIMSX,,92
MMSPU,,770
MPNZOL,,236
RPYT3832,,38
RSHR3232,,5
MPSW2,,118
MSBKX,AFG300123041,1
DDTMCAL,,130
MLPRYL,,7
RSWT4432,,20
MLMSB2,,80
STPSBM,,3
MXWRE,,297
MSSIX,AFG300122786,1
MLCYNX,,453
RPPP3232,,32
MPMFLL,,90
R2RD3232,,1
DDTCYC2,,1
RWKHR14R,,11
RWPYT12R,,1
MPTDL,,258
MXGRE,,648
MXGYE,,202
RSMD3432,,7
KLBGS,,20
MPMUL,,111
RWSWT14R,,15
DDSSFRL,,16
MPZE2,,57
MFAN,,45
MCCUOEM2,,52
MXGPU,,163
RPZZ3634,,8
MSPIL,,8
KPTUL,,1
RPMD3434,,6
MLMOMX,,403
RHMD1111,,115
MCCLMAGACBL,AFG300121263,1
DDTHMS,,97
RPHR3030,,4
KPCOS,,50
MXGPI,,44
RPPP3230,,12
RSRT4432,,7
RWKBB08R,,7
MPESM,,115
MPBU2,,37
MSBKX,AFG300123013,1
RWSBD14R,,15
MLCYN2,,79
MCCUOEM1,,51
RWKZZ12R,,16
RSRT4032,,3
MFUS2,,58
MPTUX,,173
MPSBX,,48
FGLS,,42
STSGR2,AFGTUS235741500,37
RPSR3232,,12
5090M,,300
RWPBB10R,,12
RSBD3032,,11
DDIWFW,AFG300123117,1
RWKBB14R,,17
R2YT3832,,11
MPSBM,,75
KPGPM,,2
R2BD3432,,18
DDTMENL,,322
MLSBG2,,11
RWSWT18R,,3
RPRT4434,,4
RWKSR08R,,10
MPBSM,,39
FGDRM,,98
MCCMOBPX,,4
RWKBB16R,,3
MLMAD2,,60
R2YT4232,,11
MSORL,AFG300122852,1
KSBLS,,83
MFIRL,,61
DDCJSSS,,60
RPZZ3630,,5
MCCMICOWM,,4
RPRT3030,,4
STSBLM,AFGTUS235741500,16
RWKHR10R,,8
RPHR3834,,8
DDTCYCS,,33
MSGRX,,54
MLPRWS,,18
RPBD3430,,11
FGWXS,,52
RPMD3632,,25
KSBLL,AFG300123058,1
MFFRL,,6
MSTQX,,100
RSHB3232,,19
MXFBL,,412
MSGOX,AFG300117134,1
KLMOCL,,17
MPELX,AFG300122786,1
5090S,,300
KLMOSBM,,64
R2BD3632,,7
MMPSD,,348
MPGAX,,194
RWKHR08R,,8
RPSR4434,,3
DDSSTBX,,20
RPBB3832,,21
MGGPM,,1
KPELS,,64
RWPWT08R,,7
RPMD4234,,5
KLTIS,,50
RPMD3430,,27
RWKSR18R,,9
FGSHXS,,42
DDSSKRS,,1
MLTI2,,5
RSHB3632,,30
RWSZZ08R,,5
RHRT1111,,32
R2RD3632,,4
MMSWH,,788
MLMSBL,,917
KLMOSBL,,25
RWKMD08R,,7
MLPRGX,AFG300123074,1
RSOXB111,,350
RWSZZ12R,,5
KLVBL,,27
RPBD3832,,14
KPGPS,,18
MGTG2,,127
DDTCACL,,80
MLMSBX,,503
MSTQM,,13
MPSAL,,156
KSPUL,,121
MLJOLL,AFG300123163,1
DDTDSTPS,,25
RPHB3632,,26
MPBCM,AFGTUS545810408,1
STSBKM,AFGTUS235741500,112
MLPRW2,AFG300123074,1
KSREL,AFG300123186,1
MLPRR2,AFG300118958,1
MXFWH,,151
MPCT2,,11
RWKMD12R,,15
MSBKX,,650
MLPRBKL,,50
RWSHB12R,,7
RWKZZ14R,,14
MCCUIBB1,,88
KPMSL,,102
RSZZ3232,,2
MCCMOBPM,,1
RPHB3030,,3
DDTMIMX,,183
KSBKS,,147
MPCOL,,74
KPSML,,6
MPFRM,,269
MPGWL,,30
RMPR111L,,27
MPTU2,,34
MMPWS,,320
MMSPI,,394
MSBL2,,73
RWPBD12R,,9
RWSWT06R,,8
RWPBD06R,,8
RSBD4232,,15
RWPMD10R,,11
MCCFOMP3PUS,,4
RWKHB14R,,14
RPRT4234,,5
MCCUOSOLX,,30
FSHIL,,44
RWKMD06R,,9
KPMUCL,,24
RPBD3434,,10
MGGP2,,74
MLSLML,AFG300118231,1
DDCJFRM,,212
DDTHML,,634
MCCUOBLOKVT1,,90
RWKBD16R,,14
DDCJSSM,,120
RWSPP10R,,15
MLFRNJX,,50
KLJAS,,50
RWPHR08R,,5
STSREX,AFGTUS235741500,3
R2WT3232,,15
STSREM,AFGTUS248672363,19
FGBXS,,51
DDMCYB,AFG300123091,1
KPCOM,,6
RSRT4232,,13
KSPIL,AFG300123111,1
MPPOX,,331
RWPHB10R,,2
KPGPM,AFG300121819,1
MLPRRX,AFG300123018,1
MPWW2,,3
MSPUX,,148
MMTGM,,112
MMFWA,,19
MLKCOX,,74
MFAUL,,52
DDTHMM,,254
RSRD3432,,12
MSPUM,,79
DDSSKRM,,21
MSBKL,AFG300123089,1
MCCMOBPL,,108
KSORL,,100
RWPHB14R,,6
RPRT3432,,4
RWKPP16R,,14
MPCO2,,43
KLMOAS,,12
MCCFOMP3PM,,4
MLPRG2,AFG300123104,1
MSBKM,,196
MPPW2,,40
FSHOL,,194
RPWT3834,,10
MLPRPM,AFG300123108,1
MPTWM,AFG300123132,1
MXFYE,,196
MLPRRM,AFG300123082,1
RPPP4234,,8
MCCMIPIRL,,67
MGTPL,,15
RWSFW16R,,10
KPLES,,1
KPTDM,,6
RSBD3632,,9
MCCUIDOCX,,5
RPBB3630,,6
RSYT3432,,20
FBAG,,13
RWSYT06R,,8
MPNI2,,110
MXGBK,,560
RPHB3634,,10
RPBB3634,,13
KSBKM,,150
MPFRX,,498
MPSPM,,71
MLPRBKL,AFG300123074,1
RWKPP08R,,13
MCCFOSML,,3
MPVAL,,416
MLJOLX,AFG300123024,1
STPTUX,AFGTUS235741500,29
KLMOZL,,34
MPTUM,,179
DDTAKM,,280
MXFGR,,192
DDSSTBL,,78
RMPW11XL,,155
RWSHB18R,,5
DDTMIML,,169
RWKFW16R,,6
RPWT3030,,7
MPSGL,,188
RPHB4234,,6
DDCJPSM,,120
MPALL,,281
MPESX,,194
DDTCYBS,AFG300123069,1
RPFW3432,,70
RPSR3434,,8
MPFSX,,210
MCCFIPIRM,,43
DDTDSTPX,,194
MSSIX,,72
RWKFW14R,,15
FRUC,,31
RSZZ4432,,3
MSTQL,AFG300122786,1
WMLFRLCM,,21
MPSHM,,36
RWPB1XXL,,12
RPZZ3834,,6
RPHR3232,,4
RWPHR10R,,9
RWPHB06R,,4
RPSR3030,,5
KPLEM,,79
DDTAK2,,12
RSMD4032,,2
MCCFOMP3PUM,,4
RSFW3632,,33
DDCJFRX,,116
MPTW2,,51
STSBLL,,132
MSMAM,,62
MSBKX,AFG300123026,1
MSWHL,,790
MCCFO20S,,2
DDTMCAX,AFG300123085,1
RWKHB16R,,1
RPSR3230,,3
MMFME,,489
MLPRWM,,85
MLTIL,,81
MLKCOM,,2
RSFW3232,,25
MPLE2,,62
MGPL,,75
RPPP4034,,9
RSFW4032,,18
KPRAM,,1109
RMPB1XXL,AFGTUS355841210,1
RSBB4232,,9
KLJAM,,51
RPRT4034,,8
FPANL,,233
RWSMD18R,,4
MPSUX,,398
RWSHR12R,,5
RPMD3630,,10
RWPMD16R,,15
MLMZOM,,56
RWPZZ06R,,1
MSGR2,,74
RSMD3832,,6
RWPZZ10R,,5
MGOX,,34
RMPB111S,,21
MPLEL,,126
RPBD3632,,21
RWPHB08R,,7
MSYEX,,1
KSBLM,,183
MLSBGX,,50
MPGA2,,82
RHSR1111,,17
FGDRS,,102
RPRD3432,,4
MSPU2,,9
RPYT3432,,30
RPFW3232,,38
MPSHX,,130
MPTUM,AFG300123191,1
RHYT1111,,77
DDPSTR13,,856
MLPRGX,,1
MXGBL,,401
KSGRL,,286
MCCUOSOLM,,1
MLJOL2,,14
MLVB2,,12
MLMSC2,,231
MFUNL,,9
STSBLX,,102
DDMCYB,,187
RSBB3032,,18
RPPP3634,,21
RPWT3634,,27
MPSUM,,117
RWSBB12R,,16
DDCJGBM,,181
FGBM,,101
MCCMO20M,,8
RPYT3634,,11
MPBUM,,109
DDTCYCM,,62
MCCFOMP3GL,,4
RPHR3632,,6
