SKU,ORDERED,STOCK
MFGEX,,37
MMSRE,,642
MPELL,,12
DDTCDFL,AFG300117446,1
DDTCACX,,69
RSPP3832,,17
MLMOMM,,264
MMPMM,,982
RMPB1XXL,,41
MMPZO,,215
R2RD3832,,1
DDTAKL,,433
MCCMO20L,,94
MCCLMAGSLT1,,452
DDTMFIL,,44
RPYT3030,,9
RSBB4032,,7
MPSH2,,55
RPHR4034,,4
KSPIL,AFG300120890,1
RSOXW111,,428
STSGRM,AFGTUS277237271,64
DDCJFRL,,166
RWSPP12R,,13
MLPRPX,,13
MLMSBX,AFG300119279,1
RPMD3232,,20
RWSFW08R,,8
MLFRPRX,,14
RWKHR12R,,9
RSRD4232,,9
RWKHB10R,,5
MGOL,,70
KSGRS,,106
RWPW111S,,15
RSOXR111,,391
DDTMIM2,,50
MLMSCX,,455
RWPPP16R,,15
RMPW111M,,68
KPALL,,11
FBLAS,,1
STSRE2,,1
RWPWT12R,,9
MIRE,,352
RWPYT16R,,7
STPTUL,AFGTUS235741500,50
RWKYT08R,,6
RBELTW11,,360
MCCMIPRIL,,4
RWKPP18R,,10
MPSAM,,21
MPLEX,,171
MPWWM,,38
MCCKOSOLL,,51
MPWWX,,74
STSBL2,AFGTUS277237271,23
MMTBY,,524
DDCJGBS,,86
RWPR11XL,,17
MPSOL,,229
KSGRM,,214
RWPZZ18R,,4
RWPPP18R,,4
MIGR,,138
MCCMARVAML,,150
MSTQ2,,25
KSPIL,,100
KLJAL,,1
FGSXS,,42
RPHB3230,,5
MPMUX,,99
RSWT3032,,23
FGSHS,,31
KPMUM,,8
RPRT3832,,14
RWKHB06R,,2
MPCOX,,136
FBLAX,,136
MXSPU,,182
MPGWX,,177
RWKWT18R,,6
MXFGO,,151
RSFW3032,,15
RSWT3232,,24
MPZEL,,23
RPPP3632,,37
RPWT3430,,11
RSMD3632,,11
KPZEM,,181
MPSAX,,142
MFUSL,,4
MMSGR,,675
MSWHM,,151
MPIZO2,,6
RWSYT12R,,11
STPSB2,,9
RPRT3634,,4
RPWT4434,,2
MLMADM,,10
RWKMD16R,,10
RPBB3430,,8
STPTUL,AFGTUS277237271,106
FGSHM,,30
MFUN2,,41
MPMUM,,177
MXWYE,,442
STSBLM,AFGTUS783813672,41
MCCFO20L,,4
RWKFW12R,,19
RPBB4434,,8
RSPP3232,,18
DDTMFRL,,115
MGTOL,,181
R2BD4232,AFGTUS355841210,1
DDCJSCL,,129
MLJOLM,,37
RWKYT12R,,11
MFEN2,,66
RWPB11XL,,16
MMPFM,,774
MSBK2,,172
RPHR3430,,7
RPPP4434,,7
FGSS,,87
DDTCYBM,,380
RPWT3630,,16
MXWWH,,334
KPTUS,,92
MPMSX,,101
RWSZZ18R,,4
RMPW111L,,169
KLMOML,,25
MXSYE,,319
DDTMEN2,,219
RWSZZ10R,,3
RPHB3834,,12
RWKMD10R,,14
KLMOZM,AFGTUS107267155,1
MCCULTETL1,,34
MLPRRL,,105
RPBD3834,,1
MCCMIINDM,,4
MPSLL,,6
MFIRX,,80
MIBA,,391
DDCJSCX,,50
RPRT3834,,8
MLPRBLS,,4
MFITL,,39
RSWT4032,,11
RSYT3832,,1
STSGRL,AFGTUS277237271,160
MPMFLX,,154
RWSYT08R,,4
R2WT4032,,15
DDSSKRL,,30
MPSP2,,91
RWKMD14R,,12
RWPB111L,,9
MSPIX,,3
RPHB4434,,12
KLVBS,,20
MPBCL,,141
R2YT3432,,20
RWSBB14R,,19
RPBB3030,,8
MPTUL,,259
DDTCDFL,,192
RPSR4034,,9
RWPFW10R,,9
MLPRBLM,,1
RWKRT12R,,19
RPWT4034,,14
RWPMD14R,,13
MFCA2,,29
MPNIX,,222
STSBKX,,432
DDTCDFX,,167
MMPTD,,825
DDTFCX,,268
DDTCYBS,,189
MMTWB,,176
RPPP3434,,10
KLGBL,,23
MPTBM,,94
MCCUIDOCM,,4
MPBTL,,113
DDMSCU,,380
MFSCL,,61
RWKPP12R,,19
MPLEM,,22
MPALX,AFG300115609,1
MXBBL,,285
RWPHB18R,,5
KLTIM,,65
MPBS2,,66
R2YT3232,,9
RWKYT06R,,5
RWSYT14R,,15
RWSBD06R,,6
MLPRGL,,95
MPNIM,,218
RWSHR06R,,3
MFENM,,71
MXFBK,,71
RWSWT12R,,11
STSGRM,AFGTUS235741500,150
MMPCH,,2082
MMFAU,,29
STSRE2,AFGTUS783813672,7
MPVAM,,204
MGTPX,,146
KLVBM,,11
MPVAX,,403
DDCJSRM,,118
RSFW4432,,10
RSBD3832,,10
MPTBS,,46
MXWBK,,267
RSBB4432,,8
MMSBL,,648
MPMGL,,82
RWKBB12R,,19
MPGW2,,25
RPRD3030,,3
MLMZOL,,201
RPRD3634,,7
STPSBX,AFGTUS277237271,31
MPRTL,,183
KSREL,,119
RWSBD16R,,11
MLPRBLL,,217
MSSI2,,31
MPGAM,,170
RWPR111L,,10
KPMSM,,61
RSFW3832,,26
MLFRPAX,,23
MFGEM,,42
RSMD4432,,10
RHWT1111,,208
RWSMD08R,,5
MXSPI,,76
MGOM,,32
RWSHR14R,,8
MMTGR,,130
MSGRM,,166
MCCFOMP3PS,,6
MGGL,,216
STSBKM,AFGTUS783813672,79
RSRD3832,,3
MSBKX,AFG300119891,1
RPHB3432,,20
RPBD3634,,16
3024L,AFGEBAY93468,1
KPMUS,,2
RWSBB08R,,10
RWKFW10R,,14
FBLAM,,48
MPCOM,,139
MLPRPUX,,26
DDTMFI2,,74
MPSUL,,402
RPZZ4434,,6
MFAUM,,18
RWPFW08R,,7
MFAUX,,112
MFENX,,69
MSSIL,,36
MLTIX,,68
MLPRY2,,5
RPSR3832,,6
STSBLM,,45
RWSWT08R,,5
RSHB3432,,18
MSWHX,,515
STPSB2,AFGTUS783813672,10
RPYT4434,,5
MPNZO2,,26
5058XL,,50
DDTDSTPL,,194
RPHB3232,,21
MPPOL,,318
MXBBK,,451
RWPR111S,,14
MLPRPU2,,19
KLVBS,AFG300117809,1
MCCULTETS1,,39
FWAIS,,136
RSMD3232,,1
RPSR3634,,8
MFIT2,,94
KLBGM,,29
MMFSC,,20
MMTBG,,116
RMPR111M,,42
MXWBL,,685
MPAL2,,22
RSRD3632,,1
RSRT3032,,4
DDTMCAS,,75
MCCLMAGACBL,,3831
MPTDM,,84
MCCMIZOML,,63
DDMCYC,,1
KLMOCM,,13
MMSBK,,1
RWSFW10R,,16
RHFW1111,,100
RPBD4234,,4
R2WT4232,,14
KLMOFS,,26
MXGSI,,4
MMPCA,,663
MFIR2,,64
MFSPL,,57
MXFPI,,119
DDTHMX,,415
MPVA2,,88
MFIRM,,72
RSHR3032,,3
MPTPL,,139
MGTPM,,65
RWKWT16R,,7
KLMOSBS,,25
STSREM,AFGTUS235741500,5
RPBB3230,,10
RWSHR08R,,5
RABROCHURE,,145
MSGRX,AFG300112450,1
MLKCO2,,23
RPMD3834,,10
MLJOLL,,210
MMFCA,,261
STSBKL,,340
KSGRM,AFG300112256,1
RPBD4434,,7
DDTMFR2,,27
MPRTM,AFG300111755,1
RWSMD10R,,9
MFCAL,,55
MCCLMAGSEH1,AFGTUS403273850,1
RPBB3834,,5
RPFW3832,,25
MPBC2,,72
MCCFOMP3BS,,4
DDTHM2,,50
RWPWT10R,,13
DDTCYB2,,185
MXWGO,,40
MPFS2,,60
RPMD4034,,11
RWPWT18R,,6
RWSFW18R,,4
STSBK2,,127
DDTMCAM,,91
MPIMS2,,25
MSGOL,,18
RSFW4232,,2
RWKBD18R,,9
RSPP4432,,3
RWSWT16R,,10
MLMSCL,,675
RSWT3832,,23
RHBB1111,,48
RWKHB08R,,7
LCDSCREEN,,284
DDCJSRS,,60
RSSR4432,,10
R2RD3432,,3
RPHB3832,,15
DDTFC2,,12
3024L,,597
MPSOX,,252
RSPP4032,,4
MPPUL,,338
DDTMFIS,,25
RWSFW12R,,9
STSREM,AFGTUS277237271,13
MFAU2,,5
RPFW4434,,6
RSSR4232,,15
RPHR3434,,4
RWSPP08R,,7
MPZEX,,105
KPASL,,33
R2BD4032,,10
KPMUCM,,6
MLMSCM,,180
MSGO2,,26
RWKRT10R,,20
RWPHB12R,,5
DDTDSTP2,,24
MGTOM,,61
RWPWT14R,,11
RSBD3432,,14
MPLHL,,24
FTIE,,445
MXSGR,,130
MLTIM,,3
KPELL,,117
RPWT4234,,7
RWKYT16R,,5
RPMD4434,,4
MFMEL,,172
MXFMU,,50
RPPP3430,,14
MPCTL,,2
MMPAL,,568
MFSPM,,66
RWKRT14R,,18
RPZZ3430,,13
MSORL,,95
RWPBD08R,,8
RWPFW12R,,14
MPMU2,,96
KPBCL,,2
RSRD3232,,16
RPHR3832,,9
RPBB4034,,12
RPRT3232,,5
MPEL2,,62
FGSM,,79
RWKWT08R,,12
MLPRGM,,97
RPHR3630,,9
FPANM,,226
DDMZMB,,65
DDTMIMM,,95
RWPB111S,,10
MCCMICOWL,,4
MPBCX,,143
DDSSTBM,,53
MSRE2,,54
MPELX,,83
RWKSR12R,,19
RWKFW06R,,8
RWPZZ16R,,2
DDTMFRS,,42
RWKRT16R,,11
RPZZ4034,,5
STPSBL,AFGTUS277237271,72
RWSFW14R,,15
RSRT3832,,17
MSGOM,,13
MPBT2,,64
R2BD3832,,8
RSHB3032,,8
KLMOAM,,69
RPHR3634,,10
DDTDSTPM,,50
MCCFO20M,,118
RWKBB10R,,14
RPFW3434,,18
KLMOCS,,46
MMPFC,,758
FHAT,,140
MLSBGM,,25
RWKYT10R,,10
KSPIS,,172
STPSBM,AFGTUS235741500,50
KLKCOM,,25
MCCUOWM1,,111
MFITM,,88
MLPRPUL,,38
MFUNX,,29
MFITX,,39
RWSPP14R,,13
MLKCOL,,47
DDTMIMS,,48
MPELM,,16
MMPMU,,561
DDTCAC2,,22
RWSHB14R,,3
RSRT3432,,21
RSBD3232,,4
DDCJPSL,,120
RPBD4034,,11
STPTUX,,17
MFSCM,,40
RPWT3232,,30
RHHR1111,,32
RWPBD14R,,14
DDSSSGS,,15
MFGEL,,28
MPIMSM,,8
MGTGL,,62
KSORM,,137
RWPPP10R,,13
MPTWL,,47
MCCFOSMM,,3
MPMS2,,2
MPPWX,,102
MPPWM,,9
DDTHZ2,,1
RWKRT18R,,10
RPHR4234,,4
MXFTU,,48
MPSGM,,276
DDTCYCL,,105
RPYT3834,,8
MFME2,,41
RPPP3030,,12
STPTU2,AFGTUS783813672,11
MCCKOBLOKM,,8
RPWT3432,,63
RWPFW18R,,2
MGTOX,,316
RMPB111L,,62
KSPIM,,338
MMFUN,,9
RWPPP12R,,12
KPALS,,237
MCCFOBPS,,4
RSWT3432,,41
STPTUM,AFGTUS783813672,54
DDTFCL,,492
R2WT3832,,12
MBATTERYPACK,,47
RPYT3632,,31
RPRD3434,,7
DDCJFRS,,80
RPWT3632,,46
DDIWZC,,2759
MGGM,,35
MPALM,,61
MLPRYS,,18
MPFSL,,213
RWSWT10R,,13
MCCLMAGHFD1,,983
RWSPP06R,,8
FBLAL,,61
MPSPL,,70
RPFW3834,,16
STPSBL,AFGTUS235741500,50
KLMOAL,AFGTUS456048762,1
MPTBL,,43
MCCFOMP3PUL,,4
RPRD3834,,1
RPHR3432,,4
MMTRB,,92
RPFW3632,,41
KPZEL,,148
KPNIS,,1
RWPBB08R,,6
MXFOR,,183
MPLH2,,21
RPRD4234,,3
MSBKX,AFG300115609,1
RSOXB111,AFGTUS355841210,1
RMPW1XXL,,107
RPPP3834,,14
MPBCM,,25
MGP2,,27
MLPRYM,,33
MPSWL,,120
RPRT3230,,3
DDSSFRM,,46
KSORS,,228
MGGPL,,288
MMSOR,,590
MFFRM,,86
DDTMENM,,242
RMPB111M,,39
RWPBB12R,,17
MPRT2,,70
STSBKM,,127
MCCFREECAT,,83
R2WT3432,,20
MPIZOX,,86
MXFSI,,77
RPSR3834,,10
RWSMD06R,,8
MCCKOBLOKS,,22
STPTUX,AFGTUS783813672,19
MPSLX,,77
RWPBB18R,,4
RWPB111M,,26
RWSZZ14R,,3
RWKZZ08R,,6
MLMZO2,,268
RWSBD12R,,15
RWPYT06R,,8
RPFW3634,,15
DDTFCM,,102
DDTMFIM,,37
MPTD2,,5
MLSLMS,,1068
DDCJSSX,,60
RPRT3434,,3
RWKWT12R,,19
KLMOZS,,21
DDSSFRS,,25
MCCLMAGACBL,AFGAMZUS104-4924600-2162638,1
MCCFOMP3GS,,4
MPBTX,,216
MPFR2,,119
KPMSS,,138
MCCLMAGACBX,,1996
MPSG2,,86
DDMCEC,,5
DDTMENS,,216
MLMSBM,,342
MMTBO,,60
RPBB3232,,14
MPMGX,,85
RSZZ4032,,1
KPSMM,,42
MLPRRM,,79
MPGWM,,1
RWSBD08R,,2
MLMADX,,61
KPSGL,,5
MSGOX,,33
RPMD3832,,24
MCCUOBLOK1,,232
RWKWT06R,,9
RPPP3432,,51
MPTPX,,143
DDTHZM,,17
MFSCX,,68
MPMG2,,44
RPMD3230,,7
RSMD3032,,12
R2YT4032,,11
KPBCS,,79
MPSDL,,90
RMPB11XL,,51
RWPMD18R,,4
RPBB4234,,9
KPMUCS,,9
RPWT3434,,16
MGTP2,,154
RWPZZ14R,,9
MGGX,,49
STPTUM,,204
KPALM,,47
RPFW3030,,6
RPHB3434,,6
RWPFW06R,,6
RPRD3232,,3
RWKHB12R,,4
RWKBD06R,,9
RMPW111S,,51
RWSPP18R,,2
MXFPU,,118
MSREX,,93
FPANX,,126
MMPKC,,576
MCCUOSOLL,,131
RSBB3232,,24
RSSR4032,,5
RWSBD18R,,4
MXGOR,,134
MPIMSL,,106
STPTU2,,13
DDTCYCX,,92
RWPHR12R,,7
FPANS,,159
MPMGM,,36
DDCJPSX,,60
DDTAKS,,176
FGDRXS,,48
RWSYT18R,,3
5058S,,125
DDTMFRM,,77
DDTCDF2,,35
MFENL,,83
DDSSSGM,,28
MLVBL,,31
MLCYNL,,590
RPBB3434,,8
RWPHR16R,,4
MPSA2,,151
RMPR1XXL,,11
MPMFL2,,165
WMLFRBCM,,23
RPZZ3832,,2
MFCAM,,37
MLJOLX,,168
MLJA2,,35
DDMCYC,AFG300117446,1
MFFRX,,69
RWPBB06R,,7
DDSSTBS,,44
RSYT3232,,12
MFCAX,,66
RWPR1XXL,,12
RWSBB06R,,9
STPSBM,AFGTUS277237271,121
MMPSG,,248
MFGE2,,35
MPRTM,,330
RWKBD12R,,3
KLMOAL,,68
MLPRG2,,23
MPRTX,,197
RPYT3232,,17
KSREM,,85
KPTUM,,1
RHZZ1111,,71
MMPPU,,776
MPNZOM,,29
MFSPX,,67
RWPFW14R,,17
RSWT4232,,16
MLMADL,,53
RPPP3630,,9
5058M,,200
RWPZZ12R,,2
MSBLL,,22
MCCFIZOMM,,46
RWPPP14R,,12
RPBD3230,,12
STSBL2,AFGTUS235741500,17
KPZES,,91
MLPRPL,,4
MLMOM2,,48
KSRES,,209
DDTHZL,,560
RSRT3232,,8
RWKZZ06R,,5
MCCUIFB1,,17
RSYT3032,,13
MXFRE,,309
MCCUISM1,,58
RWSHB10R,,5
RMPR111S,,14
RHBD1111,AFGTUS355841210,1
RWKZZ16R,,13
MPTPS,,146
RPFW3630,,15
MGTGX,,242
DDTMEL,,1
RSHR4232,,3
RSFW3432,,37
RSHB3832,,22
MLPRPUM,,36
RWKPP10R,,19
MPPWL,,92
MLFRGLX,,48
MCCMIPRIM,,18
DDCJGBL,,187
RWPYT10R,,13
RWKPP14R,,15
KLMOZM,,1
RWKWT14R,,15
R2WT3632,,9
MLPRBKM,,76
STSRE2,AFGTUS277237271,23
STSREX,AFGTUS783813672,13
STSREL,AFGTUS783813672,21
MSWH2,,117
RSBB3632,,8
KPSKM,,105
RPZZ3232,,3
MFSC2,,40
MLPRBK2,,6
MLFRBSX,,8
MPPOM,,178
RWPYT14R,,18
MXWGR,,155
STSBL2,AFGTUS783813672,10
MCCMIZOMX,,1
DDCJGBX,,107
RWPBD18R,,3
DDIWFW,,3547
RWPR111M,,22
MCCMIINDL,,1
RPZZ3230,,4
STPSB2,AFGTUS235741500,14
DDCJSRX,,61
MPNZOX,,182
MSTQL,,118
MCCULTETI1,,39
KPSKS,,20
RWSMD12R,,8
DDSSSGL,,24
RSPP4232,,5
MPFRL,,482
MLMOML,,435
RWSFW06R,,8
RWPMD06R,,6
STPTU2,AFGTUS235741500,33
RWKMD18R,,7
MXSOR,,101
MLPRBKS,,3
PARTYCITYSTICKERS,,782
KSBLL,,352
RPZZ4234,,2
KLGBS,,37
RPHB4034,,11
RWSHR16R,,2
MXGWH,,94
KLMOMS,,25
RWSBD10R,,8
MLMZOX,,321
MPPO2,,95
RWKYT14R,,17
RWPWT06R,,8
RSHR3632,,9
DDTCYBX,,374
MPFSM,,86
MXWSI,,86
STPTUL,,93
DDCJSSL,,120
DDTMENX,,257
FSHIX,,65
KSPUS,,114
MLPRGS,,8
MPLHL,AFG300119281,1
FWAIL,,234
MITU,,46
RPBB3432,,33
MPNIL,,128
RSZZ3032,,4
RWPYT08R,,8
MLPRBLX,,15
MCCUOMP31,,14
RWSBB18R,,4
MGTO2,,144
MPCTX,,44
MMFEN,,113
RWPPP06R,,10
MMPSK,,154
RSWT3632,,48
RPPP3832,,31
RPSR3632,,5
RPSR3432,,14
RPRD4434,,3
RPSR4234,,4
RWPFW16R,,6
KLGBM,,74
MFMEM,,31
MMFIR,,18
KLTIL,,25
FSHIS,,175
MLFRPLX,,20
RSRD4432,,8
MPSPX,,66
MCCUONINY1,,3
MCCMO20X,,4
MLJAM,,29
RPYT3630,,9
FGBS,,103
MCCKOSOLM,,59
RPHB3430,,9
KLKCOL,,17
DDTMENX,AFG300119337,1
MGPM,,10
MXGGR,,293
MCCKOSOLS,,60
RPFW3230,,14
MLJAX,,86
RPZZ3434,,1
MCCFOMP3BL,,4
RWSHR18R,,5
RWPBD10R,,11
MIBU,,194
RWPHR06R,,2
RWPMD08R,,9
RWPW11XL,,24
MSYEL,,109
RWKRT08R,,10
RPRD3632,,4
RSRT3632,,9
3024M,,999
RPHB3630,,3
FGLM,,37
STSGRM,,179
RWSYT16R,,13
MFMEX,,126
3024S,,100
DDCJSRL,,125
KPBCM,,1
RHBD1111,,23
MCCUIDOC1,,58
MPBUX,,465
MPPUX,,318
RPWT3230,,9
MLPRPUS,,3
KPSGM,,116
MSPIX,AFG300112016,1
MLPRW2,,40
RWPMD12R,,11
MXWPI,,126
MPPUM,,180
RWKPP06R,,8
MCCMICOWX,,4
RWPBB16R,,13
STPSBX,AFGTUS783813672,19
RPRD3630,,2
RPYT4234,,10
RWPZZ08R,,5
RSSR3232,,8
MCCUOWAN1,,10
MPMFLM,,38
MSGRL,,74
RPFW4234,,5
DDCJPSS,,60
MPSB2,,79
RSPP3632,,35
KLMOFM,,28
MCCKOBLOKL,,39
MPTWX,,66
STSGRL,AFGTUS783813672,50
STSRE2,AFGTUS235741500,19
MSMAX,,63
RWKBD10R,,14
MSMA2,,39
RPFW4034,,10
R2BD4232,,12
MCCUOEM3,,47
RPRT3630,,7
RWKWT10R,,19
RSYT4432,,6
STPTUL,AFGTUS783813672,51
MPBSL,,155
MPGAL,,291
MXSBK,,110
RWSZZ06R,,1
MPES2,,132
RPBD3630,,17
MPSHL,,110
STSGR2,,32
RPBB3632,,26
MPSGX,,183
MXWPU,,213
MLFRPSX,,11
STSGRX,,44
RMPR11XL,,39
RSSR3832,,10
RWSMD14R,,12
DDTHZX,,346
RWPWT16R,,8
MPTUM,AFG300119891,1
RWKZZ10R,,12
RWSYT10R,,13
KPLEL,,212
RWKBD14R,,11
MPESL,,164
FSHOS,,142
MSMAL,,1
RWSPP16R,,14
MCCUOPUPM,,50
DDTMFIX,,46
RSBB3832,,10
MXSWH,,57
MLFRASX,,49
MCCUOBLOKZ1,,76
MGTGM,,82
DDTZEM,,18
MLSLML,,1900
RWSBB16R,,12
RSHB4232,,8
MCCFOMP3GM,,4
MPTWM,,9
MSREL,,82
MPSO2,,144
MSBLX,,176
RPSR3630,,9
RSYT4232,,10
DDMCMM,,21
RWPBB14R,,16
RSYT3632,,12
MLPRGX,AFG300109720,1
MGPX,,45
DDTCYBL,,526
MCCFOSMS,,5
MCCLMAGSEH1,,3504
DDTMCAX,,137
R2BD3232,,3
STPSBL,AFGTUS783813672,47
RPFW3430,,19
RPBD3232,,28
MPSWX,,137
RSBB3432,,24
KLMOFL,,49
DDTCDFS,,58
MLFRBDX,,24
DDSSKRX,,25
RPYT3434,,14
MGO2,,45
RSHR4432,,4
MPLHM,,5
MFUNM,,24
RPBD3030,,6
RWKZZ18R,,8
DDTAKX,,127
RWSHR10R,,5
5058L,,124
RWKSR14R,,15
STSBKM,AFGTUS277237271,44
MXWOR,,309
MXSBL,,157
STSGRL,,4
MLPRRS,,8
FGWS,,51
MLVBX,,46
STSGRM,AFGTUS783813672,57
MPBUL,,429
RPZZ3632,,3
MCCULTETO1,,41
MSORX,,127
MLVBM,,186
RHHB1111,,48
MMTTW,,134
MSORM,,87
RPYT3430,,14
MPSU2,,171
MPIZOM,,1
MPWWL,,46
MSPUL,,138
RSPP3432,,43
RPRT3632,,2
DDTCACM,,64
MLFRSWX,,50
MPSWM,,66
MCCUOFLAP1,,235
RPMD3030,,7
DDTCDFM,,172
RWPW111M,,31
RWKSR06R,,2
R2YT3632,,16
MPSDM,,4
LCDCORD,,276
MLPRPM,,92
RWKSR10R,,25
MCCFOBPL,,4
RSSR3632,,21
DDCJSCS,,58
MCCMIZOMM,,1
MLPRP2,,60
MFFR2,,72
RPMD3432,,18
MMTWR,,64
STPSBM,AFGTUS783813672,65
RWPBD16R,,12
MCCUORR1,,56
STPTUM,AFGTUS277237271,192
STPSB2,AFGTUS277237271,17
RPMD3634,,17
MMSYE,,743
MLPRYX,,50
RSSR3032,,4
RSBD4432,,12
MSBKL,,186
KLKCOS,,23
MFSP2,,76
RWPPP08R,,8
RPYT3230,,12
KPELM,,132
RSHB4432,,10
DDTMFRX,,124
RWKSR16R,,7
KSPUM,,91
RSPP3032,,18
RSZZ4232,,1
RPBD3432,,22
MCCUONIN1,,100
MCCFOBPM,,116
MXSRE,,75
DDCJSCM,,120
MPIZOL,,84
RSHB4032,,15
MLPRRX,,96
RWPHR18R,,4
RWKFW08R,,11
RWPW1XXL,,24
RWKBB06R,,4
MGGPX,,227
RWPHB16R,,5
RHRD1111,,5
DDTCACS,,48
FSHOX,,255
MMFGE,,24
MPSOM,,83
FSHOM,,216
MCCUIDOCL,,15
MPSDX,,84
RWSBB10R,,15
RWSHB06R,,6
STSREX,,1
RPYT4034,,2
MSBUM,,300
RWPW111L,,17
MPALX,,194
MPPU2,,102
MPZEM,,1
RPRD4034,,1
5090L,,150
KSBKL,,321
RWSMD16R,,8
RPHR3230,,3
RPZZ3030,,7
RWKBD08R,,12
MGG2,,38
MPSL2,,68
MSORM,AFG300120176,1
RWPYT18R,,3
MCCFOMP3PL,,4
RWKRT06R,,5
MCCULTETT1,,36
MPSD2,,23
MXBRE,,317
RSHR3432,,13
MCCFOMP3BM,,4
RWSHB08R,,8
MXSSI,,67
MPBSX,,114
RWSZZ16R,,5
STPSBL,,32
RSSR3432,,24
MLCYNM,,113
FWAIM,,197
RPWT3832,,32
MLJAL,,32
STSGRL,AFGTUS235741500,136
MPIMSX,,96
MMSPU,,770
MPNZOL,,230
RPYT3832,,38
RSHR3232,,5
MPSW2,,119
DDTMCAL,,133
MLPRYL,,13
RSWT4432,,20
MLMSB2,,83
STPSBM,,164
MXWRE,,298
MLCYNX,,462
RPPP3232,,32
MPMFLL,,92
R2RD3232,,1
DDTCYC2,,5
RWKHR14R,,11
RWPYT12R,,1
MPTDL,,258
MXGRE,,649
MXGYE,,203
RSMD3432,,8
KLBGS,,20
MPMUL,,111
RWSWT14R,,15
DDSSFRL,,16
MPZE2,,57
MFAN,,45
MCCUOEM2,,52
MXGPU,,164
RPZZ3634,,8
MSPIL,,10
KPTUL,,1
RPMD3434,,6
MLMOMX,,397
RHMD1111,,118
MCCLMAGACBL,AFG300121263,1
DDTHMS,,93
RPHR3030,,4
KPCOS,,45
MXGPI,,44
RPPP3230,,12
RSRT4432,,7
STSREM,AFGTUS783813672,13
RWKBB08R,,7
MPESM,,116
MPBU2,,37
RWSBD14R,,15
MLCYN2,,84
MCCUOEM1,,51
RWKZZ12R,,16
RSRT4032,,4
MFUS2,,58
MPTUX,,168
MPSBX,,48
FGLS,,42
STSGR2,AFGTUS235741500,37
RPSR3232,,12
5090M,,300
RWPBB10R,,13
RSBD3032,,11
RWKBB14R,,17
R2YT3832,,11
MPSBM,,73
KPGPM,,8
R2BD3432,,19
DDTMENL,,329
MLSBG2,,11
RWSWT18R,,3
RPRT4434,,4
RWKSR08R,,10
MPBSM,,40
FGDRM,,98
MCCMOBPX,,4
RWKBB16R,,3
MLMAD2,,60
R2YT4232,,11
KSBLS,,96
MFIRL,,61
DDCJSSS,,60
RPZZ3630,,5
STPTU2,AFGTUS277237271,43
MCCMICOWM,,4
RPRT3030,,4
STSBLM,AFGTUS235741500,16
RWKHR10R,,9
RPHR3834,,8
DDTCYCS,,35
MSGRX,,55
MLPRWS,,19
RPBD3430,,11
FGWXS,,52
RPMD3632,,25
MFFRL,,6
MSTQX,,95
RSHB3232,,19
MXFBL,,413
MSGOX,AFG300117134,1
KLMOCL,,30
5090S,,300
KLMOSBM,,76
R2BD3632,,7
MMPSD,,348
MPGAX,,188
RWKHR08R,,9
RPSR4434,,3
DDSSTBX,,20
RPBB3832,,21
MGGPM,,3
KPELS,,64
RWPWT08R,,7
RPMD4234,,5
KLTIS,,50
RPMD3430,,28
RWKSR18R,,9
FGSHXS,,42
DDSSKRS,,1
MLTI2,,5
RSHB3632,,30
RWSZZ08R,,5
RHRT1111,,32
R2RD3632,,4
MMSWH,,820
MLMSBL,,925
KLMOSBL,,43
RWKMD08R,,8
MPTWL,AFGTUS100477788,1
RSOXB111,,350
RWSZZ12R,,5
KLVBL,,27
RPBD3832,,14
KPGPS,,18
MGTG2,,127
DDTCACL,,80
MLMSBX,,507
MSTQM,,12
MPSAL,,156
KSPUL,,140
DDTDSTPS,,25
RPHB3632,,26
STSBKM,AFGTUS235741500,100
MLPRR2,AFG300118958,1
MXFWH,,158
MPCT2,,12
RWKMD12R,,15
MSBKX,,665
MLPRBKL,,67
RWSHB12R,,7
RWKZZ14R,,14
MCCUIBB1,,89
KPMSL,,102
RSZZ3232,,2
MCCMOBPM,,1
RPHB3030,,3
DDTMIMX,,183
KSBKS,,174
MPCOL,,68
MPFRM,,270
MPGWL,,30
RMPR111L,,27
MPTU2,,34
MMPWS,,320
MMSPI,,394
MSBL2,,75
RWPBD12R,,9
RWSWT06R,,8
RWPBD06R,,8
RSBD4232,,15
RWPMD10R,,11
MCCFOMP3PUS,,4
RWKHB14R,,14
RPRT4234,,5
MCCUOSOLX,,31
FSHIL,,44
RWKMD06R,,10
KPMUCL,,33
RPBD3434,,10
MGGP2,,74
MLSLML,AFG300118231,1
DDCJFRM,,211
DDTHML,,634
MCCUOBLOKVT1,,90
RWKBD16R,,14
DDCJSSM,,120
RWSPP10R,,15
MLFRNJX,,50
KLJAS,,50
RWPHR08R,,5
STSREX,AFGTUS235741500,3
R2WT3232,,15
FGBXS,,51
RSRT4232,,13
MPPOX,,331
RWPHB10R,,2
KPGPM,AFG300121819,1
MPWW2,,3
MSPUX,,149
MMTGM,,112
MMFWA,,19
MLKCOX,,74
MFAUL,,53
DDTHMM,,257
RSRD3432,,12
MSPUM,,81
DDSSKRM,,22
KSORL,,107
MCCMOBPL,,108
RWPHB14R,,6
RPRT3432,,5
RWKPP16R,,14
MPCO2,,37
MCCFIZOML,,1
MCCFOMP3PM,,4
KLMOAS,,12
MSBKM,,219
STSREX,AFGTUS277237271,33
MPPW2,,40
FSHOL,,194
RPWT3834,,10
MXFYE,,196
RPPP4234,,8
MCCMIPIRL,,67
MGTPL,,15
RWSFW16R,,10
KPLES,,1
RSBD3632,,10
MCCUIDOCX,,5
RPBB3630,,6
RSYT3432,,21
FBAG,,13
RWSYT06R,,8
MPNI2,,110
MXGBK,,561
RPHB3634,,10
RPBB3634,,13
KSBKM,,150
MPFRX,,498
MPSPM,,71
RWKPP08R,,13
MCCFOSML,,3
MPVAL,,416
STPTUX,AFGTUS235741500,29
KLMOZL,,43
MPTUM,,177
DDTAKM,,284
MXFGR,,193
DDSSTBL,,78
RMPW11XL,,155
RWSHB18R,,5
DDTMIML,,169
RWKFW16R,,6
RPWT3030,,7
MPSGL,,190
RPHB4234,,6
DDCJPSM,,120
MPALL,,286
MPESX,,194
RPFW3432,,70
RPSR3434,,8
MPFSX,,210
MCCFIPIRM,,44
DDTDSTPX,,194
MSSIX,,77
RWKFW14R,,15
FRUC,,31
RSZZ4432,,3
WMLFRLCM,,21
MPSHM,,36
RWPB1XXL,,12
RPZZ3834,,6
RPHR3232,,4
RWPHR10R,,9
RWPHB06R,,4
RPSR3030,,5
KPLEM,,80
DDTAK2,,12
RSMD4032,,2
MCCFOMP3PUM,,4
RSFW3632,,34
DDCJFRX,,117
MPTW2,,51
STSBLL,,132
MSMAM,,65
MSWHL,,791
MCCFO20S,,2
RWKHB16R,,1
RPSR3230,,3
MMFME,,489
MLPRWM,,94
MLTIL,,81
MLKCOM,,2
RSFW3232,,25
MPLE2,,62
MGPL,,76
RPPP4034,,9
RSFW4032,,18
KPRAM,,1112
RMPB1XXL,AFGTUS355841210,1
RSBB4232,,9
STSBLM,AFGTUS277237271,98
KLJAM,,50
RPRT4034,,8
FPANL,,233
RWSMD18R,,4
MPSUX,,399
RWSHR12R,,5
RPMD3630,,10
RWPMD16R,,15
STSREL,AFGTUS277237271,51
MLMZOM,,51
RWPZZ06R,,1
MSGR2,,74
RSMD3832,,7
RWPZZ10R,,5
MGOX,,35
RMPB111S,,21
MPLEL,,126
RPBD3632,,21
RWPHB08R,,7
MSYEX,,2
KSBLM,,186
MLSBGX,,51
MPGA2,,83
RHSR1111,,17
FGDRS,,102
RPRD3432,,5
MSPU2,,10
RPYT3432,,30
RPFW3232,,38
MPSHX,,130
RHYT1111,,78
DDPSTR13,,856
MLPRGX,,10
MXGBL,,402
KSGRL,,296
MCCUOSOLM,,1
MLJOL2,,15
MLVB2,,12
MLMSC2,,232
STSGR2,AFGTUS277237271,31
MFUNL,,9
STSBLX,,102
DDMCYB,,210
RSBB3032,,18
RPPP3634,,21
RPWT3634,,27
MPSUM,,125
STSREM,,19
RWSBB12R,,16
DDCJGBM,,181
FGBM,,101
MCCMO20M,,8
RPYT3634,,11
MPBUM,,110
DDTCYCM,,63
STPTUX,AFGTUS277237271,35
MCCFOMP3GL,,4
RPHR3632,,6
