TUS124407803,08/28/14 09:29:54
300106687A,09/29/14 14:14:46
300107707A,09/30/14 11:44:43
300109682,10/01/14 20:28:55
300110201,10/03/14 15:57:39
300110275,10/03/14 20:28:33
300110459,10/04/14 13:27:40
300110526,10/04/14 17:28:05
300110746,10/05/14 12:27:53
300110740,10/05/14 12:28:09
300111136,10/06/14 13:57:35
TUS308701828,10/06/14 18:00:19
EBAY93468,10/07/14 09:46:09
AMZUS104-4924600-2162638,10/07/14 09:48:55
300111698,10/07/14 20:57:37
300115884,10/14/14 04:30:46
300117221,10/15/14 17:57:55
TUS135271504,10/16/14 09:33:00
TUS840610663,10/16/14 11:58:05
300117888,10/16/14 13:29:40
300117911,10/16/14 13:58:25
TUS728138182,10/17/14 13:58:28
TUS250825384,10/18/14 10:39:41
300119598,10/18/14 17:25:01
TUS287815480,10/19/14 19:40:06
300120642,10/20/14 01:24:11
TUS602782611,10/20/14 11:38:58
TUS403273850,10/20/14 12:39:08
TUS545044206,10/20/14 13:38:31
300121310,10/20/14 20:39:20
300121265,10/20/14 20:40:06
300121519,10/20/14 22:23:45
300121581,10/21/14 01:40:35
300121808,10/21/14 09:23:23
300121798,10/21/14 09:23:34
TUS456048762,10/21/14 09:38:18
TUS710261534,10/21/14 13:30:53
300122403,10/21/14 21:00:42
300122536,10/21/14 22:31:27
300122531,10/21/14 22:31:31
300122614,10/21/14 23:00:43
300122743,10/22/14 01:31:26
300112360-A,10/22/14 10:07:38
300123007,10/22/14 12:00:22
300123057,10/22/14 13:00:09
300123143,10/22/14 15:30:38
300123164,10/22/14 16:00:27
300123227,10/22/14 17:30:36
300123278,10/22/14 18:00:17
300123277,10/22/14 18:00:18
300123275,10/22/14 18:00:19
300123273,10/22/14 18:00:21
300123469,10/22/14 20:30:40
300123429,10/22/14 20:31:17
300123489,10/22/14 21:00:48
300123630,10/22/14 22:31:11
300123555,10/22/14 22:32:30
300123868,10/23/14 03:00:17
300123899,10/23/14 06:00:19
300123954,10/23/14 09:00:18
TUS306101458,10/23/14 09:30:51
TUS475713882,10/23/14 09:31:06
17LUC78W,10/23/14 10:00:26
3VTUN2WL,10/23/14 10:03:40
300123998,10/23/14 10:30:33
300124030,10/23/14 11:00:15
300124027,10/23/14 11:00:19
TUS503400653,10/23/14 11:30:32
300124097,10/23/14 12:30:24
300124096,10/23/14 12:30:26
300124095,10/23/14 12:30:27
300124093,10/23/14 12:30:29
300124092,10/23/14 12:30:31
300124091,10/23/14 12:30:32
300124090,10/23/14 12:30:34
300124089,10/23/14 12:30:35
300124088,10/23/14 12:30:37
300124087,10/23/14 12:30:38
300124086,10/23/14 12:30:39
300124085,10/23/14 12:30:40
300124084,10/23/14 12:30:42
300124083,10/23/14 12:30:43
300124082,10/23/14 12:30:44
300124080,10/23/14 12:30:45
300124081,10/23/14 12:30:47
300124079,10/23/14 12:30:49
300124075,10/23/14 12:30:50
300124074,10/23/14 12:30:51
TUS123078550,10/23/14 12:30:53
300124110,10/23/14 13:00:15
300124108,10/23/14 13:00:18
300124107,10/23/14 13:00:19
300124106,10/23/14 13:00:21
300124105,10/23/14 13:00:22
300124104,10/23/14 13:00:23
300124103,10/23/14 13:00:24
300124133,10/23/14 13:30:18
300124130,10/23/14 13:30:19
300124129,10/23/14 13:30:20
300124128,10/23/14 13:30:22
300124127,10/23/14 13:30:23
300124125,10/23/14 13:30:24
300124124,10/23/14 13:30:26
300124123,10/23/14 13:30:27
300124122,10/23/14 13:30:28
300124120,10/23/14 13:30:30
300124118,10/23/14 13:30:31
300124116,10/23/14 13:30:33
300124115,10/23/14 13:30:34
300124132,10/23/14 13:30:35
300124114,10/23/14 13:30:37
300124113,10/23/14 13:30:38
300124112,10/23/14 13:30:40
300124111,10/23/14 13:30:41
TUS873166827,10/23/14 13:30:42
TUS280642843,10/23/14 13:30:44
300124143,10/23/14 14:01:52
300124141,10/23/14 14:01:53
300124140,10/23/14 14:01:54
300124139,10/23/14 14:01:55
300124138,10/23/14 14:01:57
300124137,10/23/14 14:01:58
300124136,10/23/14 14:01:59
300124135,10/23/14 14:02:01
300124131,10/23/14 14:02:02
300124167,10/23/14 14:30:18
300124166,10/23/14 14:30:20
300124165,10/23/14 14:30:21
300124164,10/23/14 14:30:22
300124161,10/23/14 14:30:24
300124160,10/23/14 14:30:25
300124159,10/23/14 14:30:26
300124158,10/23/14 14:30:28
300124157,10/23/14 14:30:29
300124156,10/23/14 14:30:30
300124155,10/23/14 14:30:32
300124152,10/23/14 14:30:33
300124151,10/23/14 14:30:35
300124149,10/23/14 14:30:38
300124148,10/23/14 14:30:40
300124147,10/23/14 14:30:41
300124146,10/23/14 14:30:42
300124145,10/23/14 14:30:43
300124144,10/23/14 14:30:45
300112519RO,10/23/14 14:45:09
300124185,10/23/14 15:00:19
300124184,10/23/14 15:00:22
300124183,10/23/14 15:00:23
300124181,10/23/14 15:00:25
300124180,10/23/14 15:00:27
300124179,10/23/14 15:00:28
300124178,10/23/14 15:00:30
300124177,10/23/14 15:00:34
300124176,10/23/14 15:00:35
300124175,10/23/14 15:00:38
300124174,10/23/14 15:00:40
300124173,10/23/14 15:00:41
300124172,10/23/14 15:00:43
300124171,10/23/14 15:00:45
300124169,10/23/14 15:00:46
TUS308646253,10/23/14 15:00:48
300118504A,10/23/14 15:13:58
300124186,10/23/14 15:18:32
TUS322728648A,10/23/14 15:19:25
300124211,10/23/14 15:30:13
300124210,10/23/14 15:30:16
300124208,10/23/14 15:30:17
300124207,10/23/14 15:30:19
300124206,10/23/14 15:30:20
300124205,10/23/14 15:30:23
300124203,10/23/14 15:30:24
300124202,10/23/14 15:30:26
300124200,10/23/14 15:30:27
300124198,10/23/14 15:30:29
300124197,10/23/14 15:30:30
300124196,10/23/14 15:30:31
300124195,10/23/14 15:30:32
300124193,10/23/14 15:30:33
300124192,10/23/14 15:30:35
300124191,10/23/14 15:30:36
300124190,10/23/14 15:30:37
300124189,10/23/14 15:30:38
300124188,10/23/14 15:30:39
300124187,10/23/14 15:30:41
300124232,10/23/14 16:00:21
300124231,10/23/14 16:00:22
300124229,10/23/14 16:00:23
300124228,10/23/14 16:00:24
300124226,10/23/14 16:00:26
300124225,10/23/14 16:00:27
300124224,10/23/14 16:00:29
300124223,10/23/14 16:00:30
300124222,10/23/14 16:00:31
300124221,10/23/14 16:00:32
300124220,10/23/14 16:00:33
300124219,10/23/14 16:00:34
300124218,10/23/14 16:00:36
300124216,10/23/14 16:00:37
300124214,10/23/14 16:00:39
300124213,10/23/14 16:00:40
300124212,10/23/14 16:00:41
66200003277A,10/23/14 16:01:42
300124258,10/23/14 16:30:40
300124257,10/23/14 16:30:41
300124256,10/23/14 16:30:43
300124255,10/23/14 16:30:44
300124252,10/23/14 16:30:46
300124251,10/23/14 16:30:47
300124250,10/23/14 16:30:48
300124249,10/23/14 16:30:50
300124247,10/23/14 16:30:51
300124246,10/23/14 16:30:52
300124245,10/23/14 16:30:54
300124244,10/23/14 16:30:55
300124243,10/23/14 16:30:57
300124242,10/23/14 16:30:58
300124240,10/23/14 16:31:01
300124239,10/23/14 16:31:02
300124238,10/23/14 16:31:03
300124237,10/23/14 16:31:05
300124236,10/23/14 16:31:06
300124235,10/23/14 16:31:07
300124234,10/23/14 16:31:09
300124233,10/23/14 16:31:10
300124230,10/23/14 16:31:12
300124281,10/23/14 17:00:10
300124280,10/23/14 17:00:11
300124279,10/23/14 17:00:13
300124277,10/23/14 17:00:14
300124276,10/23/14 17:00:15
300124275,10/23/14 17:00:16
300124273,10/23/14 17:00:17
300124271,10/23/14 17:00:19
300124270,10/23/14 17:00:20
300124269,10/23/14 17:00:21
300124267,10/23/14 17:00:22
300124266,10/23/14 17:00:23
300124265,10/23/14 17:00:25
300124264,10/23/14 17:00:26
300124263,10/23/14 17:00:27
300124260,10/23/14 17:00:28
300124259,10/23/14 17:00:29
300124316,10/23/14 17:30:39
300124315,10/23/14 17:30:41
300124314,10/23/14 17:30:42
300124313,10/23/14 17:30:43
300124312,10/23/14 17:30:44
300124310,10/23/14 17:30:46
300124309,10/23/14 17:30:47
300124308,10/23/14 17:30:48
300124307,10/23/14 17:30:50
300124306,10/23/14 17:30:51
300124305,10/23/14 17:30:52
300124304,10/23/14 17:30:53
300124302,10/23/14 17:30:55
300124303,10/23/14 17:30:56
300124299,10/23/14 17:30:58
300124296,10/23/14 17:30:59
300124294,10/23/14 17:31:00
300124292,10/23/14 17:31:02
300124289,10/23/14 17:31:03
300124288,10/23/14 17:31:05
300124286,10/23/14 17:31:07
300124285,10/23/14 17:31:09
300124284,10/23/14 17:31:10
300124283,10/23/14 17:31:12
300124282,10/23/14 17:31:13
300124274,10/23/14 17:31:19
300124100,10/23/14 17:31:20
300124291,10/23/14 17:31:21
300124324,10/23/14 18:00:14
300124323,10/23/14 18:00:17
300124321,10/23/14 18:00:20
300124320,10/23/14 18:00:21
300124318,10/23/14 18:00:23
300124317,10/23/14 18:00:24
TUS003173366,10/23/14 19:00:13
300124493,10/23/14 20:30:34
300124492,10/23/14 20:30:36
300124491,10/23/14 20:30:38
300124490,10/23/14 20:30:39
300124487,10/23/14 20:30:40
300124486,10/23/14 20:30:42
300124485,10/23/14 20:30:43
300124484,10/23/14 20:30:45
300124483,10/23/14 20:30:46
300124482,10/23/14 20:30:48
300124480,10/23/14 20:30:49
300124479,10/23/14 20:30:50
300124477,10/23/14 20:30:51
300124475,10/23/14 20:30:52
300124472,10/23/14 20:30:54
300124471,10/23/14 20:30:55
300124470,10/23/14 20:30:56
300124469,10/23/14 20:30:57
300124467,10/23/14 20:30:58
300124465,10/23/14 20:31:00
300124464,10/23/14 20:31:01
300124463,10/23/14 20:31:04
300124462,10/23/14 20:31:06
300124461,10/23/14 20:31:07
300124460,10/23/14 20:31:08
300124459,10/23/14 20:31:10
300124458,10/23/14 20:31:11
300124457,10/23/14 20:31:12
300124456,10/23/14 20:31:13
300124454,10/23/14 20:31:15
300124453,10/23/14 20:31:16
300124452,10/23/14 20:31:17
300124450,10/23/14 20:31:18
300124449,10/23/14 20:31:19
300124447,10/23/14 20:31:20
300124446,10/23/14 20:31:22
300124444,10/23/14 20:31:23
300124443,10/23/14 20:31:24
300124442,10/23/14 20:31:25
300124440,10/23/14 20:31:26
300124439,10/23/14 20:31:27
300124438,10/23/14 20:31:29
300124437,10/23/14 20:31:30
300124436,10/23/14 20:31:31
300124435,10/23/14 20:31:32
300124434,10/23/14 20:31:34
300124433,10/23/14 20:31:35
300124432,10/23/14 20:31:37
300124431,10/23/14 20:31:38
300124429,10/23/14 20:31:40
300124427,10/23/14 20:31:41
300124426,10/23/14 20:31:42
300124425,10/23/14 20:31:43
300124424,10/23/14 20:31:45
300124423,10/23/14 20:31:46
300124421,10/23/14 20:31:48
300124420,10/23/14 20:31:50
300124419,10/23/14 20:31:51
300124418,10/23/14 20:31:52
300124416,10/23/14 20:31:53
300124415,10/23/14 20:31:54
300124412,10/23/14 20:31:55
300124411,10/23/14 20:31:57
300124409,10/23/14 20:31:58
300124408,10/23/14 20:31:59
300124406,10/23/14 20:32:00
300124407,10/23/14 20:32:01
300124405,10/23/14 20:32:02
300124404,10/23/14 20:32:03
300124403,10/23/14 20:32:05
300124402,10/23/14 20:32:06
300124401,10/23/14 20:32:08
300124400,10/23/14 20:32:09
300124398,10/23/14 20:32:11
300124397,10/23/14 20:32:12
300124396,10/23/14 20:32:13
300124395,10/23/14 20:32:14
300124394,10/23/14 20:32:16
300124393,10/23/14 20:32:17
300124392,10/23/14 20:32:18
300124390,10/23/14 20:32:20
300124389,10/23/14 20:32:21
300124388,10/23/14 20:32:22
300124387,10/23/14 20:32:23
300124386,10/23/14 20:32:25
300124391,10/23/14 20:32:26
300124385,10/23/14 20:32:28
300124384,10/23/14 20:32:29
300124383,10/23/14 20:32:30
300124382,10/23/14 20:32:31
300124380,10/23/14 20:32:32
300124379,10/23/14 20:32:34
300124378,10/23/14 20:32:35
300124375,10/23/14 20:32:36
300124374,10/23/14 20:32:37
300124373,10/23/14 20:32:39
300124372,10/23/14 20:32:40
300124370,10/23/14 20:32:41
300124368,10/23/14 20:32:44
300124367,10/23/14 20:32:45
300124366,10/23/14 20:32:46
300124365,10/23/14 20:32:48
300124364,10/23/14 20:32:49
300124363,10/23/14 20:32:51
300124361,10/23/14 20:32:52
300124360,10/23/14 20:32:53
300124358,10/23/14 20:32:54
300124357,10/23/14 20:32:55
300124356,10/23/14 20:32:56
300124354,10/23/14 20:32:58
300124353,10/23/14 20:32:59
300124352,10/23/14 20:33:00
300124351,10/23/14 20:33:01
300124350,10/23/14 20:33:02
300124349,10/23/14 20:33:04
300124348,10/23/14 20:33:05
300124347,10/23/14 20:33:07
300124345,10/23/14 20:33:08
300124344,10/23/14 20:33:09
300124342,10/23/14 20:33:10
300124341,10/23/14 20:33:11
300124340,10/23/14 20:33:13
300124339,10/23/14 20:33:14
300124338,10/23/14 20:33:15
300124337,10/23/14 20:33:16
300124336,10/23/14 20:33:17
300124335,10/23/14 20:33:19
300124334,10/23/14 20:33:20
300124333,10/23/14 20:33:21
300124332,10/23/14 20:33:23
300124331,10/23/14 20:33:25
300124329,10/23/14 20:33:26
300124328,10/23/14 20:33:27
300124535,10/23/14 21:00:20
300124532,10/23/14 21:00:23
300124531,10/23/14 21:00:24
300124530,10/23/14 21:00:26
300124529,10/23/14 21:00:27
300124524,10/23/14 21:00:28
300124523,10/23/14 21:00:29
300124522,10/23/14 21:00:30
300124521,10/23/14 21:00:31
300124518,10/23/14 21:00:32
300124517,10/23/14 21:00:33
300124516,10/23/14 21:00:35
300124514,10/23/14 21:00:36
300124515,10/23/14 21:00:37
300124513,10/23/14 21:00:39
300124512,10/23/14 21:00:40
300124509,10/23/14 21:00:42
300124508,10/23/14 21:00:43
300124507,10/23/14 21:00:44
300124506,10/23/14 21:00:45
300124505,10/23/14 21:00:46
300124504,10/23/14 21:00:47
300124503,10/23/14 21:00:48
300124502,10/23/14 21:00:50
300124501,10/23/14 21:00:51
300124500,10/23/14 21:00:52
300124498,10/23/14 21:00:53
300124497,10/23/14 21:00:54
300124665,10/23/14 22:30:24
300124664,10/23/14 22:30:25
300124663,10/23/14 22:30:26
300124662,10/23/14 22:30:28
300124661,10/23/14 22:30:29
300124657,10/23/14 22:30:30
300124656,10/23/14 22:30:32
300124655,10/23/14 22:30:33
300124653,10/23/14 22:30:34
300124654,10/23/14 22:30:35
300124651,10/23/14 22:30:36
300124650,10/23/14 22:30:38
300124648,10/23/14 22:30:40
300124647,10/23/14 22:30:41
300124645,10/23/14 22:30:42
300124643,10/23/14 22:30:45
300124642,10/23/14 22:30:46
300124641,10/23/14 22:30:48
300124640,10/23/14 22:30:49
300124639,10/23/14 22:30:50
300124638,10/23/14 22:30:51
300124637,10/23/14 22:30:52
300124636,10/23/14 22:30:53
300124635,10/23/14 22:30:55
300124634,10/23/14 22:30:56
300124633,10/23/14 22:30:58
300124632,10/23/14 22:30:59
300124631,10/23/14 22:31:00
300124629,10/23/14 22:31:02
300124628,10/23/14 22:31:03
300124627,10/23/14 22:31:04
300124626,10/23/14 22:31:05
300124625,10/23/14 22:31:07
300124624,10/23/14 22:31:08
300124623,10/23/14 22:31:09
300124622,10/23/14 22:31:10
300124621,10/23/14 22:31:11
300124620,10/23/14 22:31:13
300124618,10/23/14 22:31:14
300124617,10/23/14 22:31:15
300124616,10/23/14 22:31:16
300124615,10/23/14 22:31:17
300124614,10/23/14 22:31:18
300124612,10/23/14 22:31:21
300124611,10/23/14 22:31:22
300124610,10/23/14 22:31:23
300124608,10/23/14 22:31:24
300124606,10/23/14 22:31:26
300124605,10/23/14 22:31:27
300124603,10/23/14 22:31:28
300124602,10/23/14 22:31:29
300124601,10/23/14 22:31:30
300124600,10/23/14 22:31:32
300124596,10/23/14 22:31:36
300124595,10/23/14 22:31:37
300124594,10/23/14 22:31:39
300124593,10/23/14 22:31:42
300124592,10/23/14 22:31:43
300124591,10/23/14 22:31:44
300124590,10/23/14 22:31:46
300124588,10/23/14 22:31:47
300124587,10/23/14 22:31:48
300124586,10/23/14 22:31:50
300124585,10/23/14 22:31:51
300124584,10/23/14 22:31:52
300124583,10/23/14 22:31:53
300124589,10/23/14 22:31:54
300124581,10/23/14 22:31:55
300124580,10/23/14 22:31:57
300124579,10/23/14 22:31:59
300124577,10/23/14 22:32:00
300124576,10/23/14 22:32:01
300124575,10/23/14 22:32:02
300124574,10/23/14 22:32:03
300124573,10/23/14 22:32:05
300124572,10/23/14 22:32:06
300124569,10/23/14 22:32:07
300124567,10/23/14 22:32:08
300124566,10/23/14 22:32:10
300124565,10/23/14 22:32:11
300124564,10/23/14 22:32:12
300124563,10/23/14 22:32:14
300124561,10/23/14 22:32:16
300124560,10/23/14 22:32:18
300124559,10/23/14 22:32:19
300124558,10/23/14 22:32:20
300124557,10/23/14 22:32:21
300124555,10/23/14 22:32:22
300124554,10/23/14 22:32:24
300124553,10/23/14 22:32:25
300124552,10/23/14 22:32:27
300124551,10/23/14 22:32:28
300124550,10/23/14 22:32:29
300124549,10/23/14 22:32:30
300124548,10/23/14 22:32:31
300124547,10/23/14 22:32:33
300124546,10/23/14 22:32:34
300124545,10/23/14 22:32:35
300124544,10/23/14 22:32:36
300124543,10/23/14 22:32:38
300124542,10/23/14 22:32:39
300124541,10/23/14 22:32:41
300124540,10/23/14 22:32:42
300124539,10/23/14 22:32:44
300124538,10/23/14 22:32:45
300124537,10/23/14 22:32:46
300124526,10/23/14 22:32:47
300124525,10/23/14 22:32:48
300124511,10/23/14 22:32:50
300124699,10/23/14 23:00:27
300124698,10/23/14 23:00:29
300124697,10/23/14 23:00:31
300124696,10/23/14 23:00:32
300124693,10/23/14 23:00:34
300124692,10/23/14 23:00:35
300124691,10/23/14 23:00:37
300124690,10/23/14 23:00:38
300124689,10/23/14 23:00:39
300124688,10/23/14 23:00:40
300124685,10/23/14 23:00:42
300124684,10/23/14 23:00:43
300124683,10/23/14 23:00:45
300124682,10/23/14 23:00:47
300124681,10/23/14 23:00:48
300124680,10/23/14 23:00:49
300124679,10/23/14 23:00:50
300124678,10/23/14 23:00:52
300124677,10/23/14 23:00:53
300124676,10/23/14 23:00:55
300124674,10/23/14 23:00:56
300124672,10/23/14 23:00:57
300124671,10/23/14 23:00:58
300124669,10/23/14 23:00:59
300124668,10/23/14 23:01:02
300124667,10/23/14 23:01:03
300124660,10/23/14 23:01:04
300124659,10/23/14 23:01:05
66200003318,10/24/14 01:15:16
300124853,10/24/14 01:30:22
300124852,10/24/14 01:30:25
300124851,10/24/14 01:30:26
300124849,10/24/14 01:30:28
300124848,10/24/14 01:30:30
300124847,10/24/14 01:30:31
300124846,10/24/14 01:30:33
300124845,10/24/14 01:30:34
300124844,10/24/14 01:30:35
300124842,10/24/14 01:30:36
300124841,10/24/14 01:30:38
300124839,10/24/14 01:30:39
300124838,10/24/14 01:30:41
300124836,10/24/14 01:30:42
300124835,10/24/14 01:30:43
300124834,10/24/14 01:30:44
300124831,10/24/14 01:30:46
300124830,10/24/14 01:30:47
300124829,10/24/14 01:30:49
300124828,10/24/14 01:30:50
300124827,10/24/14 01:30:51
300124826,10/24/14 01:30:52
300124824,10/24/14 01:30:54
300124823,10/24/14 01:30:55
300124820,10/24/14 01:30:56
300124819,10/24/14 01:30:57
300124818,10/24/14 01:30:59
300124817,10/24/14 01:31:00
300124814,10/24/14 01:31:01
300124812,10/24/14 01:31:02
300124811,10/24/14 01:31:04
300124810,10/24/14 01:31:05
300124808,10/24/14 01:31:08
300124807,10/24/14 01:31:10
300124806,10/24/14 01:31:11
300124805,10/24/14 01:31:12
300124804,10/24/14 01:31:13
300124803,10/24/14 01:31:15
300124800,10/24/14 01:31:16
300124799,10/24/14 01:31:17
300124798,10/24/14 01:31:18
300124795,10/24/14 01:31:20
300124794,10/24/14 01:31:21
300124793,10/24/14 01:31:22
300124791,10/24/14 01:31:23
300124790,10/24/14 01:31:25
300124789,10/24/14 01:31:26
300124787,10/24/14 01:31:28
300124786,10/24/14 01:31:29
300124784,10/24/14 01:31:31
300124782,10/24/14 01:31:32
300124780,10/24/14 01:31:33
300124779,10/24/14 01:31:35
300124778,10/24/14 01:31:36
300124777,10/24/14 01:31:37
300124776,10/24/14 01:31:39
300124775,10/24/14 01:31:40
300124774,10/24/14 01:31:41
300124783,10/24/14 01:31:43
300124772,10/24/14 01:31:44
300124771,10/24/14 01:31:45
300124770,10/24/14 01:31:47
300124768,10/24/14 01:31:48
300124767,10/24/14 01:31:49
300124765,10/24/14 01:31:50
300124764,10/24/14 01:31:52
300124763,10/24/14 01:31:54
300124762,10/24/14 01:31:55
300124760,10/24/14 01:31:56
300124759,10/24/14 01:31:58
300124758,10/24/14 01:31:59
300124757,10/24/14 01:32:00
300124751,10/24/14 01:32:01
300124752,10/24/14 01:32:02
300124749,10/24/14 01:32:04
300124748,10/24/14 01:32:05
300124747,10/24/14 01:32:06
300124746,10/24/14 01:32:07
300124744,10/24/14 01:32:08
300124743,10/24/14 01:32:11
300124742,10/24/14 01:32:13
300124741,10/24/14 01:32:14
300124739,10/24/14 01:32:16
300124734,10/24/14 01:32:20
300124754,10/24/14 01:32:21
300124732,10/24/14 01:32:22
300124730,10/24/14 01:32:25
300124729,10/24/14 01:32:26
300124727,10/24/14 01:32:29
300124726,10/24/14 01:32:31
300124725,10/24/14 01:32:32
300124724,10/24/14 01:32:33
300124722,10/24/14 01:32:34
300124721,10/24/14 01:32:35
300124720,10/24/14 01:32:37
300124718,10/24/14 01:32:41
300124717,10/24/14 01:32:42
300124716,10/24/14 01:32:44
300124715,10/24/14 01:32:45
300124714,10/24/14 01:32:47
300124713,10/24/14 01:32:48
300124712,10/24/14 01:32:49
300124711,10/24/14 01:32:50
300124710,10/24/14 01:32:51
300124709,10/24/14 01:32:52
300124708,10/24/14 01:32:54
300124706,10/24/14 01:32:55
300124705,10/24/14 01:32:56
300124704,10/24/14 01:32:57
300124702,10/24/14 01:32:58
300124700,10/24/14 01:33:00
300124863,10/24/14 02:00:11
300124861,10/24/14 02:00:13
300124860,10/24/14 02:00:15
300124858,10/24/14 02:00:16
300124857,10/24/14 02:00:17
300124856,10/24/14 02:00:19
300124855,10/24/14 02:00:20
300124879,10/24/14 02:30:08
300124878,10/24/14 02:30:09
300124876,10/24/14 02:30:10
300124875,10/24/14 02:30:12
300124874,10/24/14 02:30:13
300124873,10/24/14 02:30:15
300124872,10/24/14 02:30:17
300124871,10/24/14 02:30:18
300124870,10/24/14 02:30:19
300124869,10/24/14 02:30:20
300124868,10/24/14 02:30:21
300124867,10/24/14 02:30:22
300124866,10/24/14 02:30:23
300124865,10/24/14 02:30:26
300124864,10/24/14 02:30:27
300124890,10/24/14 03:00:15
300124884,10/24/14 03:00:16
300124883,10/24/14 03:00:18
300124882,10/24/14 03:00:19
300124881,10/24/14 03:00:22
300124880,10/24/14 03:00:26
300124898,10/24/14 03:30:13
300124897,10/24/14 03:30:15
300124895,10/24/14 03:30:16
300124894,10/24/14 03:30:18
300124893,10/24/14 03:30:19
300124892,10/24/14 03:30:21
300124891,10/24/14 03:30:22
300124899,10/24/14 04:00:08
300124902,10/24/14 04:30:08
300124901,10/24/14 04:30:10
300124900,10/24/14 04:30:11
66200003319,10/24/14 04:45:11
300124904,10/24/14 05:30:06
300124903,10/24/14 05:30:07
300124907,10/24/14 06:00:18
300124906,10/24/14 06:00:21
300124911,10/24/14 06:30:08
300124910,10/24/14 06:30:09
300124909,10/24/14 06:30:10
