ORDER NUMBER,SKU,ORDER QTY,ORDER DATE
AFGTUS203311762,KSRES,6,10/20/14 13:08:33
AFGTUS203311762,KLBGM,1,10/20/14 13:08:33
AFGTUS203311762,KLGBM,2,10/20/14 13:08:33
AFGTUS203311762,MCCKOBLOKS,1,10/20/14 13:08:33
AFGTUS203311762,MCCKOBLOKL,1,10/20/14 13:08:33
AFGTUS203311762,MCCKOSOLL,1,10/20/14 13:08:33
AFGTUS203311762,KLMOCS,6,10/20/14 13:08:33
AFGTUS203311762,KSORS,6,10/20/14 13:08:33
AFG300122186,MLJAL,1,10/21/14 18:00:05
AFG300122293,KPTUS,1,10/21/14 20:31:57
AFG300121941,MSBKL,1,10/21/14 13:00:14
AFG300122187,MPNZOX,1,10/21/14 20:33:35
AFG300122187,MPMGX,1,10/21/14 20:33:35
AFG300122187,MMFAU,1,10/21/14 20:33:35
AFG300122345,MSWHM,1,10/21/14 20:31:07
AFG300121934,KSREL,1,10/21/14 13:00:23
AFG300122270,MSBKL,1,10/21/14 20:32:18
AFG300121838,KLMOAL,1,10/21/14 11:30:36
AFG300121910,MPSUX,1,10/21/14 12:30:26
AFG300122252,MSBKM,1,10/21/14 20:32:35
AFG300113876,KPSML,1,10/11/14 14:27:57
AFG300122260,MLMOMM,1,10/21/14 20:32:27
AFG300121581,MSBUM,1,10/21/14 01:40:35
AFG300121936,KLMOZL,1,10/21/14 13:00:21
AFG300122383,MMSWH,1,10/21/14 20:30:30
AFG300122267,MPIZOX,1,10/21/14 20:32:22
AFG300121237,MPSGM,1,10/20/14 20:40:29
AFG300115670,KLMOCL,1,10/13/14 22:31:20
AFG300117809,KLVBS,1,10/16/14 11:28:20
AFG300122049,MPTWL,1,10/21/14 16:01:31
AFG300122421,MLMSBL,1,10/21/14 21:00:24
AFG300122421,DDIWFW,1,10/21/14 21:00:24
AFG300122057,DDMZMB,1,10/21/14 16:01:24
AFG300121233,MLPRBKL,1,10/20/14 20:40:33
AFG300122411,MCCLMAGACBL,1,10/21/14 21:00:34
AFG300116863,KLMOCL,1,10/15/14 06:27:52
AFG300118231,MLSLML,1,10/16/14 20:28:32
AFG300122015,DDIWFW,1,10/21/14 15:28:38
AFG300122015,MCCLMAGSLT1,1,10/21/14 15:28:38
AFG300121186,MSGRX,1,10/20/14 20:41:11
AFG300111755,MPRTM,1,10/07/14 22:27:58
AFGTUS622841302,KPSMM,1,10/08/14 09:28:24
AFGTUS622841302,KPSML,1,10/08/14 09:28:24
AFG300121184,DDTMFRL,1,10/20/14 20:41:13
AFG300121836,KSBLM,1,10/21/14 11:23:22
AFG300121836,KSREL,1,10/21/14 11:23:22
AFG300121919,MCCLMAGSEH1,1,10/21/14 12:30:18
AFG300122364,MLJOLX,1,10/21/14 20:30:46
AFG300122271,MLPRRX,1,10/21/14 20:32:17
AFGTUS456048762,KLMOAL,1,10/21/14 09:38:18
AFG300109902,KLBGM,1,10/02/14 13:27:55
AFG300109902,KPSML,1,10/02/14 13:27:55
AFG300109902,KPTUL,1,10/02/14 13:27:55
AFG300109902,KLVBM,1,10/02/14 13:27:55
AFG300109902,KLJAS,1,10/02/14 13:27:55
AFG300109902,MSMAX,1,10/02/14 13:27:55
AFG300122342,MPSGM,1,10/21/14 20:31:11
AFG300121960,MLPRBK2,1,10/21/14 13:30:36
AFG300122277,MPTUM,1,10/21/14 20:32:12
AFG300121231,DDTHMX,1,10/20/14 20:40:36
AFG300122044,MSBKX,1,10/21/14 16:01:38
AFG300121121,KLMOFL,1,10/20/14 17:38:06
AFG300122380,KPZEL,1,10/21/14 20:30:34
AFG300121880,KPSKM,1,10/21/14 12:00:30
AFG300121893,MPPUL,1,10/21/14 12:30:40
AFG300122382,DDIWFW,1,10/21/14 20:30:33
AFG300122382,MCCLMAGSEH1,1,10/21/14 20:30:33
AFG300117717,KLJAM,1,10/16/14 07:58:05
AFG300122279,DDMCYB,1,10/21/14 20:32:09
AFG300107707A,KSGRL,1,09/30/14 11:44:43
AFG300122140,MIRE,1,10/21/14 17:30:23
AFG300122269,MLPRGX,1,10/21/14 20:32:19
AFGTUS252048153,KSPUM,6,10/20/14 15:08:09
AFGTUS252048153,KSBKS,6,10/20/14 15:08:09
AFGTUS252048153,KSGRM,6,10/20/14 15:08:09
AFGTUS252048153,KSPIL,6,10/20/14 15:08:09
AFGTUS252048153,KLMOFL,6,10/20/14 15:08:09
AFG300117576,KLMOML,1,10/16/14 01:31:09
AFG300121969,MMSWH,1,10/21/14 14:00:21
AFG300119421,KLTIL,1,10/18/14 13:24:45
AFG300122053,MSGRX,1,10/21/14 16:01:29
AFG300121862,MLPRBLL,1,10/21/14 11:30:20
AFG300121862,MPSGL,1,10/21/14 11:30:20
AFG300122025,KLKCOL,1,10/21/14 15:28:27
AFG300122095,DDCJFRL,1,10/21/14 16:30:47
AFGTUS840610663,DDCJFRS,48,10/16/14 11:58:05
AFGTUS840610663,DDCJFRM,60,10/16/14 11:58:05
AFGTUS840610663,DDCJFRL,60,10/16/14 11:58:05
AFGTUS840610663,DDCJFRX,48,10/16/14 11:58:05
AFG300121998,DDIWFW,1,10/21/14 14:30:20
AFG300121998,MCCLMAGSEH1,1,10/21/14 14:30:20
AFG300122058,DDMZMB,1,10/21/14 16:01:23
AFGTUS033182122,KPELM,6,10/20/14 14:08:12
AFGTUS033182122,KSORS,12,10/20/14 14:08:12
AFGTUS033182122,KSRES,6,10/20/14 14:08:12
AFGTUS033182122,KSPIS,6,10/20/14 14:08:12
AFGTUS033182122,KPMSM,1,10/20/14 14:08:12
AFGTUS033182122,KLMOZL,6,10/20/14 14:08:12
AFGTUS033182122,KLMOCS,6,10/20/14 14:08:12
AFG300122211,KLMOAM,1,10/21/14 20:33:13
AFG300122181,MPCTX,1,10/21/14 18:00:14
AFG300121942,KSBLL,1,10/21/14 13:00:13
AFG300122184,MCCLMAGACBL,1,10/21/14 18:00:10
AFG300122184,MCCLMAGSEH1,1,10/21/14 18:00:10
AFG300122184,MCCLMAGSLT1,1,10/21/14 18:00:10
AFG300122221,MSPIL,1,10/21/14 20:33:05
AFG300121203,MSBKL,1,10/20/14 20:40:54
AFG300121992,KLMOSBS,1,10/21/14 14:30:27
AFG300121201,MPSUL,1,10/20/14 20:40:55
AFG300121292,MLPRBK2,1,10/21/14 10:23:25
AFG300122040,DDTFCL,1,10/21/14 15:28:12
AFGTUS287815480,KLMOFL,1,10/19/14 19:40:06
AFG300121222,DDMCYB,1,10/20/14 20:40:41
AFG300120105,MSBUM,1,10/19/14 14:54:32
AFG300120105,MXWGR,1,10/19/14 14:54:32
AFG300120105,MXGGR,1,10/19/14 14:54:32
AFG300122312,KSPIL,1,10/21/14 20:31:37
AFG300122432,MLPRRL,1,10/21/14 21:00:12
AFG300121981,MSWHM,1,10/21/14 14:30:37
AFG300121939,DDTCYBS,1,10/21/14 13:00:17
AFG300122036,KSREM,1,10/21/14 15:28:15
AFG300122339,MMSBK,1,10/21/14 20:31:14
AFG300122402,MPSHL,1,10/21/14 21:00:43
AFG300121178,MCCLMAGSEH1,1,10/20/14 20:41:17
AFG300121837,MCCUOBLOK1,1,10/21/14 11:23:21
AFG300121930,KLMOZL,1,10/21/14 15:28:42
AFG300116617,KLMOCL,1,10/14/14 22:30:12
AFG300116681,KLMOML,1,10/14/14 22:58:59
AFG300116681,KLMOAL,1,10/14/14 22:58:59
AFG300120176,MSORM,1,10/19/14 16:54:44
AFG300122085,MPBSM,1,10/21/14 16:30:56
AFG300122297,KLMOSBL,1,10/21/14 20:31:54
AFG300122227,MPALM,1,10/21/14 20:32:59
AFGTUS126162775,KLMOFL,1,10/19/14 19:40:03
AFG300122050,MSSIX,1,10/21/14 16:01:30
AFG300121913,DDTCYBS,1,10/21/14 15:28:07
AFG300111698,KLTIL,1,10/07/14 20:57:37
AFGTUS075041447,DDTFCM,1,10/21/14 11:15:06
AFGTUS075041447,MLMSCL,1,10/21/14 11:15:06
AFGTUS075041447,KLMOCM,1,10/21/14 11:15:06
AFG300121861,DDTMENX,1,10/21/14 11:30:21
AFG300121861,MPIZO2,1,10/21/14 11:30:21
AFG300121861,MMPPU,1,10/21/14 11:30:21
AFG300122114,MLMSC2,1,10/21/14 16:30:27
AFG300121819,KPGPM,1,10/21/14 09:53:15
AFG300122109,DDTCDFL,1,10/21/14 16:30:31
AFG300122334,MLPRBKL,1,10/21/14 20:31:18
AFG300121966,MLPRWM,1,10/21/14 14:00:22
AFG300109720,MLPRGX,1,10/01/14 20:27:35
AFG300122141,MLPRGL,1,10/21/14 17:30:22
AFG300116054,MSBUM,1,10/14/14 09:57:40
AFG300116054,KSBLL,1,10/14/14 09:57:40
AFGTUS584300738,MPSBM,1,10/20/14 10:38:42
AFGTUS584300738,MSMAM,4,10/20/14 10:38:42
AFGTUS584300738,MGTGM,2,10/20/14 10:38:42
AFGTUS584300738,MGTOL,1,10/20/14 10:38:42
AFGTUS584300738,MSBK2,9,10/20/14 10:38:42
AFGTUS584300738,MSGR2,1,10/20/14 10:38:42
AFG300122124,KLMOSBL,1,10/21/14 17:00:19
AFG300122281,MSBKL,1,10/21/14 20:32:07
AFGTUS584300738,MPTWX,1,10/20/14 10:38:42
AFGTUS584300738,MPWWM,1,10/20/14 10:38:42
AFGTUS584300738,MPWWX,2,10/20/14 10:38:42
AFGTUS584300738,MPMFLX,1,10/20/14 10:38:42
AFGTUS584300738,MPMUM,2,10/20/14 10:38:42
AFGTUS584300738,MSBL2,3,10/20/14 10:38:42
AFGTUS584300738,MLVBL,3,10/20/14 10:38:42
AFGTUS584300738,MLTIL,2,10/20/14 10:38:42
AFGTUS584300738,MLTIX,2,10/20/14 10:38:42
AFGTUS584300738,MLJAM,1,10/20/14 10:38:42
AFGTUS584300738,MLJAL,1,10/20/14 10:38:42
AFGTUS584300738,MPNZOM,1,10/20/14 10:38:42
AFGTUS584300738,DDSSSGL,1,10/20/14 10:38:42
AFGTUS584300738,MPSGM,13,10/20/14 10:38:42
AFGTUS584300738,MPCTX,1,10/20/14 10:38:42
AFGTUS584300738,DDCJFRS,1,10/20/14 10:38:42
AFGTUS584300738,DDCJFRL,3,10/20/14 10:38:42
AFGTUS584300738,MLSBGM,1,10/20/14 10:38:42
AFGTUS584300738,MLMADX,1,10/20/14 10:38:42
AFGTUS584300738,MLMZOM,2,10/20/14 10:38:42
AFGTUS584300738,MLMZOL,6,10/20/14 10:38:42
AFGTUS584300738,MLMSCM,2,10/20/14 10:38:42
AFGTUS584300738,MLMSCL,2,10/20/14 10:38:42
AFGTUS584300738,MLMSCX,5,10/20/14 10:38:42
AFGTUS584300738,MGTPM,3,10/20/14 10:38:42
AFGTUS584300738,MMSWH,72,10/20/14 10:38:42
AFGTUS584300738,MMTBO,5,10/20/14 10:38:42
AFGTUS584300738,MSGOL,1,10/20/14 10:38:42
AFGTUS584300738,MSSIX,1,10/20/14 10:38:42
AFGTUS584300738,MPBSL,1,10/20/14 10:38:42
AFG300115553,MMFUN,1,10/13/14 20:30:47
AFG300121904,DDIWFW,1,10/21/14 12:30:31
AFG300122048,MCCLMAGACBL,1,10/21/14 16:01:33
AFG300122019,KLMOCM,1,10/21/14 15:28:33
AFG300113641,DDTMENL,1,10/11/14 02:27:51
AFG300113641,MSYEX,1,10/11/14 02:27:51
AFG300122006,DDTCDFM,1,10/21/14 15:00:13
AFG300118611,MSBUM,1,10/17/14 09:27:57
AFG300121877,MCCLMAGSEH1,1,10/21/14 12:00:34
AFG300121970,MLPRBKL,1,10/21/14 14:00:19
AFG300121970,MLPRRL,1,10/21/14 14:00:19
AFG300121974,MLPRBKS,1,10/21/14 14:00:16
AFG300121868,MPCOM,1,10/21/14 11:30:13
AFG300121963,MLPRG2,1,10/21/14 13:30:32
AFG300121963,MLPRBLX,1,10/21/14 13:30:32
AFG300122363,MSBKX,1,10/21/14 20:30:48
AFG300122363,MXFBK,2,10/21/14 20:30:48
AFG300122029,MSWHX,1,10/21/14 15:28:21
AFG300110746,KLTIM,1,10/05/14 12:27:53
AFG300122210,MLMSBL,1,10/21/14 20:33:14
AFG300121372,KSBKL,1,10/20/14 20:38:20
AFG300117365,MLPRBKM,1,10/15/14 20:28:16
AFG300121948,MLMSBX,1,10/21/14 13:30:46
AFG300122126,DDMCYB,1,10/21/14 17:00:18
AFG300122238,MCCLMAGSEH1,1,10/21/14 20:32:47
AFG300122238,DDTMENX,1,10/21/14 20:32:47
AFG300122196,MPGWL,1,10/21/14 20:33:29
AFG300122196,MPSBX,1,10/21/14 20:33:29
AFG300121187,MLTIX,1,10/20/14 20:41:10
AFG300115377,KLVBM,1,10/13/14 16:28:04
AFG300117173,KLTIL,1,10/15/14 17:29:04
AFG300122116,KPELM,1,10/21/14 17:00:27
AFG300122234,DDTMFIX,1,10/21/14 20:32:52
AFG300121955,MSWH2,1,10/21/14 13:30:40
AFG300122127,DDTMENS,1,10/21/14 17:00:16
AFG300122290,MLPRBLX,1,10/21/14 20:31:59
AFG300122220,KSBKL,1,10/21/14 20:33:06
AFG300122220,MXFGO,1,10/21/14 20:33:06
AFG300122197,MSBKL,1,10/21/14 20:33:28
AFG300117924,DDMCEC,1,10/16/14 14:28:43
AFG300121957,MSWHX,1,10/21/14 13:30:38
AFG300122304,MLPRYL,1,10/21/14 20:31:45
AFG300121200,MPBSX,1,10/20/14 20:40:56
AFG300120890,KSPIL,1,10/20/14 11:53:18
AFG300121866,MMSWH,1,10/21/14 11:30:15
AFG300122045,MCCLMAGACBX,1,10/21/14 16:01:35
AFG300121314,KLMOSBM,1,10/20/14 20:39:16
AFG300121214,MCCLMAGACBL,1,10/20/14 20:40:46
AFG300112870,MPSG2,1,10/10/14 01:29:17
AFG300112870,DDSSKRS,1,10/10/14 01:29:17
AFG300112870,MPSGL,1,10/10/14 01:29:17
AFGTUS783813672,STSBKM,79,10/16/14 16:58:57
AFGTUS783813672,STPTUM,54,10/16/14 16:58:57
AFGTUS783813672,STSREX,13,10/16/14 16:58:57
AFGTUS783813672,STPSBM,65,10/16/14 16:58:57
AFGTUS783813672,STPSBL,47,10/16/14 16:58:57
AFG300122145,KSBLM,1,10/21/14 17:30:19
AFGTUS783813672,STSBLM,41,10/16/14 16:58:57
AFGTUS783813672,STPSBX,19,10/16/14 16:58:57
AFGTUS783813672,STPSB2,10,10/16/14 16:58:57
AFGTUS783813672,STPTUL,51,10/16/14 16:58:57
AFGTUS783813672,STPTUX,19,10/16/14 16:58:57
AFGTUS783813672,STPTU2,11,10/16/14 16:58:57
AFGTUS783813672,STSRE2,7,10/16/14 16:58:57
AFGTUS783813672,STSBL2,10,10/16/14 16:58:57
AFGTUS783813672,STSGRM,57,10/16/14 16:58:57
AFGTUS783813672,STSGRL,50,10/16/14 16:58:57
AFGTUS783813672,STSREM,13,10/16/14 16:58:57
AFGTUS783813672,STSREL,21,10/16/14 16:58:57
AFG300122340,KLMOCM,1,10/21/14 20:31:13
AFG300122323,MPIMSL,1,10/21/14 20:31:27
AFG300122323,MPESM,1,10/21/14 20:31:27
AFGTUS445545154,MCCUOSOLX,2,10/20/14 11:08:22
AFGTUS445545154,MCCUOSOLL,2,10/20/14 11:08:22
AFG300122256,MPTUL,1,10/21/14 20:32:32
AFG300116970,DDTZEM,1,10/15/14 11:28:49
AFG66200003297,RPRD4034,1,10/20/14 10:39:03
AFG66200003309,RSSR3032,1,10/21/14 15:15:00
AFG66200003309,RMPW111S,1,10/21/14 15:15:00
AFG300122313,DDTMEN2,1,10/21/14 20:31:35
AFG300122313,DDMZMB,1,10/21/14 20:31:35
AFG300122239,MIGR,1,10/21/14 20:32:46
AFG300122406,MITU,1,10/21/14 21:00:38
AFG300122406,MIBU,1,10/21/14 21:00:38
AFG300121355,MSTQM,1,10/20/14 20:38:35
AFG300122217,KSPIL,1,10/21/14 20:33:08
AFG300122217,KSREM,1,10/21/14 20:33:08
AFG300122209,KLMOCM,1,10/21/14 20:33:15
AFGTUS414303836,MLSLMS,1,10/17/14 13:58:33
AFGTUS760522054,KPALS,6,10/20/14 15:38:45
AFGTUS760522054,KSPUL,6,10/20/14 15:38:45
AFGTUS760522054,KSBKS,6,10/20/14 15:38:45
AFGTUS760522054,KSGRM,6,10/20/14 15:38:45
AFGTUS760522054,KSPIL,6,10/20/14 15:38:45
AFG300122204,DDTMCAL,1,10/21/14 20:33:21
AFG300110740,KLTIL,1,10/05/14 12:28:09
AFG300110705A,KPMUM,1,10/13/14 08:06:28
AFGTUS321377118,KLMOCL,1,10/14/14 14:58:21
AFG300122089,MCCLMAGSEH1,1,10/21/14 16:30:52
AFG300122089,DDMCYB,1,10/21/14 16:30:52
AFG300122208,MLPRGL,1,10/21/14 20:33:16
AFG300121849,MGTOM,1,10/21/14 11:30:34
AFG300122353,MLPRBKL,1,10/21/14 20:30:55
AFG300121192,MCCLMAGHFD1,1,10/20/14 20:41:04
AFG300115609,MSBKX,1,10/13/14 20:28:43
AFG300115609,MPALX,1,10/13/14 20:28:43
AFGTUS602782611,MLPRWM,5,10/20/14 11:38:58
AFG300122370,KLMOAL,1,10/21/14 20:30:40
AFG300122418,MXWPU,1,10/21/14 21:00:27
AFG300122418,KSBLL,1,10/21/14 21:00:27
AFG300121770,KSGRL,1,10/21/14 07:23:05
AFG300107120A,MPGWM,1,10/16/14 07:23:44
AFG300121351,MLPRRX,1,10/20/14 20:38:41
AFG300122236,MLMSBM,1,10/21/14 20:32:50
AFG300121366,MSBKM,1,10/20/14 20:38:25
AFG300121354,MCCLMAGSLT1,1,10/20/14 20:38:36
AFG300122103,MCCLMAGACBL,1,10/21/14 16:30:38
AFG300122076,KSBKL,1,10/21/14 16:31:05
AFG300122379,KSORL,1,10/21/14 20:30:36
AFG300122379,MXWOR,1,10/21/14 20:30:36
AFG300121310,MSBUM,1,10/20/14 20:39:20
AFG300121310,MXWPU,1,10/20/14 20:39:20
AFG300121402,MSWH2,1,10/20/14 20:53:13
AFGTUS728138182,MPSGM,1,10/17/14 13:58:28
AFGTUS728138182,MPVAL,1,10/17/14 13:58:28
AFGTUS728138182,MPESM,1,10/17/14 13:58:28
AFGTUS728138182,KPALS,1,10/17/14 13:58:28
AFGTUS728138182,MLMADX,1,10/17/14 13:58:28
AFGTUS728138182,KPMUCL,1,10/17/14 13:58:28
AFGTUS728138182,MCCLMAGSEH1,1,10/17/14 13:58:28
AFG300121922,DDTZEM,1,10/21/14 12:30:12
AFG300121922,DDTMENS,1,10/21/14 12:30:12
AFG300121922,DDTAKS,1,10/21/14 12:30:12
AFG300121922,DDTCDFS,1,10/21/14 12:30:12
AFG300122066,MLPRBLX,1,10/21/14 16:31:16
AFG300122369,KSBLM,1,10/21/14 20:30:41
AFG300110275,KPNIS,1,10/03/14 20:28:33
AFG300110275,KLMOSBS,1,10/03/14 20:28:33
AFG300110275,KPSKM,1,10/03/14 20:28:33
AFG300122352,MLPRYL,1,10/21/14 20:30:56
AFG300121871,MPIMSX,1,10/21/14 11:30:10
AFG300121903,MSPUX,1,10/21/14 12:30:32
AFG300122384,DDTMENX,1,10/21/14 20:30:28
AFG300122384,DDTAKS,1,10/21/14 20:30:28
AFG300121218,KLMOSBL,1,10/20/14 20:40:43
AFG300122051,MLCYNX,1,10/21/14 16:01:37
AFG300122306,KSGRL,1,10/21/14 20:31:43
AFGTUS308701828,KLTIM,1,10/06/14 18:00:19
AFG300121198,MPWWL,1,10/20/14 20:40:58
AFG300121997,MCCLMAGSEH1,1,10/21/14 14:30:22
AFG300122274,MSGO2,1,10/21/14 20:32:13
AFG66200003305,RMPB111M,1,10/21/14 12:45:05
AFG66200003305,RSOXB111,1,10/21/14 12:45:05
AFG66200003305,RHBD1111,1,10/21/14 12:45:05
AFG66200003305,R2BD3432,1,10/21/14 12:45:05
AFGTUS421153217,KLMOFL,1,10/20/14 14:08:27
AFG300121865,KSGRL,1,10/21/14 11:30:17
AFG300121865,MSGRM,1,10/21/14 11:30:17
AFG300122336,KPLEL,1,10/21/14 20:31:15
AFGTUS086470876,MPMUM,1,10/20/14 11:08:04
AFGTUS086470876,MLMSCM,1,10/20/14 11:08:04
AFGTUS086470876,MLMSCL,1,10/20/14 11:08:04
AFGTUS086470876,MLMSCX,1,10/20/14 11:08:04
AFGTUS086470876,MPESX,1,10/20/14 11:08:04
AFGTUS086470876,MLMZOM,1,10/20/14 11:08:04
AFGTUS086470876,MMTBO,2,10/20/14 11:08:04
AFGTUS086470876,MLMZOL,3,10/20/14 11:08:04
AFGTUS086470876,DDCJFRL,2,10/20/14 11:08:04
AFGTUS086470876,MLVBL,2,10/20/14 11:08:04
AFGTUS086470876,MLTIL,1,10/20/14 11:08:04
AFGTUS086470876,MLTIX,2,10/20/14 11:08:04
AFGTUS086470876,MLJAL,1,10/20/14 11:08:04
AFGTUS086470876,MLJA2,1,10/20/14 11:08:04
AFGTUS086470876,MGTPM,2,10/20/14 11:08:04
AFGTUS086470876,MMSWH,9,10/20/14 11:08:04
AFGTUS086470876,MMTBY,1,10/20/14 11:08:04
AFGTUS086470876,MFCAM,1,10/20/14 11:08:04
AFGTUS086470876,MPTWX,1,10/20/14 11:08:04
AFGTUS086470876,DDIWFW,13,10/20/14 11:08:04
AFGTUS086470876,MSGOM,1,10/20/14 11:08:04
AFGTUS086470876,MSGOL,2,10/20/14 11:08:04
AFGTUS086470876,MSSIX,1,10/20/14 11:08:04
AFGTUS086470876,MSMAM,1,10/20/14 11:08:04
AFGTUS086470876,MSMAX,1,10/20/14 11:08:04
AFGTUS086470876,MGTGM,1,10/20/14 11:08:04
AFGTUS086470876,MSBL2,2,10/20/14 11:08:04
AFGTUS086470876,MSBK2,3,10/20/14 11:08:04
AFGTUS086470876,MSWHM,6,10/20/14 11:08:04
AFGTUS086470876,MSGR2,1,10/20/14 11:08:04
AFGTUS086470876,MSPU2,1,10/20/14 11:08:04
AFGTUS086470876,MPSGM,4,10/20/14 11:08:04
AFG300122206,MGGPX,1,10/21/14 20:33:20
AFGTUS100477788,MPTWL,1,10/20/14 11:08:21
AFG300114133,DDTMENL,1,10/12/14 14:13:13
AFG300116544,MSBUM,1,10/14/14 22:32:15
AFG300114783,KLKCOM,1,10/12/14 20:58:13
AFG300114783,KLVBM,1,10/12/14 20:58:13
AFG300121973,MLVBL,1,10/21/14 14:00:17
AFG300122243,MLPRRX,1,10/21/14 20:32:43
AFG300122243,MLPRBLX,1,10/21/14 20:32:43
AFG300117408,KPBCL,1,10/15/14 20:57:58
AFGTUS743478142,KLMOFL,1,10/20/14 13:38:17
AFG300121954,MCCLMAGHFD1,1,10/21/14 13:30:41
AFG300121988,DDTCDFX,1,10/21/14 14:30:32
AFG300121680,MPIMSL,1,10/21/14 01:38:55
AFG300121680,MLCYNM,1,10/21/14 01:38:55
AFG300121680,MLMZOM,1,10/21/14 01:38:55
AFG300121897,MCCLMAGSLT1,1,10/21/14 12:30:36
AFG300116636,KLMOCL,1,10/14/14 22:29:33
AFG300121858,KPZEM,1,10/21/14 11:30:25
AFG300121858,MXWGR,1,10/21/14 11:30:25
AFG300122151,MCCLMAGSEH1,1,10/21/14 17:30:13
AFG300122172,MLPRW2,1,10/21/14 18:00:23
AFG300122308,MLPRGX,1,10/21/14 20:31:40
AFG300121956,MSBKL,1,10/21/14 13:30:39
AFG300116170,KLMOML,1,10/14/14 13:29:31
AFG300116271,KLMOML,1,10/14/14 15:58:24
AFG300121947,DDMZMB,1,10/21/14 13:30:49
AFG300122026,MPMSX,1,10/21/14 15:28:25
AFG300122096,DDTZEM,1,10/21/14 16:30:45
AFG300122096,MCCLMAGSEH1,1,10/21/14 16:30:45
AFG300122162,KLMOSBL,1,10/21/14 18:00:34
AFG300122108,KSBLL,1,10/21/14 16:30:32
AFGTUS181385728,STSGRX,44,10/16/14 16:58:48
AFG300122341,MLPRRX,1,10/21/14 20:31:12
AFG300122264,MPIZOL,1,10/21/14 20:32:25
AFG300121234,KSBKL,1,10/20/14 20:40:32
AFG300121874,KSPUM,1,10/21/14 12:00:37
AFG300122054,MLPRGX,1,10/21/14 16:01:27
AFG300122278,KSORL,1,10/21/14 20:32:10
AFGTUS880676151,KPALM,24,10/20/14 11:38:50
AFGTUS880676151,KSPUM,12,10/20/14 11:38:50
AFGTUS880676151,KSBKS,18,10/20/14 11:38:50
AFGTUS880676151,KSBKL,24,10/20/14 11:38:50
AFGTUS880676151,KSRES,12,10/20/14 11:38:50
AFGTUS880676151,KSREM,6,10/20/14 11:38:50
AFGTUS706485510,KSORS,6,10/20/14 12:39:00
AFGTUS706485510,KSPUL,6,10/20/14 12:39:00
AFGTUS706485510,KSGRM,6,10/20/14 12:39:00
AFGTUS706485510,KLGBM,1,10/20/14 12:39:00
AFGTUS706485510,MCCKOBLOKS,6,10/20/14 12:39:00
AFGTUS706485510,KPSKS,6,10/20/14 12:39:00
AFGTUS706485510,MCCKOBLOKL,6,10/20/14 12:39:00
AFGTUS706485510,MCCKOSOLM,2,10/20/14 12:39:00
AFGTUS706485510,MCCKOSOLL,4,10/20/14 12:39:00
AFGTUS706485510,KLMOCS,6,10/20/14 12:39:00
AFGTUS880676151,KSBLS,6,10/20/14 11:38:50
AFGTUS880676151,KSGRM,6,10/20/14 11:38:50
AFGTUS880676151,KSPIL,6,10/20/14 11:38:50
AFGTUS706485510,KLGBL,1,10/20/14 12:39:00
AFGTUS706485510,KLKCOS,1,10/20/14 12:39:00
AFGTUS706485510,KLKCOL,3,10/20/14 12:39:00
AFG300118744A,MLCYN2,1,10/21/14 17:46:11
AFG300122268,DDTCACS,1,10/21/14 20:32:20
AFG300116631,DDTZEM,1,10/14/14 22:29:38
AFG300116631,MCCLMAGSEH1,1,10/14/14 22:29:38
AFGTUS225124140,KLMOFL,1,10/20/14 10:38:40
AFG300121860,MLPRRL,1,10/21/14 11:30:24
AFG300121860,MLPRBLL,1,10/21/14 11:30:24
AFG300121856,MLPRRX,1,10/21/14 11:30:27
AFG300122150,KSBKL,1,10/21/14 17:30:14
AFG300122150,MXFBK,1,10/21/14 17:30:14
AFG300119281,MPLHL,1,10/18/14 03:54:31
AFG300122367,MPIMS2,1,10/21/14 20:30:43
AFG300121989,MMPKC,1,10/21/14 14:30:31
AFG300122156,MSGRL,1,10/21/14 17:30:08
AFG300122344,MPSUX,1,10/21/14 20:31:08
AFG300121920,DDTCDFL,1,10/21/14 12:30:14
AFG300121920,DDTCYBL,1,10/21/14 12:30:14
AFG300121920,MLCYN2,1,10/21/14 12:30:14
AFG300121920,MLMSB2,1,10/21/14 12:30:14
AFG300121920,MCCLMAGSEH1,1,10/21/14 12:30:14
AFG300121920,MPMFL2,1,10/21/14 12:30:14
AFG300122157,MPIMSX,1,10/21/14 17:30:07
AFG300121980,MLPRRX,1,10/21/14 14:30:39
AFG300122020,KSBKL,1,10/21/14 15:28:32
AFG300122090,DDTCYCL,1,10/21/14 16:30:50
AFG300122090,DDTMFRX,1,10/21/14 16:30:50
AFG300122010,MXFBL,6,10/21/14 15:00:05
AFG300122010,MXFRE,6,10/21/14 15:00:05
AFG300122010,MMSBK,4,10/21/14 15:00:05
AFG300122424,DDTMENX,1,10/21/14 21:00:20
AFG300122409,KLMOZL,1,10/21/14 21:00:36
AFG300121928,MPIMS2,1,10/21/14 13:00:27
AFG300121945,MLPRWM,1,10/21/14 13:30:51
AFG300121883,MGGPM,1,10/21/14 12:00:28
AFG300114879,DDTMENL,1,10/12/14 22:28:44
AFG300114879,MCCLMAGSEH1,1,10/12/14 22:28:44
AFG300118337,DDMCEC,1,10/16/14 22:29:43
AFG300121847,MLJOLX,1,10/21/14 10:53:01
AFG300122298,DDTCYCL,1,10/21/14 20:31:52
AFG300122298,DDTMENL,1,10/21/14 20:31:52
AFG300122298,MCCLMAGSEH1,1,10/21/14 20:31:52
AFG300122228,MSTQM,1,10/21/14 20:32:58
AFG300112105,KSBKM,1,10/08/14 22:28:57
AFG300112105,KLVBM,1,10/08/14 22:28:57
AFG300122366,MCCLMAGHFD1,1,10/21/14 20:30:45
AFG300122307,MSBKM,1,10/21/14 20:31:41
AFG300122307,MXFBK,1,10/21/14 20:31:41
AFG300122224,KPELL,1,10/21/14 20:33:02
AFG300122426,MCCUORR1,1,10/21/14 21:00:18
AFG300122360,MMPPU,1,10/21/14 20:30:49
AFG66200003306,RHMD1111,1,10/21/14 12:45:04
AFG300122389,MSBKX,1,10/21/14 20:30:23
AFG300122416,MLPRPM,1,10/21/14 21:00:30
AFG300117421,KLGBL,1,10/15/14 22:31:40
AFG300118816,MLPRBKM,1,10/17/14 15:28:45
AFG300112996RO,MPMFLX,1,10/21/14 18:26:33
AFG300121117,MSBKX,1,10/20/14 22:39:24
AFG300118180,MSBUM,1,10/16/14 20:29:52
AFG300121991,MPCOM,1,10/21/14 14:30:28
AFG300122343,KPZEL,1,10/21/14 20:31:10
AFG300118810,MSBUM,1,10/17/14 14:58:08
AFG300122214,KSORL,1,10/21/14 20:33:11
AFG300122405,MCCLMAGSEH1,1,10/21/14 21:00:39
AFG300122376,MPSUM,1,10/21/14 20:30:35
AFG300121976,DDIWFW,1,10/21/14 14:30:44
AFG300122417,MLSLMS,1,10/21/14 21:00:28
AFG300121808,MSBUM,1,10/21/14 09:23:23
AFG300122138,MLPRBLX,1,10/21/14 17:30:24
AFG300121211,MSBKL,1,10/20/14 20:40:49
AFG300121179,DDMCYB,1,10/20/14 20:41:16
AFG300118818,KLVBL,1,10/17/14 15:28:42
AFG300118818,KLVBS,1,10/17/14 15:28:42
AFG300112256,KSGRM,1,10/09/14 11:57:48
AFG300121367,KSORL,1,10/20/14 20:38:24
AFG300122253,MSBKL,2,10/21/14 20:32:34
AFG300122427,MLPRBLS,1,10/21/14 21:00:17
AFG300113980,KLTIL,1,10/11/14 16:57:47
AFG300113980,MCCLMAGACBX,1,10/11/14 16:57:47
AFG300118201,DDMCEC,1,10/16/14 20:29:24
AFG300122080,DDTCYCL,1,10/21/14 16:31:03
AFG300116918,KLMOCL,1,10/15/14 09:28:01
AFG300122219,MSSIX,1,10/21/14 20:33:07
AFG300116807,DDTZEM,1,10/15/14 01:28:38
AFG300121912,MSBKL,1,10/21/14 12:30:24
AFG300122230,KSBKL,1,10/21/14 20:32:55
AFGTUS710261534,MPSGM,25,10/21/14 13:30:53
AFGTUS710261534,MSTQ2,2,10/21/14 13:30:53
AFGTUS710261534,MPMUM,8,10/21/14 13:30:53
AFGTUS710261534,MSMAM,7,10/21/14 13:30:53
AFGTUS710261534,MFCAM,6,10/21/14 13:30:53
AFGTUS710261534,MLVBX,6,10/21/14 13:30:53
AFGTUS710261534,MPTDM,13,10/21/14 13:30:53
AFGTUS710261534,MPBSM,1,10/21/14 13:30:53
AFGTUS710261534,MLKCOX,1,10/21/14 13:30:53
AFGTUS710261534,MPMFLX,1,10/21/14 13:30:53
AFGTUS710261534,MLMZOM,3,10/21/14 13:30:53
AFGTUS710261534,MLMSCX,11,10/21/14 13:30:53
AFGTUS710261534,DDSSSGL,2,10/21/14 13:30:53
AFGTUS710261534,MPFRL,1,10/21/14 13:30:53
AFGTUS710261534,DDIWFW,69,10/21/14 13:30:53
AFGTUS710261534,DDCJFRS,1,10/21/14 13:30:53
AFGTUS710261534,DDCJFRL,9,10/21/14 13:30:53
AFGTUS710261534,DDSSTBX,1,10/21/14 13:30:53
AFGTUS710261534,MLJAL,3,10/21/14 13:30:53
AFGTUS710261534,MLJAX,1,10/21/14 13:30:53
AFGTUS710261534,MGTGM,4,10/21/14 13:30:53
AFGTUS710261534,MGTPM,9,10/21/14 13:30:53
AFGTUS710261534,MMSPU,3,10/21/14 13:30:53
AFGTUS710261534,MMSWH,150,10/21/14 13:30:53
AFGTUS710261534,MMPSK,5,10/21/14 13:30:53
AFGTUS710261534,MPCTX,2,10/21/14 13:30:53
AFGTUS710261534,MLSBGM,1,10/21/14 13:30:53
AFGTUS710261534,MPTUM,15,10/21/14 13:30:53
AFGTUS710261534,MLMZOX,1,10/21/14 13:30:53
AFGTUS710261534,MLMSCM,5,10/21/14 13:30:53
AFGTUS710261534,MLMSCL,4,10/21/14 13:30:53
AFGTUS710261534,MLMZOL,10,10/21/14 13:30:53
AFGTUS710261534,MPWWL,2,10/21/14 13:30:53
AFGTUS710261534,MPWWX,6,10/21/14 13:30:53
AFGTUS710261534,MMTBY,2,10/21/14 13:30:53
AFGTUS710261534,MMTBO,3,10/21/14 13:30:53
AFGTUS710261534,MPNZOM,2,10/21/14 13:30:53
AFGTUS710261534,MPTWX,3,10/21/14 13:30:53
AFGTUS710261534,MLVB2,1,10/21/14 13:30:53
AFGTUS710261534,MLTIL,2,10/21/14 13:30:53
AFGTUS710261534,MLTIX,5,10/21/14 13:30:53
AFGTUS710261534,MFIRM,1,10/21/14 13:30:53
AFGTUS710261534,MPSDL,2,10/21/14 13:30:53
AFGTUS710261534,MPWWM,2,10/21/14 13:30:53
AFG300116889,KLMOCL,1,10/15/14 08:28:00
AFG300116889,KLMOML,1,10/15/14 08:28:00
AFG300121878,MLMSCX,1,10/21/14 12:00:33
AFG300122299,MPCTX,1,10/21/14 20:31:50
AFG300122229,MLPRP2,1,10/21/14 20:32:56
AFG300122229,MLPRBLS,1,10/21/14 20:32:56
AFG300121212,MLPRBKL,1,10/20/14 20:40:48
AFG300115471,KSBLM,1,10/13/14 20:33:29
AFG300115471,MLTIM,1,10/13/14 20:33:29
AFG300115994,MSBUM,1,10/14/14 08:28:11
AFG300122319,MSGOM,1,10/21/14 20:31:29
AFG300106687A,MPBCM,1,09/29/14 14:14:46
AFG300118443,MSBUM,1,10/17/14 01:27:59
AFG300122284,MLPRWM,1,10/21/14 20:32:05
AFG300109682,MMPCH,1,10/01/14 20:28:55
AFG300109682,MMSRE,1,10/01/14 20:28:55
AFG300109682,KSREL,1,10/01/14 20:28:55
AFG300109682,KPBCL,1,10/01/14 20:28:55
AFG300116422,KLVBL,1,10/14/14 20:31:25
AFG300122155,KPMUCL,1,10/21/14 17:30:10
AFG300112450,MSGRX,1,10/09/14 15:27:47
AFG300122423,DDTAKM,1,10/21/14 21:00:21
AFG300122423,KSORM,1,10/21/14 21:00:21
AFG300121208,MLPRRL,1,10/20/14 20:40:51
AFG300121353,MLPRWM,1,10/20/14 20:38:38
AFG300122037,MPMFLL,1,10/21/14 15:28:14
AFG300122329,MSBKM,1,10/21/14 20:31:22
AFG300122351,KPRAM,1,10/21/14 20:30:58
AFG300122413,DDIWFW,1,10/21/14 21:00:32
AFG300122144,DDIWFW,1,10/21/14 17:30:20
AFG300121906,MLPRBLX,1,10/21/14 12:30:30
AFG300121962,KLMOZL,1,10/21/14 13:30:35
AFG300122231,MLPRBKS,1,10/21/14 20:32:54
AFG300116656,KLMOCL,1,10/14/14 22:28:53
AFG300121872,MLPRRX,1,10/21/14 11:30:08
AFG300121872,MLPRPM,1,10/21/14 11:30:08
AFG300122202,MPSUL,1,10/21/14 20:33:23
AFGTUS563826081,KSPIM,6,10/20/14 15:38:48
AFG300121876,MSSIX,1,10/21/14 12:00:35
AFG300122201,MLPRWM,1,10/21/14 20:33:24
AFGTUS084402178,KPELL,1,10/17/14 13:58:27
AFG300117095,KLMOML,1,10/15/14 15:28:43
AFG300116608,MSBUM,1,10/14/14 22:30:17
AFG300122394,MSMAX,1,10/21/14 20:30:20
AFG300122324,MSBK2,1,10/21/14 20:31:26
AFG300122394,MSWHL,1,10/21/14 20:30:20
AFG300122173,DDIWFW,2,10/21/14 18:00:21
AFG300122173,DDMZMB,1,10/21/14 18:00:21
AFG300122173,DDMCYB,1,10/21/14 18:00:21
AFG300122003,DDTCYBS,1,10/21/14 15:00:16
AFG300122003,DDTCDFS,1,10/21/14 15:00:16
AFG300122205,MLPRPX,1,10/21/14 20:33:19
AFG300119176,MSBUM,1,10/17/14 22:24:38
AFG300121352,MSGRL,1,10/20/14 20:38:39
AFG300121352,MSSIL,1,10/20/14 20:38:39
AFG300121352,MSREL,1,10/20/14 20:38:39
AFG300118510,DDMCYC,1,10/17/14 01:28:33
AFG300121226,MCCLMAGSLT1,1,10/20/14 20:40:39
AFG300112637,KLMOAM,1,10/09/14 20:28:51
AFG300122102,MPRTL,1,10/21/14 16:30:44
AFG300122007,MLPRBLL,1,10/21/14 15:00:09
AFG300122310,MLPRBK2,1,10/21/14 20:31:39
AFG300109599RO,MSMAM,1,10/16/14 19:36:54
AFG300109599RO,MMPAL,1,10/16/14 19:36:54
AFG300109599RO,MMPMM,1,10/16/14 19:36:54
AFG300122055,DDTMENL,1,10/21/14 16:01:26
AFG300119891,MSBKX,1,10/19/14 04:54:24
AFG300119891,MPTUM,1,10/19/14 04:54:24
AFG300122132,DDMSCU,1,10/21/14 17:00:09
AFG300122314,MLMZOM,1,10/21/14 20:31:34
AFGTUS124407803,KSBKM,6,08/28/14 09:29:54
AFG300121843,MFUSL,1,10/21/14 11:23:16
AFG300122033,KPCOS,1,10/21/14 15:28:18
AFG300122235,MSBKM,1,10/21/14 20:32:51
AFG300122146,DDMCYB,1,10/21/14 17:30:18
AFG300117849,DDTMFRL,1,10/16/14 12:58:16
AFG300122289,MLPRW2,1,10/21/14 20:32:00
AFG66200003308,RHMD1111,1,10/21/14 13:15:26
AFG66200003308,RPMD3430,1,10/21/14 13:15:26
AFG66200003308,RBELTW11,1,10/21/14 13:15:26
AFG300122354,DDMCYB,1,10/21/14 20:30:54
AFG300122105,MLMZOX,1,10/21/14 16:30:36
AFG300122386,KPGPM,1,10/21/14 20:30:27
AFG300122244,DDTCDFS,1,10/21/14 20:32:41
AFG300122244,DDTCYCS,1,10/21/14 20:32:41
AFG300121932,DDTAKS,1,10/21/14 13:00:25
AFG300122286,MLPRBLX,1,10/21/14 20:32:03
AFG300119969,MSBUM,1,10/19/14 11:54:51
AFG300122272,MLPRRX,1,10/21/14 20:32:15
AFG300122272,MLPRBLX,1,10/21/14 20:32:15
AFG300122272,MLPRBK2,1,10/21/14 20:32:15
AFG300117888,DDTMCAS,1,10/16/14 13:29:40
AFG300122135,DDTFCX,1,10/21/14 17:30:28
AFG300121236,KSBLL,1,10/20/14 20:40:30
AFG300122183,MCCLMAGHFD1,1,10/21/14 18:00:12
AFG300121918,MLJA2,1,10/21/14 12:30:19
AFG300118027,MSBUM,1,10/16/14 16:58:11
AFG300122429,DDTMENX,1,10/21/14 21:00:15
AFGTUS107267155,KLMOZM,1,10/19/14 19:40:13
AFG300122419,KLMOAL,1,10/21/14 21:00:26
AFG300118488,DDCJFRX,1,10/17/14 09:01:57
AFG300121931,MMSWH,1,10/21/14 13:00:26
AFG300122311,MLPRY2,1,10/21/14 20:31:38
AFG300122404,DDMCMM,1,10/21/14 21:00:41
AFG300121863,KPTUS,1,10/21/14 11:30:18
AFG300121359,DDMCYB,1,10/20/14 20:38:31
AFG300120411,MSBUM,1,10/19/14 20:54:46
AFGTUS135271504,MSBUM,1,10/16/14 09:33:00
AFG300122000,MXFWH,6,10/21/14 14:30:19
AFG300112248,KLTIL,1,10/09/14 11:27:35
AFG300122391,MCCLMAGACBL,1,10/21/14 20:30:22
AFG300121206,KPELL,1,10/20/14 20:40:53
AFG300122257,MITU,1,10/21/14 20:32:31
AFG300121232,DDTCDFX,1,10/20/14 20:40:34
AFGTUS320610774,KLMOZL,1,10/17/14 13:58:26
AFG300119940,KSBKM,1,10/19/14 10:54:34
AFG300120319,KSBKM,1,10/19/14 20:40:39
AFG300120319,KLMOAM,1,10/19/14 20:40:39
AFG300114975,DDTMENL,1,10/13/14 01:28:57
AFG300114975,MCCLMAGSEH1,1,10/13/14 01:28:57
AFG300122073,MCCUOSOLL,1,10/21/14 16:31:07
AFG300122216,MLMSCM,1,10/21/14 20:33:10
AFG300120458,MSBUM,1,10/19/14 22:24:57
AFG300120871,DDTMFI2,1,10/20/14 11:38:13
AFG300121996,MPCT2,1,10/21/14 14:30:23
AFG300122288,DDTCDFS,1,10/21/14 20:32:01
AFG300121994,DDTMFRL,1,10/21/14 14:30:24
AFG300121990,DDTCDFX,1,10/21/14 14:30:29
AFG300121188,MCCLMAGACBL,1,10/20/14 20:41:08
AFG300121953,MSGOL,1,10/21/14 13:30:42
AFG300121987,MSBKX,1,10/21/14 14:30:34
AFG300122081,DDTCYCX,1,10/21/14 16:31:02
AFGTUS333700083,KPALS,6,10/20/14 14:08:29
AFGTUS333700083,KSPIL,6,10/20/14 14:08:29
AFGTUS333700083,MCCKOSOLM,5,10/20/14 14:08:29
AFGTUS333700083,KLMOAL,6,10/20/14 14:08:29
AFGTUS333700083,KPTUS,6,10/20/14 14:08:29
AFGTUS333700083,KSPUM,6,10/20/14 14:08:29
AFG300122265,MSWHX,1,10/21/14 20:32:24
AFG300122063,DDTHMM,1,10/21/14 16:01:16
AFG300122063,DDTCYBX,1,10/21/14 16:01:16
AFG300122072,MLPRPX,1,10/21/14 16:31:08
AFG300122072,MLPRY2,1,10/21/14 16:31:08
AFG300122072,MLPRRX,1,10/21/14 16:31:08
AFG300122072,MLPRBLL,1,10/21/14 16:31:08
AFGTUS333700083,KSPIM,6,10/20/14 14:08:29
AFGTUS333700083,KSPUL,6,10/20/14 14:08:29
AFGTUS333700083,KSBKS,12,10/20/14 14:08:29
AFGTUS333700083,KSBKL,24,10/20/14 14:08:29
AFGTUS333700083,KSREM,6,10/20/14 14:08:29
AFGTUS333700083,KSBLS,6,10/20/14 14:08:29
AFGTUS463418604,KLMOFL,1,10/21/14 09:39:02
AFG300121851,MLPRBLX,1,10/21/14 11:30:31
AFG300121851,MLPRBKL,1,10/21/14 11:30:31
AFG300121971,MLPRRL,1,10/21/14 14:00:18
AFG300122326,KSORL,1,10/21/14 20:31:24
AFG300118958,MLPRR2,1,10/17/14 17:55:08
AFG300122226,MIBA,1,10/21/14 20:33:00
AFG300116466,DDTMFIL,1,10/14/14 20:29:56
AFG300122316,KSPUL,1,10/21/14 20:31:31
AFG300122316,MXWBL,1,10/21/14 20:31:31
AFG300117753,MSBUM,1,10/16/14 09:58:07
AFG300122123,MCCUOSOLL,1,10/21/14 17:00:21
AFG300119955,KSBKM,1,10/19/14 11:24:38
AFG300121898,MLPRGL,1,10/21/14 12:30:35
AFG300114654,DDTMENL,1,10/12/14 20:31:20
AFG300114654,DDTMENS,1,10/12/14 20:31:20
AFG300120310,MSBUM,1,10/19/14 20:40:51
AFG300120811,KLVBS,1,10/20/14 10:38:33
AFG300122259,MLPRBLX,1,10/21/14 20:32:28
AFGTUS416077133,KPSKM,1,10/21/14 10:38:26
AFG300118868,MSBUM,1,10/17/14 16:28:01
AFG300121371,KPALM,1,10/20/14 20:38:21
AFG300121870,MLPRRL,1,10/21/14 11:30:11
AFG300121870,MLPRBKL,1,10/21/14 11:30:11
AFG300113833,DDTMENL,1,10/11/14 13:27:37
AFG300121896,MSBKL,1,10/21/14 12:30:37
AFG300121896,KSBKL,1,10/21/14 12:30:37
AFG300121946,MCCUORR1,1,10/21/14 13:30:47
AFG300116865,MCCLMAGACBL,1,10/15/14 08:28:23
AFGTUS272353471,RPMD3434,1,10/14/14 19:27:40
AFGTUS272353471,R2WT3432,1,10/14/14 19:27:40
AFGTUS272353471,R2BD3632,1,10/14/14 19:27:40
AFGTUS272353471,RPRD3430,1,10/14/14 19:27:40
AFGTUS272353471,RPRD4034,1,10/14/14 19:27:40
AFGTUS272353471,R2RD3432,1,10/14/14 19:27:40
AFGTUS533446757,KLMOZM,1,10/17/14 13:58:34
AFG300114889,DDTMENL,1,10/12/14 22:28:25
AFG300121842,MLSBGX,1,10/21/14 11:23:17
AFG300122387,DDMCYB,1,10/21/14 20:30:26
AFG300122328,MCCLMAGHFD1,1,10/21/14 20:31:23
AFG300115809,MSMAL,1,10/14/14 04:33:05
AFGTUS355841210,R2BD4232,1,10/21/14 09:38:10
AFGTUS355841210,RMPB1XXL,1,10/21/14 09:38:10
AFGTUS355841210,RHBD1111,1,10/21/14 09:38:10
AFGTUS355841210,RSOXB111,1,10/21/14 09:38:10
AFGTUS250825384,MLPRBLM,1,10/18/14 10:39:41
AFG300120293,KSBKM,1,10/19/14 20:41:06
AFG300122318,MLPRRX,1,10/21/14 20:31:30
AFG300122250,MLPRYL,1,10/21/14 20:32:37
AFG300121887,DDSSKRM,1,10/21/14 12:00:23
AFG300121887,MCCLMAGACBL,1,10/21/14 12:00:23
AFG300121892,MSWHX,1,10/21/14 12:00:17
AFG300122046,DDTCYBX,1,10/21/14 16:01:34
AFG300122062,MLPRW2,1,10/21/14 16:01:19
AFG300122068,MSWHX,1,10/21/14 16:31:14
AFG300122349,KLMOAL,1,10/21/14 20:31:01
AFG300122349,KPRAM,1,10/21/14 20:31:01
AFG300116715,KLMOCL,1,10/15/14 01:31:42
AFG300121357,MLPRRL,1,10/20/14 20:38:33
AFG300121848,KSBKL,1,10/21/14 11:30:35
AFG300122182,KSGRM,1,10/21/14 18:00:13
AFGTUS775002531,DDTMENS,48,10/10/14 09:28:53
AFGTUS775002531,DDTMENM,72,10/10/14 09:28:53
AFGTUS775002531,DDTMEN2,48,10/10/14 09:28:53
AFG300121265,MSBUM,1,10/20/14 20:40:06
AFG300114429RO,DDTHZX,1,10/21/14 15:35:00
AFG300121854,KSBLL,1,10/21/14 11:30:29
AFG300121927,DDMZMB,1,10/21/14 13:00:28
AFGTUS277237271,STSBKM,44,10/16/14 16:29:04
AFGTUS277237271,STSREM,13,10/16/14 16:29:04
AFGTUS277237271,STSREL,51,10/16/14 16:29:04
AFGTUS277237271,STSREX,33,10/16/14 16:29:04
AFGTUS277237271,STSBLM,98,10/16/14 16:29:04
AFGTUS277237271,STSBL2,23,10/16/14 16:29:04
AFGTUS277237271,STPSB2,17,10/16/14 16:29:04
AFGTUS277237271,STSRE2,23,10/16/14 16:29:04
AFGTUS277237271,STPTUM,192,10/16/14 16:29:04
AFGTUS277237271,STPTUL,106,10/16/14 16:29:04
AFGTUS277237271,STPTUX,35,10/16/14 16:29:04
AFGTUS277237271,STPTU2,43,10/16/14 16:29:04
AFGTUS277237271,STSGRM,64,10/16/14 16:29:04
AFGTUS277237271,STSGRL,160,10/16/14 16:29:04
AFGTUS277237271,STSGR2,31,10/16/14 16:29:04
AFGTUS277237271,STPSBM,121,10/16/14 16:29:04
AFGTUS277237271,STPSBL,72,10/16/14 16:29:04
AFGTUS277237271,STPSBX,31,10/16/14 16:29:04
AFG300122070,DDTMFIM,1,10/21/14 16:31:13
AFG300121294,MLCYNX,1,10/21/14 01:40:44
AFG300122027,MPSBM,1,10/21/14 15:28:23
AFG300122027,MPSBX,1,10/21/14 15:28:23
AFG300122097,MMSWH,1,10/21/14 16:30:43
AFG300122178,MLCYN2,1,10/21/14 18:00:16
AFG300120595,MSBUM,1,10/20/14 01:25:00
AFG300121850,MPSBX,1,10/21/14 11:30:33
AFG300122041,KSBKL,1,10/21/14 15:28:10
AFG300117890,DDMCEC,1,10/16/14 13:29:39
AFG300122060,DDIWFW,1,10/21/14 16:01:22
AFG300122130,KSBLL,1,10/21/14 17:00:14
AFG300110201,KLTIL,1,10/03/14 15:57:39
AFG300122008,MIBU,1,10/21/14 15:00:08
AFG300119752,MSBKM,1,10/18/14 20:54:27
AFG300119752,MSBUM,1,10/18/14 20:54:27
AFG300119752,MSMAM,1,10/18/14 20:54:27
AFG300120642,MSBUM,1,10/20/14 01:24:11
AFG300112016,MSPIX,1,10/08/14 17:57:30
AFG300120325,KSBKM,1,10/19/14 20:40:32
AFG300116154,DDTCYCM,1,10/14/14 13:29:48
AFG300116154,DDTZEM,1,10/14/14 13:29:48
AFG300116154,MGGPM,2,10/14/14 13:29:48
AFG300116154,MCCLMAGACBL,1,10/14/14 13:29:48
AFG300116154,MCCUISM1,1,10/14/14 13:29:48
AFG300116154,MCCUIBB1,1,10/14/14 13:29:48
AFG300116154,DDMCEC,1,10/14/14 13:29:48
AFG300121949,KSBKL,1,10/21/14 13:30:45
AFGTUS875862127,MPSBM,2,10/20/14 10:08:05
AFGTUS875862127,MSBL2,7,10/20/14 10:08:05
AFGTUS875862127,MSPIL,7,10/20/14 10:08:05
AFGTUS875862127,MPFRM,1,10/20/14 10:08:05
AFGTUS875862127,MPTD2,1,10/20/14 10:08:05
AFGTUS875862127,MPBSM,1,10/20/14 10:08:05
AFGTUS875862127,MCCMO20L,1,10/20/14 10:08:05
AFGTUS875862127,MPMFLX,1,10/20/14 10:08:05
AFGTUS875862127,MLMADX,1,10/20/14 10:08:05
AFG300122266,KSBLL,1,10/21/14 20:32:23
AFG300122407,MPSUM,1,10/21/14 21:00:37
AFG300121216,MSBL2,1,10/20/14 20:40:45
AFGTUS875862127,MPWWX,4,10/20/14 10:08:05
AFGTUS875862127,MPCTX,2,10/20/14 10:08:05
AFGTUS875862127,DDIWFW,25,10/20/14 10:08:05
AFGTUS875862127,DDCJFRS,1,10/20/14 10:08:05
AFGTUS875862127,MLJAM,1,10/20/14 10:08:05
AFGTUS875862127,MLJAL,1,10/20/14 10:08:05
AFGTUS875862127,MSWHM,1,10/20/14 10:08:05
AFGTUS875862127,MSGR2,2,10/20/14 10:08:05
AFGTUS875862127,MSGOM,5,10/20/14 10:08:05
AFGTUS875862127,MSSIX,5,10/20/14 10:08:05
AFGTUS875862127,MSMAM,5,10/20/14 10:08:05
AFGTUS875862127,MPTWX,2,10/20/14 10:08:05
AFGTUS875862127,MLMSCL,3,10/20/14 10:08:05
AFGTUS875862127,MLMSCX,11,10/20/14 10:08:05
AFGTUS875862127,DDSSKRL,1,10/20/14 10:08:05
AFGTUS875862127,DDSSSGL,2,10/20/14 10:08:05
AFGTUS875862127,MLMZOM,2,10/20/14 10:08:05
AFGTUS875862127,MSBK2,7,10/20/14 10:08:05
AFGTUS875862127,MLTIL,3,10/20/14 10:08:05
AFGTUS875862127,MLTIX,4,10/20/14 10:08:05
AFGTUS875862127,DDCJFRL,7,10/20/14 10:08:05
AFGTUS875862127,MPSGM,24,10/20/14 10:08:05
AFGTUS875862127,MLMZOL,4,10/20/14 10:08:05
AFGTUS875862127,MLMSCM,4,10/20/14 10:08:05
AFGTUS875862127,MPNZOM,1,10/20/14 10:08:05
AFGTUS875862127,MGTGM,3,10/20/14 10:08:05
AFGTUS875862127,MGTPM,6,10/20/14 10:08:05
AFGTUS875862127,MPSOL,1,10/20/14 10:08:05
AFGTUS875862127,MLSBGM,2,10/20/14 10:08:05
AFGTUS875862127,MLVBL,3,10/20/14 10:08:05
AFGTUS875862127,MPBSL,1,10/20/14 10:08:05
AFGTUS875862127,MPMUM,5,10/20/14 10:08:05
AFGTUS875862127,MPSBX,1,10/20/14 10:08:05
AFGTUS875862127,MMSWH,88,10/20/14 10:08:05
AFGTUS875862127,MMTBY,1,10/20/14 10:08:05
AFGTUS875862127,MMTBO,10,10/20/14 10:08:05
AFG300122017,MSBKM,1,10/21/14 15:28:36
AFGTUS351025847,KPTUS,6,10/20/14 13:08:21
AFGTUS351025847,MCCKOSOLM,4,10/20/14 13:08:21
AFGTUS351025847,MCCKOSOLL,5,10/20/14 13:08:21
AFGTUS351025847,KLMOAL,6,10/20/14 13:08:21
AFGTUS351025847,KSPUM,6,10/20/14 13:08:21
AFGTUS351025847,KLKCOS,2,10/20/14 13:08:21
AFGTUS351025847,MCCKOBLOKL,8,10/20/14 13:08:21
AFGTUS351025847,KSPUL,12,10/20/14 13:08:21
AFGTUS351025847,KSBKL,6,10/20/14 13:08:21
AFGTUS351025847,KSGRM,6,10/20/14 13:08:21
AFGTUS351025847,KSPIM,6,10/20/14 13:08:21
AFGTUS351025847,KSPIL,6,10/20/14 13:08:21
AFG300120216,KSBKS,1,10/19/14 17:24:33
AFG300120216,KSBKM,1,10/19/14 17:24:33
AFG300122425,MPFRM,1,10/21/14 21:00:19
AFG300117911,DDTMIMM,1,10/16/14 13:58:25
AFG300117911,DDTMFIS,1,10/16/14 13:58:25
AFG300117911,DDTMIMS,1,10/16/14 13:58:25
AFG300117911,DDTMCAS,1,10/16/14 13:58:25
AFG300117911,DDTMCAM,1,10/16/14 13:58:25
AFG300117911,DDTAKS,2,10/16/14 13:58:25
AFGTUS235741500,STPSBM,83,10/16/14 16:28:55
AFGTUS235741500,STPSBL,81,10/16/14 16:28:55
AFGTUS235741500,STPSB2,14,10/16/14 16:28:55
AFGTUS235741500,STSBLM,16,10/16/14 16:28:55
AFGTUS235741500,STSRE2,19,10/16/14 16:28:55
AFGTUS235741500,STSBKM,112,10/16/14 16:28:55
AFGTUS235741500,STPTUM,40,10/16/14 16:28:55
AFGTUS235741500,STPTUL,66,10/16/14 16:28:55
AFGTUS235741500,STPTUX,29,10/16/14 16:28:55
AFGTUS235741500,STPTU2,33,10/16/14 16:28:55
AFGTUS235741500,STSBL2,17,10/16/14 16:28:55
AFGTUS235741500,STSGRM,163,10/16/14 16:28:55
AFGTUS235741500,STSGRL,140,10/16/14 16:28:55
AFGTUS235741500,STSGR2,37,10/16/14 16:28:55
AFGTUS235741500,STSREM,5,10/16/14 16:28:55
AFGTUS235741500,STSREX,3,10/16/14 16:28:55
AFG300116310,KLMOML,1,10/14/14 16:28:15
AFG300122022,DDTMENL,1,10/21/14 15:28:30
AFG300122092,KSBKL,1,10/21/14 16:30:49
AFG300122330,DDTMFR2,1,10/21/14 20:31:20
AFG300122330,MCCLMAGACBX,1,10/21/14 20:31:20
AFG300122368,DDIWZC,1,10/21/14 20:30:42
AFG300122403,MSBUM,1,10/21/14 21:00:42
AFGTUS403273850,MCCLMAGSEH1,1,10/20/14 12:39:08
AFG300122300,DDTAKL,1,10/21/14 20:31:48
AFG300122300,DDTMENX,1,10/21/14 20:31:48
AFG300122300,MCCLMAGHFD1,1,10/21/14 20:31:48
AFG300122397,KPLEM,1,10/21/14 21:00:45
AFG300117397,MSBUM,1,10/15/14 20:58:17
AFG300121368,MMSWH,1,10/20/14 20:38:23
AFG300121235,MLCYNM,1,10/20/14 20:40:31
AFG300122013,DDTCDFL,1,10/21/14 15:28:40
AFG300122168,KSGRL,1,10/21/14 18:00:28
AFG300122122,MSWHX,1,10/21/14 17:00:23
AFG300122192,MSBKL,1,10/21/14 20:33:31
AFG300121223,KLMOSBM,1,10/20/14 20:40:40
AFG300121223,KPRAM,1,10/20/14 20:40:40
AFG300121978,MSWHX,1,10/21/14 14:30:41
AFG300122112,MLMSCL,1,10/21/14 16:30:28
AFG300122248,DDTFCX,1,10/21/14 20:32:38
AFG300121221,KPGPM,1,10/20/14 20:40:42
AFG300122012,MSBKM,1,10/21/14 15:00:02
AFG300113869,DDTMENL,1,10/11/14 14:28:14
AFG300117521,DDTMFI2,1,10/15/14 22:28:41
AFGTUS568776358,KPTUS,6,10/20/14 15:08:15
AFGTUS568776358,KSPUM,6,10/20/14 15:08:15
AFGTUS568776358,KSPUL,6,10/20/14 15:08:15
AFGTUS568776358,KSGRM,6,10/20/14 15:08:15
AFGTUS568776358,KSPIL,6,10/20/14 15:08:15
AFG300122282,DDTZEM,1,10/21/14 20:32:06
AFG300122023,DDTCYBM,1,10/21/14 15:28:29
AFG300122295,KSORL,1,10/21/14 20:31:55
AFG300122225,MPMU2,1,10/21/14 20:33:01
AFG300116493,DDTMFIS,1,10/14/14 20:28:57
AFG300116493,DDTHMS,1,10/14/14 20:28:57
AFG300119639,MLPRBKM,1,10/18/14 17:54:45
AFG300119717,KLKCOM,1,10/18/14 20:24:57
AFG300121227,MCCLMAGSLT1,1,10/20/14 20:40:38
AFG300111136,KLTIM,1,10/06/14 13:57:35
AFG300122335,MSBKX,1,10/21/14 20:31:17
AFGTUS727413026,KSGRM,6,10/20/14 14:08:20
AFGTUS727413026,KSPIL,6,10/20/14 14:08:20
AFGTUS727413026,MCCKOSOLM,4,10/20/14 14:08:20
AFGTUS727413026,KLMOAL,6,10/20/14 14:08:20
AFGTUS727413026,KPTUS,6,10/20/14 14:08:20
AFGTUS727413026,KLMOFL,6,10/20/14 14:08:20
AFGTUS727413026,KSPUL,6,10/20/14 14:08:20
AFGTUS727413026,KSBKS,6,10/20/14 14:08:20
AFGTUS727413026,KSBKL,18,10/20/14 14:08:20
AFGTUS727413026,KSBLS,6,10/20/14 14:08:20
AFG300122087,MMSWH,1,10/21/14 16:30:55
AFG300113331,KLTIS,1,10/10/14 17:27:33
AFG300112967,KPBCS,1,10/12/14 14:13:08
AFG300122414,KLMOAL,1,10/21/14 21:00:31
AFG300121677,MSGRX,1,10/21/14 12:30:09
AFG300122296,MSGRL,1,10/21/14 20:31:56
AFG300121519,MSBUM,1,10/20/14 22:23:45
AFGTUS271437101,KLMOFL,1,10/20/14 09:38:42
AFG300121190,MXGGR,1,10/20/14 20:41:06
AFG300121190,MPTWM,1,10/20/14 20:41:06
AFG300121190,KSGRM,1,10/20/14 20:41:06
AFG300121356,MSGOM,1,10/20/14 20:38:34
AFG300121993,DDTAKL,1,10/21/14 14:30:26
AFG300120466,KSBKM,1,10/19/14 22:24:48
AFG300120608,MSBUM,1,10/20/14 01:24:45
AFG300117134,MSGOX,1,10/15/14 16:28:53
AFG300122038,MCCLMAGACBL,1,10/21/14 15:28:13
AFG300109515,KLMOCL,1,10/01/14 01:28:41
AFG300109515,MLMSCL,1,10/01/14 01:28:41
AFG300109515,DDTFCM,1,10/01/14 01:28:41
AFG300122082,MCCLMAGSEH1,1,10/21/14 16:31:00
AFG300122082,DDMCYB,1,10/21/14 16:31:00
AFG300122082,DDTCYC2,1,10/21/14 16:31:00
AFG300122128,MMPTD,1,10/21/14 17:00:15
AFG300122198,MPMUM,1,10/21/14 20:33:27
AFG300114209,KLTIS,1,10/12/14 14:19:28
AFG300121917,MPTWX,1,10/21/14 12:30:21
AFG300116242,MSBUM,1,10/14/14 15:46:27
AFG300121938,MPSAX,1,10/21/14 13:00:18
AFG300122004,MSWHL,1,10/21/14 15:00:14
AFG300122131,KPGPM,1,10/21/14 17:00:10
AFG300122381,MCCLMAGSEH1,1,10/21/14 20:30:31
AFG300122381,DDIWFW,1,10/21/14 20:30:31
AFG300121855,MPSOM,1,10/21/14 11:30:28
AFG300122305,KSBLL,1,10/21/14 20:31:44
AFGTUS373366765,MLPRWM,2,10/20/14 11:38:56
AFG300120542,MSBUM,1,10/19/14 22:23:29
AFG300116587,KLMOCL,1,10/14/14 22:30:52
AFG300121894,KSBLS,1,10/21/14 12:30:39
AFGAMZUS104-4924600-2162638,MCCLMAGACBL,1,10/07/14 09:48:55
AFG300122149,KLMOCM,1,10/21/14 17:30:16
AFG300122292,DDTMENM,1,10/21/14 20:31:58
AFG300122222,MPSOM,1,10/21/14 20:33:03
AFG300120511,MSBUM,1,10/19/14 22:23:59
AFG300121852,MPALM,1,10/21/14 11:30:30
AFG300121901,MCCMIZOML,1,10/21/14 12:30:33
AFG300121940,MSBKL,1,10/21/14 13:00:15
AFG300122346,MLVBX,1,10/21/14 20:31:06
AFG300122212,KSBLL,1,10/21/14 20:33:12
AFG300117446,DDTCDFL,1,10/15/14 22:30:40
AFG300117446,DDMCYC,1,10/15/14 22:30:40
AFG300117765,MSBUM,1,10/16/14 10:28:43
AFG300117765,MXWBK,1,10/16/14 10:28:43
AFG300121363,MLPRBKL,1,10/20/14 20:38:28
AFG300122171,MPSWL,1,10/21/14 18:00:25
AFG300121349,MPALM,1,10/20/14 20:38:42
AFG300122001,DDTHMM,1,10/21/14 14:30:17
AFG300122430,MSORM,1,10/21/14 21:00:14
AFG300116364,KLMOML,1,10/14/14 17:58:02
AFGTUS863502351,MLSLMS,1,10/17/14 13:58:24
AFG300116081,DDCJFRL,3,10/14/14 10:57:53
AFG300121213,KSREM,1,10/20/14 20:40:47
AFG300122170,DDMZMB,1,10/21/14 18:00:27
AFG300122170,DDTAKS,1,10/21/14 18:00:27
AFG300121365,MSGOM,1,10/20/14 20:38:26
AFG300122088,MSGO2,1,10/21/14 16:30:54
AFG300122331,MSBKL,1,10/21/14 20:31:19
AFG300115690,DDMCEC,1,10/14/14 09:30:42
AFG300122125,KSGRL,1,10/21/14 17:00:20
AFG300117379,KLTIL,1,10/15/14 20:58:54
AFGTUS810155304,MLSLMS,1,10/17/14 13:58:23
AFG300122203,MGGPM,1,10/21/14 20:33:22
AFG300122375,MLPRPUM,1,10/21/14 20:30:38
AFG300121943,KSBLM,1,10/21/14 13:30:52
AFG300120071,MSSIL,1,10/19/14 14:24:40
AFGTUS817707724,KLMOFL,1,10/21/14 09:38:46
AFG300122179,MMSWH,1,10/21/14 18:00:15
AFG300112198,KLJAM,1,10/09/14 03:27:38
AFG300112198,KPLEM,1,10/09/14 03:27:38
AFG300121358,KSBKL,1,10/20/14 20:38:32
AFG300122254,KSREM,1,10/21/14 20:32:33
AFG300121219,KSBKL,1,10/20/14 20:40:52
AFG300122285,MLPRRX,1,10/21/14 20:32:04
AFG300121196,MLJOLM,1,10/20/14 20:41:01
AFG300122101,MSREX,1,10/21/14 16:30:40
AFG300121194,DDMZMB,1,10/20/14 20:41:03
AFGTUS543646138,DDTMFR2,1,10/17/14 13:58:38
AFG300122190,MMSBK,1,10/21/14 20:33:34
AFGTUS431034136,RPRT3232,1,10/21/14 10:38:27
AFG300115602,KPSML,1,10/13/14 20:29:03
AFG300119457,KSBKM,1,10/18/14 14:24:53
AFG300115884,MLPRWX,1,10/14/14 04:30:46
AFG300122047,MSORM,1,10/21/14 17:00:29
AFG300122071,MLCYNL,1,10/21/14 16:31:12
AFG300122195,KLMOCM,1,10/21/14 20:33:30
AFG300120463,MSBUM,1,10/19/14 22:24:52
AFG300121185,MPALX,2,10/20/14 20:41:12
AFG300121908,MSBKL,1,10/21/14 12:30:28
AFG300122365,MSBKL,1,10/21/14 20:30:47
AFG300121199,MSWHL,1,10/20/14 20:40:57
AFG300118082,MSBUM,1,10/16/14 17:58:32
AFG300122400,MLPRW2,1,10/21/14 21:00:44
AFG300121191,KSGRL,1,10/20/14 20:41:05
AFG300122035,MPLH2,1,10/21/14 15:28:17
AFG300122035,MPGA2,1,10/21/14 15:28:17
AFG300121884,MPPU2,1,10/21/14 12:00:26
AFG300122280,MLPRBKL,1,10/21/14 20:32:08
AFG300122357,KSBKS,1,10/21/14 20:30:52
AFG300122169,MGGPL,1,10/21/14 18:00:26
AFG300122014,MLPRRL,1,10/21/14 15:28:39
AFGTUS545044206,KSPUM,6,10/20/14 13:38:31
AFGTUS545044206,KSPUL,6,10/20/14 13:38:31
AFGTUS545044206,KSBKS,6,10/20/14 13:38:31
AFGTUS545044206,KSBKL,18,10/20/14 13:38:31
AFGTUS545044206,KSPIM,6,10/20/14 13:38:31
AFGTUS545044206,MCCKOSOLM,2,10/20/14 13:38:31
AFG300122166,KSGRL,1,10/21/14 18:00:31
AFG300122064,MLMSBL,1,10/21/14 16:31:18
AFG300121867,MPSB2,1,10/21/14 11:30:14
AFG300122158,KSBKL,1,10/21/14 17:30:06
AFG300122241,MSWH2,1,10/21/14 20:32:45
AFG300122359,MSPUM,1,10/21/14 20:30:50
AFG300116882,MCCUORR1,1,10/15/14 08:28:21
AFG300118274,MSBUM,1,10/16/14 20:58:12
AFG300122115,MSMAX,1,10/21/14 17:00:28
AFG300122164,KSPIL,1,10/21/14 18:00:33
AFG300115633,KLMOCL,1,10/13/14 20:28:38
AFGTUS004031856,KSBKL,36,10/20/14 13:08:43
AFGTUS004031856,KSBLS,12,10/20/14 13:08:43
AFGTUS004031856,KSGRM,12,10/20/14 13:08:43
AFGTUS004031856,KSPIM,6,10/20/14 13:08:43
AFGTUS004031856,KPSKS,6,10/20/14 13:08:43
AFGTUS004031856,KSPUM,12,10/20/14 13:08:43
AFGTUS004031856,KSBKS,24,10/20/14 13:08:43
AFGTUS004031856,KSPIL,6,10/20/14 13:08:43
AFGTUS004031856,MCCKOSOLM,7,10/20/14 13:08:43
AFGTUS004031856,MCCKOSOLL,10,10/20/14 13:08:43
AFGTUS004031856,KPMUCL,6,10/20/14 13:08:43
AFGTUS004031856,KPALS,6,10/20/14 13:08:43
AFGTUS004031856,KPTUS,6,10/20/14 13:08:43
AFG300122152,MSWH2,1,10/21/14 17:30:12
AFG300122177,MLPRGS,1,10/21/14 18:00:17
AFG300111094,MLTIM,1,10/06/14 10:57:34
AFG300116793,KLMOCL,1,10/15/14 01:29:11
AFGTUS570436542,KLMOFL,1,10/20/14 13:38:27
AFG300122431,MSWHM,1,10/21/14 21:00:13
AFG300121915,MCCUOBLOK1,1,10/21/14 12:30:22
AFG300122167,MCCLMAGSLT1,1,10/21/14 18:00:29
AFG300122167,MCCLMAGSEH1,1,10/21/14 18:00:29
AFG300122372,MPSUM,1,10/21/14 20:30:39
AFG300122176,KSPIL,1,10/21/14 18:00:19
AFG300122258,KSBKL,1,10/21/14 20:32:29
AFG300122233,MSPIL,1,10/21/14 20:32:53
AFG300122043,MLSBGM,1,10/21/14 16:01:39
AFG300122245,MPFS2,1,10/21/14 20:32:40
AFG300121882,MMSGR,1,10/21/14 12:00:29
AFG300122185,KLMOZL,1,10/21/14 18:00:08
AFG300122185,KSREL,1,10/21/14 18:00:08
AFG300122094,MLSLMS,1,10/21/14 16:30:48
AFG300114403,DDTMENL,1,10/12/14 12:27:59
AFG300116729,KLMOCL,1,10/15/14 01:31:16
AFG300122348,MSREL,1,10/21/14 20:31:03
AFG300118098,MSBUM,1,10/16/14 20:32:39
AFG300121979,MLMSBM,1,10/21/14 14:30:40
AFG300119337,DDTMENX,1,10/18/14 10:54:38
AFG300121841,MSBKM,1,10/21/14 11:23:18
AFG300122350,MMPMU,1,10/21/14 20:30:59
AFG300122350,MPRTM,1,10/21/14 20:30:59
AFG300122350,MITU,1,10/21/14 20:30:59
AFG300122160,MPTD2,1,10/21/14 18:00:37
AFGEBAY93468,3024L,1,10/07/14 09:46:09
AFG300121926,KSBKS,1,10/21/14 13:00:29
AFGTUS302505824,KSPUM,6,10/20/14 14:08:42
AFGTUS302505824,KSPUL,6,10/20/14 14:08:42
AFGTUS302505824,KSBKL,12,10/20/14 14:08:42
AFGTUS302505824,KSGRM,6,10/20/14 14:08:42
AFGTUS302505824,KSPIL,6,10/20/14 14:08:42
AFG300122191,MXGWH,1,10/21/14 20:33:33
AFG300122251,MCCLMAGHFD1,1,10/21/14 20:32:36
AFG300122021,MLCYNX,1,10/21/14 15:28:31
AFG300122104,MSWHM,1,10/21/14 16:30:37
AFG300122422,MPSUM,1,10/21/14 21:00:23
AFGTUS384881476,MSGOM,1,10/21/14 10:08:10
AFG300122024,MCCLMAGSEH1,1,10/21/14 15:28:28
AFG300114765,DDTMENL,1,10/12/14 20:58:16
AFG66200003307,RHYT1111,1,10/21/14 13:15:28
AFG300122018,MCCLMAGSEH1,1,10/21/14 15:28:35
AFGTUS377368021,KLMOCL,1,10/15/14 09:28:56
AFG300122347,KSBKL,1,10/21/14 20:31:04
AFG300122347,MSBKM,6,10/21/14 20:31:04
AFG300122347,MSBKL,15,10/21/14 20:31:04
AFG300120957,MLSBGM,1,10/20/14 13:23:51
AFG300116621,KLMOCL,1,10/14/14 22:29:57
AFG300113636,DDTMENL,1,10/11/14 01:57:36
AFG300119279,MLMSBX,1,10/18/14 03:24:28
AFG300112682,DDTMENL,1,10/09/14 20:58:22
AFG300122302,KSPUL,1,10/21/14 20:31:46
AFG300122302,KSBKL,1,10/21/14 20:31:46
AFG300122106,MCCLMAGSEH1,1,10/21/14 16:30:34
AFG300122106,MCCUOSOLL,1,10/21/14 16:30:34
AFG300121263,MCCLMAGACBL,1,10/20/14 20:40:08
AFG300121362,MCCLMAGHFD1,1,10/20/14 20:38:29
AFG300122148,MLPRRX,1,10/21/14 17:30:17
AFG300119709,MSBUM,1,10/18/14 20:25:04
AFG300121217,KSPIL,1,10/20/14 20:40:44
AFG300121983,DDIWFW,1,10/21/14 14:30:36
AFG300120113,KSBKM,1,10/19/14 15:25:09
AFG300120113,MSGOM,1,10/19/14 15:25:09
AFG300116704,KLMOCL,1,10/14/14 22:58:03
AFGTUS810223513,KSGRL,6,10/20/14 12:39:10
AFGTUS810223513,KSPIL,6,10/20/14 12:39:10
AFGTUS810223513,KLKCOS,2,10/20/14 12:39:10
AFGTUS810223513,MCCKOSOLM,1,10/20/14 12:39:10
AFGTUS810223513,KSBKS,6,10/20/14 12:39:10
AFGTUS810223513,MCCKOSOLL,6,10/20/14 12:39:10
AFGTUS810223513,KLMOAL,6,10/20/14 12:39:10
AFGTUS810223513,KSBKL,24,10/20/14 12:39:10
AFGTUS810223513,KSBLS,6,10/20/14 12:39:10
AFGTUS810223513,KSBLM,12,10/20/14 12:39:10
AFGTUS810223513,KSGRM,6,10/20/14 12:39:10
AFG300122084,MPSBX,1,10/21/14 16:30:58
AFG300122084,MPGAM,1,10/21/14 16:30:58
AFG300120108,KSBKM,1,10/19/14 14:54:28
AFG300122388,MLPRBK2,1,10/21/14 20:30:24
AFG300121890,MCCMIZOMX,1,10/21/14 12:00:20
AFG300122065,KLMOSBM,1,10/21/14 16:31:17
AFGTUS642877550,KLMOZL,1,10/17/14 13:58:37
AFG300122121,MSWHX,1,10/21/14 17:00:24
AFG300121986,DDTHMX,1,10/21/14 14:30:35
AFG300122246,MSBKX,1,10/21/14 20:32:39
AFG300122199,MLCYNL,1,10/21/14 20:33:25
AFG300119598,DDTMCAS,1,10/18/14 17:25:01
AFG300119598,DDTMIMS,1,10/18/14 17:25:01
AFG300121923,MCCLMAGSEH1,1,10/21/14 12:30:10
AFG300110526,KLTIM,1,10/04/14 17:28:05
AFGTUS248672363,STSRE2,1,10/16/14 16:58:49
AFGTUS248672363,STPTUM,164,10/16/14 16:58:49
AFGTUS248672363,STPTUL,77,10/16/14 16:58:49
AFGTUS248672363,STPTUX,17,10/16/14 16:58:49
AFGTUS248672363,STSBKM,115,10/16/14 16:58:49
AFGTUS248672363,STPTU2,11,10/16/14 16:58:49
AFGTUS248672363,STPSBM,128,10/16/14 16:58:49
AFGTUS248672363,STPSB2,9,10/16/14 16:58:49
AFGTUS248672363,STSBLM,45,10/16/14 16:58:49
AFGTUS248672363,STSGRM,166,10/16/14 16:58:49
AFGTUS248672363,STSGR2,5,10/16/14 16:58:49
AFGTUS248672363,STSREM,19,10/16/14 16:58:49
AFG300122315,MLPRBLL,1,10/21/14 20:31:33
AFG300117221,DDTMCAS,1,10/15/14 17:57:55
AFG300121907,MCCUONIN1,1,10/21/14 12:30:29
AFG300122134,KSORL,1,10/21/14 17:30:29
AFG300122134,KSGRL,1,10/21/14 17:30:29
AFG300110810,KLMOAM,1,10/05/14 15:27:36
AFG300110810,KLMOSBM,1,10/05/14 15:27:36
AFG300122175,KSBKL,1,10/21/14 18:00:20
AFG300121952,MXGBK,1,10/21/14 13:30:48
AFG300122412,DDIWFW,1,10/21/14 21:00:33
AFG300122263,MCCUORR1,1,10/21/14 20:32:26
AFG300121975,MLPRBLL,1,10/21/14 14:00:14
AFG300122165,MLPRPX,1,10/21/14 18:00:32
AFG300122009,MLPRRL,1,10/21/14 15:00:07
AFG300115464,KSORL,1,10/13/14 20:33:48
AFG300115464,MSBUM,1,10/13/14 20:33:48
AFG300121888,KSPIL,1,10/21/14 12:00:21
AFG300122075,KSBKL,1,10/21/14 16:31:06
AFG300122002,MMSWH,1,10/21/14 14:30:15
AFG300121977,DDIWFW,1,10/21/14 14:30:43
AFG300121935,MLCYN2,1,10/21/14 13:00:22
AFG300122011,DDTMENM,1,10/21/14 15:00:03
AFG300121873,KSBKL,1,10/21/14 11:30:07
AFG300121873,KPALM,1,10/21/14 11:30:07
AFGTUS313404875,KPALM,6,10/20/14 13:38:09
AFGTUS313404875,MCCKOSOLM,6,10/20/14 13:38:09
AFGTUS313404875,MCCKOSOLL,9,10/20/14 13:38:09
AFGTUS313404875,KSPUM,6,10/20/14 13:38:09
AFGTUS313404875,KSPIM,6,10/20/14 13:38:09
AFGTUS313404875,KSPIL,6,10/20/14 13:38:09
AFGTUS313404875,KSPUL,12,10/20/14 13:38:09
AFGTUS313404875,KSBKS,6,10/20/14 13:38:09
AFGTUS313404875,KSBKL,36,10/20/14 13:38:09
AFGTUS313404875,KSBLS,6,10/20/14 13:38:09
AFGTUS313404875,KSGRM,6,10/20/14 13:38:09
AFG300122120,DDTMENX,1,10/21/14 17:00:25
AFG300122207,DDCJFRX,1,10/21/14 20:33:18
AFG300116576,DDTMFIM,1,10/14/14 22:31:14
AFG300116565,KLMOCL,1,10/14/14 22:28:08
AFG300116565,KLMOZL,1,10/14/14 22:28:08
AFG300122061,MSBK2,1,10/21/14 16:01:20
AFG300122098,KLMOSBM,1,10/21/14 16:30:41
AFG300118603A,MLCYNL,1,10/20/14 14:28:41
AFG300121937,MSWH2,1,10/21/14 13:00:19
AFG300122356,MLCYNL,1,10/21/14 20:30:53
AFG300122028,MLPRBLX,1,10/21/14 15:28:22
AFG300121845,MCCLMAGSEH1,1,10/21/14 11:23:14
AFG300121845,MCCLMAGSLT1,1,10/21/14 11:23:14
AFG300121845,DDTAKS,1,10/21/14 11:23:14
AFG300121950,MLPRBKL,1,10/21/14 13:30:44
AFG300122107,KLMOSBL,1,10/21/14 16:30:33
AFG300119445,KLKCOM,1,10/18/14 13:54:35
AFG300122153,MLPRW2,1,10/21/14 17:30:11
AFG300117637,DDTMFRM,1,10/16/14 09:22:13
AFG300110459,KLTIL,1,10/04/14 13:27:40
AFG300122111,MLPRRX,1,10/21/14 16:30:29
AFG300120228,MSBUM,1,10/19/14 17:54:37
AFG300122237,MSBK2,1,10/21/14 20:32:48
AFG300121839,MCCUORR1,1,10/21/14 11:23:19
AFG300116009,KPSML,1,10/14/14 08:57:55
AFG300116009,KSBKM,1,10/14/14 08:57:55
AFG300122273,MSWH2,1,10/21/14 20:32:14
AFG300121180,MSWHM,1,10/20/14 20:41:15
AFG300122161,MPALX,1,10/21/14 18:00:36
AFG300122161,MPALM,1,10/21/14 18:00:36
AFG300121189,MPIZOL,1,10/20/14 20:41:09
AFGTUS671663005,KLMOFL,1,10/20/14 12:39:09
AFG300116839,DDTMFIL,1,10/15/14 02:57:50
AFG300122136,KSREL,1,10/21/14 17:30:26
AFG300122136,KPTUS,1,10/21/14 17:30:26
AFG300122137,KLMOAL,1,10/21/14 17:30:25
AFG300121911,MSMAM,1,10/21/14 12:30:25
AFGTUS314345358,KPSKS,6,10/20/14 13:38:21
AFGTUS314345358,KSPUL,6,10/20/14 13:38:21
AFGTUS314345358,KSBKL,12,10/20/14 13:38:21
AFGTUS314345358,MCCKOBLOKL,4,10/20/14 13:38:21
AFGTUS314345358,MCCKOSOLM,1,10/20/14 13:38:21
AFG300121195,DDTCYC2,1,10/20/14 20:41:02
AFG300121914,MPELL,1,10/21/14 12:30:23
AFGTUS607107606,KLMOFL,1,10/21/14 09:38:56
AFG300121961,DDMCMM,1,10/21/14 13:30:34
AFG300121798,KSREL,1,10/21/14 09:23:34
AFG300121798,MSBUM,1,10/21/14 09:23:34
AFG300121361,MCCKOSOLS,1,10/20/14 20:38:30
AFG300121879,MSBKM,1,10/21/14 12:00:31
AFG300122032,MCCLMAGACBL,1,10/21/14 15:28:19
AFG300121886,MPSBM,1,10/21/14 12:00:24
AFG300121886,MPSB2,1,10/21/14 12:00:24
AFG300121964,MLPRRX,1,10/21/14 13:30:31
AFG300112813,DDTCYB2,1,10/09/14 22:28:17
AFG300112813,DDIWFW,1,10/09/14 22:28:17
