Client,Channel,Order Number,Part,Order Date,Name,PostCode,Courier Service Type | Courier Service,Total Items,Orders,Total Weight(kg),Order Status
AFG,Magento,TUK420701334,1of1,29/09/2014 06:26,kelly nolan (FAO: ),BT12 4HL,DPD UK Next Day | UK Express,1,1,0.4,PRINTED
AFG,Magento,100065086,1of1,29/09/2014 11:28,. Jude Rotton,PL199FZ,2nd Class Large Letter | UK Standard,1,1,0.4,PRINTED
AFG,Magento,100065085,1of1,29/09/2014 11:28,. kirstie challis,n89dy,2nd Class Large Letter | UK Standard,1,1,0.4,PRINTED
AFG,Magento,800011004,1of1,29/09/2014 11:54,. Cyril Guérin,80370,DPD European Road | Euro Standard,1,1,0.4,PRINTED
AFG,Standard,92834,1of1,2/10/2014 13:32:00,Michelle Rustige .,WA16 0NN,1st Class Packet | UK Standard,1,1,0.4,PRINTED
AFG,Standard,92935,1of1,3/10/2014 12:18:00,Ryan Neary .,NG19 8BB,1st Class Packet | UK Standard,1,1,0.4,PRINTED
AFG,Magento,100065734,1of1,4/10/2014 20:35:00,. Siobhan McKenna,BT12 4EJ,2nd Class Large Letter | UK Standard,1,1,0.4,PRINTED
AFG,Magento,100065850,1of1,5/10/2014 18:03:00,. Danielle Ward-Taylor,S43 4EZ,2nd Class Packet | UK Standard,2,1,0.8,PRINTED
AFG,Standard,93227,1of1,6/10/2014 12:14:00,Alex Gray .,CT9 3JB,2nd Class Packet | UK Standard,1,1,0.4,PRINTED
AFG,Standard,93503,1of1,7/10/2014 12:25:00,adele kirkham .,hd5 8sh,2nd Class Packet | UK Standard,1,1,0.4,PRINTED
AFG,Magento,100066400,1of1,8/10/2014 16:02:00,. Siobhan Mckenna,Bt12 4ej,2nd Class Large Letter | UK Standard,1,1,0.4,PRINTED
AFG,Magento,100066424,1of1,8/10/2014 17:47:00,. Robin Hall,Yo196rg,2nd Class Large Letter | UK Standard,1,1,0.4,PRINTED
AFG,Magento,100066517,1of1,9/10/2014 1:36:00,. Frazer Anderson,LE11 4ET,2nd Class Large Letter | UK Standard,1,1,0.4,PRINTED
AFG,Standard,93717,1of1,9/10/2014 13:24:00,david archer .,s72 8un,2nd Class Packet | UK Standard,1,1,0,PRINTED
AFG,Magento,100066613,1of1,9/10/2014 16:26:00,. Jane Redman,BN44 3GB,2nd Class Packet | UK Standard,2,1,0.8,PRINTED
AFG,Magento,100066761,1of1,9/10/2014 21:45:00,. Darren Edmondson,L342TE,2nd Class Large Letter | UK Standard,1,1,0.4,PRINTED
AFG,Magento,100063811-Copy,1of1,10/10/2014 9:33:00,. Jon Moore,TW10 7LL,DPD UK Next Day | UK Standard,1,1,0.4,PRINTED
AFG,Magento,TUK838302227,1of1,10/10/2014 10:07:00,Masquerade Costume Hire (FAO: Amy Criticos),2144,DPD UK Next Day | UK Express,26,1,10,PRINTED
AFG,Standard,93931,1of1,10/10/2014 12:41:00,Burlas .,b61 9bt,1st Class Packet | UK Standard,2,1,0.8,PRINTED
AFG,Standard,94393,1of1,13/10/2014 12:23,Sam Berman .,20147-4878,Royal Mail Airmail | UK Standard,1,1,0.4,PRINTED
AFG,Magento,100067766,1of1,13/10/2014 16:42,. Jesus Gallegos Espinosa,YO26 9SS,2nd Class Large Letter | UK Standard,1,1,0.4,PRINTED
AFG,Magento,100067813,1of1,13/10/2014 17:31,. Nicky Temple,gu17 9jh,2nd Class Large Letter | UK Standard,1,1,0.4,PRINTED
AFG,Magento,100067982,1of1,13/10/2014 21:57,. Audrius Stankevicius,KY11 8XG,2nd Class Large Letter | UK Standard,1,1,0.4,PRINTED
AFG,Magento,100068001,1of1,14/10/2014 01:22,. Jake Simmons,Po2 8rh,2nd Class Large Letter | UK Standard,1,1,0.4,PRINTED
AFG,Magento,100068124,1of1,14/10/2014 13:42,. Bill Cook,FK7 5JQ,2nd Class Large Letter | UK Standard,1,1,0,PRINTED
AFG,Magento,100068122,1of1,14/10/2014 13:42,. Rebecca Barton,SW11 5SB,2nd Class Large Letter | UK Standard,1,1,0.4,PRINTED
AFG,Magento,100068119,1of1,14/10/2014 13:42,. Carlton Bell,Bt670sg,2nd Class Large Letter | UK Standard,1,1,0.4,PRINTED
AFG,Magento,100068117,1of1,14/10/2014 13:42,. Kiain Rait,IV6 7TZ,2nd Class Large Letter | UK Standard,1,1,0,PRINTED
AFG,Magento,100068115,1of1,14/10/2014 13:42,. Toby Downes,W1G 0JD,2nd Class Large Letter | UK Standard,1,1,0.4,PRINTED
AFG,Magento,100068112,1of1,14/10/2014 13:42,. Nick Rait,CW5 5UQ,2nd Class Large Letter | UK Standard,1,1,0.4,PRINTED
AFG,Magento,100068110,1of1,14/10/2014 13:42,. j Woodside,G71 6LG,2nd Class Large Letter | UK Standard,1,1,0.4,PRINTED
AFG,Magento,100068111,1of1,14/10/2014 13:42,. Yvonne mason,ML9 1PJ,2nd Class Large Letter | UK Standard,1,1,0.4,PRINTED
AFG,Magento,100068131,1of1,14/10/2014 13:43,. Alex Taylor,RG14 7EG,2nd Class Large Letter | UK Standard,1,1,0.4,PRINTED
AFG,Magento,100068130,1of1,14/10/2014 13:43,. margaret lock,cv6 5qb,2nd Class Large Letter | UK Standard,1,1,0.4,PRINTED
AFG,Magento,100068127,1of1,14/10/2014 13:43,. David Sadowski,AB55 5HU,2nd Class Large Letter | UK Standard,1,1,0.4,PRINTED
AFG,Magento,100068126,1of1,14/10/2014 13:43,. MICHAEL TAIBI,WC2B 5PW,2nd Class Large Letter | UK Standard,1,1,0.4,PRINTED
AFG,Magento,800011387,1of1,14/10/2014 20:50,. Alexis Lizeux,93190,DPD European Road | Euro Standard,1,1,0.4,PRINTED
AFG,Magento,100068305,1of1,14/10/2014 20:50,. Andy Rigby,GL53 7RP,2nd Class Large Letter | UK Standard,1,1,0.4,PRINTED
AFG,Magento,100068358,1of1,15/10/2014 01:23,. damian fuller,np11 6pp,2nd Class Large Letter | UK Standard,1,1,0.4,PRINTED
AFG,Magento,800011401,1of1,15/10/2014 09:08,. yannick le divenah Boutique le point d'encrage / GPS,75011,DHL European Express (ECX) | Euro Express,1,1,0.4,PRINTED
AFG,Magento,TUK511434883,1of1,15/10/2014 13:52,Loughborough Echo Newspaper (FAO: Dave Godsall),LE11 5XR,DPD UK Next Day | UK Express,2,1,0.8,PRINTED
AFG,Magento,100068513,1of1,15/10/2014 15:59,. Sean Murphy,G45 0HJ,2nd Class Packet | UK Standard,2,1,0.8,PRINTED
AFG,Magento,100064731-Copy,1of1,15/10/2014 19:36,. Matt Campbell,Ch44 7bx,DPD UK Next Day | UK Standard,1,1,0.4,PRINTED
AFG,Magento,100068717,1of1,15/10/2014 21:40,. Tamara Williams,W4 3ES,2nd Class Large Letter | UK Standard,1,1,0.4,PRINTED
AFG,Standard,95124,1of1,16/10/2014 12:17,Niall Cromie .,Bt358RP,1st Class Packet | UK Standard,1,1,0.4,PRINTED
AFG,Standard,95172,1of1,16/10/2014 12:17,serena macintosh .,wa7 6jg,1st Class Packet | UK Standard,1,1,0.4,PRINTED
AFG,Magento,100069123,1of1,16/10/2014 21:41,. Jacob Cathcart,m33 2fr,2nd Class Packet | UK Standard,2,1,0.8,PRINTED
AFG,Standard,95359,1of1,17/10/2014 10:40,Gary Lucas .,SS3 9LB,2nd Class Packet | UK Standard,1,1,0.4,PRINTED
AFG,Magento,200033989,1of1,17/10/2014 20:03,. Brüning Katja,97078,DPD European Road | Euro Standard,2,1,0.8,PRINTED
AFG,Magento,100070440,1of1,20/10/2014 08:58,. Chris Vorley,BS03 7XQ,1st Class Large Letter | UK Standard,1,1,0.4,PRINTED
AFG,Magento,100070492,1of1,20/10/2014 11:10,. david harvey,IV30 6JT,1st Class Packet | UK Standard,2,1,0.8,PRINTED
AFG,Magento,200034157,1of1,20/10/2014 20:26,. Markus Zeh,71332,DPD European Road | Euro Standard,1,1,0.4,PRINTED
AFG,Magento,800011638,1of1,20/10/2014 20:45,. Jade Jacquemin,92300,DPD European Road | Euro Standard,1,1,0.4,PRINTED
AFG,Magento,100071159,1of1,21/10/2014 13:35,. Robbie Lamb,Ka26oef,1st Class Large Letter | UK Standard,1,1,0.4,PRINTED
AFG,Magento,100071241,1of1,21/10/2014 16:51,. Hugo Camillo,SW19 8LU,1st Class Large Letter | UK Standard,1,1,0.4,PRINTED
AFG,Magento,100071358,1of1,21/10/2014 19:43,. James Dunlop,LA1 1NZ,1st Class Packet | UK Standard,2,1,0.8,PRINTED
AFG,Magento,100071349,1of1,21/10/2014 19:43,. Jan Hastie,EH39 5HJ,1st Class Packet | UK Standard,3,1,0.8,PRINTED
AFG,Magento,100071352,1of1,21/10/2014 19:43,. nicole rogers,SS133qd,1st Class Packet | UK Standard,3,1,1.2,PRINTED
AFG,Magento,100071403,1of1,21/10/2014 19:43,. Dawn Topham,Nn46gb,1st Class Packet | UK Standard,2,1,0.8,PRINTED
AFG,Magento,100071404,1of1,21/10/2014 19:43,. Sean Lynch,BT480JN,1st Class Packet | UK Standard,2,1,0.8,PRINTED
AFG,Magento,100071394,1of1,21/10/2014 19:43,. stephen gillespie,bt14 6rz,1st Class Packet | UK Standard,2,1,0.8,PRINTED
AFG,Magento,100071391,1of1,21/10/2014 19:43,. Paul Livermore,DA5 3NP,1st Class Packet | UK Standard,2,1,0.44,PRINTED
AFG,Magento,100071390,1of1,21/10/2014 19:43,. Yvonne Brandon,GU34 5HY,1st Class Packet | UK Standard,3,1,1.2,PRINTED
AFG,Magento,100071388,1of1,21/10/2014 19:43,. Richard Langfield,IP3 9RU,1st Class Packet | UK Standard,2,1,0.8,PRINTED
AFG,Magento,100071385,1of1,21/10/2014 19:43,. Lance Tracy,Ss4 1xa,1st Class Packet | UK Standard,1,1,1,PRINTED
AFG,Magento,100071465,1of1,21/10/2014 20:35,. G Williams,CW97BL,1st Class Packet | UK Standard,2,1,0.8,PRINTED
AFG,Magento,100071457,1of1,21/10/2014 20:35,. Dimitar Karadzhov,EC2Y 9AJ,1st Class Packet | UK Standard,1,1,1,PRINTED
AFG,Magento,100071448,1of1,21/10/2014 20:35,. Peter Browne,bt45 5ed,1st Class Packet | UK Standard,2,1,0.8,PRINTED
AFG,Magento,100071446,1of1,21/10/2014 20:35,. Gillian Campbell,Ab42 3np,1st Class Packet | UK Standard,1,1,1,PRINTED
AFG,Magento,100071434,1of1,21/10/2014 20:35,. Michelle Adams,BT42 4NP,1st Class Packet | UK Standard,2,1,0.8,PRINTED
AFG,Magento,100071418,1of1,21/10/2014 20:35,. Karen Arkle,SR6 7HR,1st Class Packet | UK Standard,1,1,1,PRINTED
AFG,Magento,100071495,1of1,21/10/2014 20:57,. Thomas Brailey,CM77 7xb,1st Class Packet | UK Standard,1,1,1,PRINTED
AFG,Magento,100071485,1of1,21/10/2014 20:58,. Sharon Psaila,Ol10 2wb,1st Class Packet | UK Standard,2,1,0.8,PRINTED
AFG,Magento,200034247,1of1,21/10/2014 20:58,yahoo.de Dirk Aldenhoff,46487,DPD European Road | Euro Standard,1,1,0.4,PRINTED
AFG,Magento,100071534,1of1,21/10/2014 21:43,. David Sullivan,BT15 3BS,1st Class Packet | UK Standard,2,1,0.8,PRINTED
AFG,Magento,100071530,1of1,21/10/2014 21:43,. Laurence Harrison,ch6 5xw,1st Class Packet | UK Standard,2,1,0.8,PRINTED
AFG,Magento,100071524,1of1,21/10/2014 21:43,. Daniel Hill,SK14 2RZ,1st Class Packet | UK Standard,2,1,0.8,PRINTED
AFG,Magento,100071514,1of1,21/10/2014 21:43,. Ryan Davies,Bl6 4pb,1st Class Packet | UK Standard,2,1,0.8,PRINTED
AFG,Magento,100071499,1of1,21/10/2014 21:43,. Andrew Dixon,CF143NS,1st Class Packet | UK Standard,3,1,1.2,PRINTED
AFG,Magento,100071592,1of1,22/10/2014 01:24,. Jenny Tinmouth,ch65 7af,1st Class Packet | UK Standard,2,1,0.8,PRINTED
AFG,Magento,100071559,1of1,22/10/2014 01:24,. Steve Champion-smith,GY68LJ,1st Class Packet | UK Standard,2,1,0.8,PRINTED
AFG,Standard,96502,1of1,22/10/2014 07:38,Francesca Ralph .,LE11 2DR,1st Class Packet | UK Standard,1,1,0.4,PRINTED
AFG,Standard,96627,1of1,22/10/2014 07:39,Jorg Leikam .,91456,DPD European Road | UK Standard,1,1,0.4,PRINTED
AFG,Magento,100071653,1of1,22/10/2014 09:48,. Matthew Procter,BB9 8BG,DPD UK Next Day | UK Express,3,1,1.2,PRINTED
AFG,Magento,100072336,1of1,23/10/2014 10:02,. Peter Mc Carroll,BT41 2TG,DPD UK Next Day | UK Express,1,1,0.4,PRINTED
AFG,Magento,100072334,1of1,23/10/2014 10:02,. Andy Parker,MK41 7BW,DPD UK Next Day | UK Express,1,1,0.4,PRINTED
AFG,Magento,100072331,1of1,23/10/2014 10:02,. Tom Willett,BS4 1TD,DPD UK Next Day | UK Express,1,1,0.4,PRINTED
AFG,Magento,100072349,1of1,23/10/2014 10:26,. Andrew Robinson,dh64ap,DPD UK Next Day | UK Express,1,1,0.4,PRINTED
AFG,Magento,100072348,1of1,23/10/2014 10:26,. Zahir Bhana,le5 5nl,DPD UK Next Day | UK Express,1,1,0.4,PRINTED
AFG,Magento,100072345,1of1,23/10/2014 10:26,. Felicia Bowen,TW2 5HJ,DPD UK Next Day | UK Express,1,1,0.4,PRINTED
AFG,Magento,100072344,1of1,23/10/2014 10:26,. Mackenzie Watters,Pa16 0FN,DPD UK Next Day | UK Express,1,1,0.4,PRINTED
AFG,Magento,100072341,1of1,23/10/2014 10:26,. Gillian Boyle,G46 7NQ,DPD UK Next Day | UK Express,1,1,0.4,PRINTED
AFG,Standard,94595E,1of1,23/10/2014 10:31,Lisa Mounteney .,Ng3 6AR,DPD UK Next Day | UK Standard,1,1,0.4,PRINTED
AFG,Standard,94592E,1of1,23/10/2014 10:31,Nicola McGregor .,G61 1RG,DPD UK Next Day | UK Standard,1,1,0.4,PRINTED
AFG,Magento,100072362,1of1,23/10/2014 10:49,. Daniel Wong,B17 9HJ,DPD UK Next Day | UK Express,1,1,0.4,PRINTED
AFG,Magento,100072358,1of1,23/10/2014 10:49,. Benn Smith,DA13 9PB,DPD UK Next Day | UK Express,1,1,0.4,PRINTED
AFG,Magento,100072459,1of1,23/10/2014 14:35,. Ben Cowton,Yo24 3el,1st Class Large Letter | UK Standard,1,1,0.4,PRINTED
AFG,Magento,100072536,1of1,23/10/2014 16:45,. Maz Maz,NW7 1LL,1st Class Large Letter | UK Standard,1,1,0.4,PRINTED
AFG,Magento,100072587,1of1,23/10/2014 16:45,. Gillian Fearn,DH4 4SB,1st Class Large Letter | UK Standard,1,1,0.4,PRINTED
AFG,Magento,800011785,1of1,23/10/2014 18:30,. Bastien PERRIN,92500,DPD European Road | Euro Standard,2,1,0.8,PRINTED
AFG,Magento,100072777,1of1,23/10/2014 19:44,. Jennifer Bow,Eh51 on,1st Class Large Letter | UK Standard,1,1,0.4,PRINTED
AFG,Magento,100072775,1of1,23/10/2014 19:44,. Jason Carr,Ox261ug,1st Class Packet | UK Standard,1,1,1,PRINTED
AFG,Magento,100072759,1of1,23/10/2014 19:44,. Mo Harrison,Bn25 3ea,1st Class Packet | UK Standard,1,1,1,PRINTED
AFG,Magento,100072804,1of1,23/10/2014 20:42,. jordan shann,hu12 8bg,1st Class Large Letter | UK Standard,1,1,0.4,PRINTED
AFG,Magento,100072860,1of1,23/10/2014 20:42,. Luke James,B43 7df,1st Class Large Letter | UK Standard,1,1,0.4,PRINTED
AFG,Magento,100072925,1of1,23/10/2014 21:27,. David Smith,Tw18 6bg,1st Class Large Letter | UK Standard,1,1,0.4,PRINTED
AFG,Magento,100072901,1of1,23/10/2014 21:27,. Fred Gore,CM2 0FW,1st Class Large Letter | UK Standard,1,1,0.4,PRINTED
AFG,Magento,200034446,1of1,23/10/2014 21:27,. Christian Grugel,59379,DPD European Road | Euro Standard,1,1,0.4,PRINTED
AFG,Magento,100072877,1of1,23/10/2014 21:27,. Terry Lawton,CW1 3HU,1st Class Large Letter | UK Standard,1,1,0.4,PRINTED
AFG,Magento,100072942,1of1,23/10/2014 21:48,. Ross Hutchison,ML1 2FS,1st Class Large Letter | UK Standard,1,1,0.4,PRINTED
AFG,Magento,100072936,1of1,23/10/2014 21:48,. Sharon Hand,BS27 3EB,1st Class Large Letter | UK Standard,1,1,0.4,PRINTED
AFG,Magento,100073075,1of1,24/10/2014 07:21,. Debbie allen,bh316pq,1st Class Large Letter | UK Standard,1,1,0.4,PRINTED
AFG,Magento,100072823,1of1,24/10/2014 07:21,. ELLEN YADAO,BS6 6HR,1st Class Large Letter | UK Standard,1,1,0.4,PRINTED
AFG,Standard,97112,1of1,24/10/2014 09:01,Chris Gillingham .,SL3 0HG,1st Class Packet | UK Standard,2,1,0.8,PRINTED
AFG,Standard,97385,1of1,24/10/2014 12:59,Marisa Cardinale .,Le3 1rg,1st Class Packet | UK Standard,1,1,0,PRINTED
AFG,Magento,100073664,1of1,24/10/2014 20:10,. Keith Burns,FK82BN,1st Class Large Letter | UK Standard,1,1,0.4,PRINTED
AFG,Magento,100073768,1of1,24/10/2014 21:52,. Michael Gill,PA15 4NS,1st Class Large Letter | UK Standard,1,1,0.4,PRINTED
AFG,Magento,100074229,1of1,25/10/2014 18:16,. Jamie Palmer,Gl51 9jj,1st Class Large Letter | UK Standard,1,1,0,PRINTED
AFG,Standard,97537,1of1,26/10/2014 10:27,SARAH DOEL .,np44 7eh,1st Class Packet | UK Standard,1,1,0.4,PRINTED
AFG,Standard,97550,1of1,26/10/2014 10:27,Mandy Littlewood .,BN24 5NB,1st Class Packet | UK Standard,1,1,0,PRINTED
AFG,Standard,97706,1of1,26/10/2014 10:28,Linda Anderson .,ML9 3NJ,1st Class Packet | UK Standard,1,1,0.4,PRINTED
AFG,Magento,200034634,1of1,26/10/2014 11:26,. Marc Semmlin,88339,DHL European Express (ECX) | Euro Express,1,1,0.4,PRINTED
AFG,Magento,100074611,1of1,26/10/2014 12:42,. Megan Forth,rg40 4er,DPD UK Next Day | UK Express,1,1,0.4,PRINTED
AFG,Magento,100074624,1of1,26/10/2014 13:29,. Stephanie Coysten,BR2 7JH,1st Class Large Letter | UK Standard,1,1,0,PRINTED
AFG,Standard,97906,1of1,26/10/2014 15:44,rachael wells .,S5 6su,1st Class Packet | UK Standard,1,1,0.4,PRINTED
AFG,Standard,97940,1of1,26/10/2014 15:44,christopher Robinson .,DN402au,1st Class Packet | UK Standard,1,1,0.4,PRINTED
AFG,Magento,700010865,1of1,26/10/2014 17:09,. Cornelis Uljee,2624RB,DPD European Road | Euro Standard,1,1,0.4,PRINTED
AFG,Magento,200034711,1of1,26/10/2014 20:28,. Janusch Labud,4056,DHL European Express (ECX) | Euro Express,1,1,0.4,PRINTED
AFG,Magento,1000001606,1of1,27/10/2014 02:21,. Gianluca Baracaglia,44,DHL European Express (ECX) | Euro Express,3,1,1.2,PRINTED
AFG,Standard,98031,1of1,27/10/2014 11:11,Alexsandra Welsh .,CF3 2UL,1st Class Packet | UK Standard,1,1,0.4,PRINTED
AFG,Standard,98110,1of1,27/10/2014 11:13,Wellington .,35162-038,Royal Mail Airmail | UK Standard,1,1,0.4,PRINTED
AFG,Standard,98113,1of1,27/10/2014 11:13,David Barker .,HX2 9QH,1st Class Packet | UK Standard,1,1,0,PRINTED
AFG,Magento,200034777,1of1,27/10/2014 13:46,. Babak Rau,65197,DPD European Road | Euro Standard,2,1,0.8,PRINTED
AFG,Magento,200034776,1of1,27/10/2014 13:46,. Jan Stelter,21385,DPD European Road | Euro Standard,1,1,0.4,PRINTED
AFG,Magento,800012022,1of1,27/10/2014 13:47,. Sandrine CAUBET,31600,DPD European Road | Euro Standard,3,1,1.2,PRINTED
AFG,Magento,200034775,1of1,27/10/2014 13:47,. William Demke,59269,DPD European Road | Euro Standard,1,1,0.4,PRINTED
AFG,Magento,1000001623,1of1,27/10/2014 13:47,. Maximilian Dario,20017,DPD European Road | Euro Standard,1,1,0.4,PRINTED
AFG,Magento,800012021,1of1,27/10/2014 13:47,. Morgane Denance,69007,DPD European Road | Euro Standard,1,1,0.4,PRINTED
AFG,Magento,200034773,1of1,27/10/2014 13:47,. Anna Drieling,80538,DPD European Road | Euro Standard,1,1,0.4,PRINTED
AFG,Magento,100075719,1of1,27/10/2014 13:48,. Grainne Magee,By367we,1st Class Packet | UK Standard,2,1,0.8,PRINTED
AFG,Magento,200034783,1of1,27/10/2014 13:48,. Marian Fürst,69502,DPD European Road | Euro Standard,1,1,0.04,PRINTED
AFG,Magento,700010903,1of1,27/10/2014 13:48,. bodhi cia,1171JZ,DPD European Road | Euro Standard,1,1,0.4,PRINTED
AFG,Magento,200034787,1of1,27/10/2014 14:35,. Uwe Jabusch,25348,DPD European Road | Euro Standard,1,1,0.4,PRINTED
AFG,Magento,200034785,1of1,27/10/2014 14:36,. Robin Pyka,91058,DPD European Road | Euro Standard,2,1,0.8,PRINTED
AFG,Magento,100075779,1of1,27/10/2014 15:08,. Dorothy Goad,LA10 5TA,DPD UK Next Day | UK Express,1,1,0.4,PRINTED
AFG,Magento,100076030,1of1,27/10/2014 18:35,. joanne humble,dn6 9pdb,DPD UK Next Day | UK Express,2,1,1.4,PRINTED
AFG,Magento,800012066,1of1,27/10/2014 21:45,. Florian Caye,11000,DHL European Express (ECX) | Euro Express,1,1,0,PRINTED
AFG,Magento,800012095,1of1,28/10/2014 10:27,. Claire Couppie,78140,DHL European Express (ECX) | Euro Express,1,1,0.4,PRINTED
AFG,Standard,98385,1of1,28/10/2014 10:47,Ryan Sevier .,SO19 1FW,1st Class Packet | UK Standard,1,1,0.4,PRINTED
AFG,Standard,98387,1of1,28/10/2014 10:47,Craig Dallee .,HU13 9AU,1st Class Packet | UK Standard,1,1,0.4,PRINTED
AFG,Standard,98394,1of1,28/10/2014 10:47,laurence head .,TS17 5EA,1st Class Packet | UK Standard,1,1,0.4,PRINTED
AFG,Standard,98406,1of1,28/10/2014 10:47,Chris Sellers .,B77 4RP,1st Class Packet | UK Standard,1,1,0,PRINTED
AFG,Standard,98409,1of1,28/10/2014 10:48,joann dryden .,sr4 8bj,1st Class Packet | UK Standard,1,1,0,PRINTED
AFG,Standard,98426,1of1,28/10/2014 10:48,Jon Russell .,B93 8SP,1st Class Packet | UK Standard,1,1,0.4,PRINTED
AFG,Standard,98466,1of1,28/10/2014 10:51,Ryan Walker .,LA1 1DX,1st Class Packet | UK Standard,1,1,0.4,PRINTED
AFG,Standard,98469,1of1,28/10/2014 10:51,rebecca fordham .,ct18 7rn,1st Class Packet | UK Standard,1,1,0.4,PRINTED
AFG,Standard,98473,1of1,28/10/2014 10:51,Craig E Goodwin .,GU14 9HW,1st Class Packet | UK Standard,1,1,0.4,PRINTED
AFG,Standard,98477,1of1,28/10/2014 10:51,Nigel Martin .,BN10 8SX,1st Class Packet | UK Standard,1,1,0.4,PRINTED
AFG,Standard,98481,1of1,28/10/2014 10:51,anita musson .,ng21 0pp,1st Class Packet | UK Standard,1,1,0.4,PRINTED
AFG,Standard,98498,1of1,28/10/2014 10:52,Andrzej Czarnowski .,WD18 0SH,1st Class Packet | UK Standard,1,1,0.4,PRINTED
AFG,Standard,98501,1of1,28/10/2014 10:52,Ryan Morgan .,G614RZ,1st Class Packet | UK Standard,1,1,0.4,PRINTED
AFG,Standard,98530,1of1,28/10/2014 10:53,Rebecca pollard .,Ct20 1nh,1st Class Packet | UK Standard,1,1,0.4,PRINTED
AFG,Standard,98554,1of1,28/10/2014 10:53,Amelia King .,IV478SN,1st Class Packet | UK Standard,1,1,0.4,PRINTED
AFG,Standard,98597,1of1,28/10/2014 10:54,chloe bradley .,ls10 4jf,1st Class Packet | UK Standard,1,1,0.4,PRINTED
AFG,Standard,98607,1of1,28/10/2014 10:55,Gabrielle Clarke .,Sg1 6gz,1st Class Packet | UK Standard,1,1,0,PRINTED
AFG,Magento,100076981,1of1,28/10/2014 11:32,. sean freeman,LE67 6JH,DPD UK Next Day | UK Express,1,1,0.4,PRINTED
AFG,Magento,200034975,1of1,28/10/2014 11:33,. Gavin Rabbitts,bfpo 16,DHL European Express (ECX) | Euro Express,1,1,0.4,PRINTED
AFG,Magento,100077072,1of1,28/10/2014 12:24,. Mark Alliston,KT2 7TG,DPD UK Next Day | UK Express,1,1,0.4,PRINTED
AFG,Magento,100077073,1of1,28/10/2014 12:24,. Kieran McWhirter,PA2 6XN,DPD UK Next Day | UK Express,1,1,0.4,PRINTED
AFG,Magento,100077069,1of1,28/10/2014 12:24,. darren stott,BL5 1DS,DPD UK Next Day | UK Express,1,1,0,PRINTED
AFG,Magento,100077071,1of1,28/10/2014 12:24,. Martin Dempsey,ST5 0TQ,DPD UK Next Day | UK Express,1,1,0.4,PRINTED
AFG,Magento,100077067,1of1,28/10/2014 12:24,. Kirsteen Wythe,Nr2 1dn,DPD UK Next Day | UK Standard,16,1,6.4,PRINTED
AFG,Magento,100077066,1of1,28/10/2014 12:24,. michael earwaker,PR1 1LT,DPD UK Next Day | UK Express,1,1,0.4,PRINTED
AFG,Magento,100077065,1of1,28/10/2014 12:24,. Liam Edwards,HX6 2BP,DPD UK Next Day | UK Express,1,1,0.4,PRINTED
AFG,Magento,100077064,1of1,28/10/2014 12:24,. MORGAN WARD,AB23 8GD,DPD UK Next Day | UK Express,1,1,0.4,PRINTED
AFG,Magento,100077061,1of1,28/10/2014 12:24,. Maximillian Davies,co2 7ga,DPD UK Next Day | UK Express,1,1,0.4,PRINTED
AFG,Magento,100077063,1of1,28/10/2014 12:24,. Callum Moore,WA1 4PJ,DPD UK Next Day | UK Express,1,1,0.4,PRINTED
AFG,Magento,100077062,1of1,28/10/2014 12:24,. Mahmoud Shukri,NW3 4RX,DPD UK Next Day | UK Express,1,1,0.4,PRINTED
AFG,Magento,100077060,1of1,28/10/2014 12:24,. Tim Weatherill,Wf134bs,DPD UK Next Day | UK Express,1,1,0.4,PRINTED
AFG,Magento,100077058,1of1,28/10/2014 12:24,. David Stride,Cw2 5dw,DPD UK Next Day | UK Express,3,1,1.2,PRINTED
AFG,Magento,100077055,1of1,28/10/2014 12:24,. Scott Gardiner,CM6 1GU,DPD UK Next Day | UK Express,1,1,0.4,PRINTED
AFG,Magento,100077057,1of1,28/10/2014 12:24,. Phoebe Knight,AL5 5NB,DPD UK Next Day | UK Express,1,1,0.4,PRINTED
AFG,Magento,100077054,1of1,28/10/2014 12:25,. Giles Bone,NR2 4TE,DPD UK Next Day | UK Express,1,1,0.4,PRINTED
AFG,Magento,100077053,1of1,28/10/2014 12:25,. Kelly Cooper,SS15 6SD,DPD UK Next Day | UK Express,1,1,0.4,PRINTED
AFG,Magento,100077050,1of1,28/10/2014 12:25,. Ben Link,GL51 9SE,DPD UK Next Day | UK Express,1,1,0.4,PRINTED
AFG,Magento,100077051,1of1,28/10/2014 12:25,. charley sheard,wf5 9pl,DPD UK Next Day | UK Express,1,1,0.4,PRINTED
AFG,Magento,100077049,1of1,28/10/2014 12:25,. Kim Merrett,SA72 6ED,DPD UK Next Day | UK Express,1,1,0.4,PRINTED
AFG,Magento,100077047,1of1,28/10/2014 12:25,. Robert Price,LE80LH,DPD UK Next Day | UK Express,2,1,0.8,PRINTED
AFG,Magento,100077044,1of1,28/10/2014 12:25,. nicky Archer,EN10 7EQ,DPD UK Next Day | UK Express,1,1,0.4,PRINTED
AFG,Magento,100077042,1of1,28/10/2014 12:25,. Simon Fairbank,IP12 2GP,DPD UK Next Day | UK Express,1,1,0.4,PRINTED
AFG,Magento,100077043,1of1,28/10/2014 12:25,. Dan Clark,Ne28 7td,DPD UK Next Day | UK Express,1,1,0.4,PRINTED
AFG,Magento,100077040,1of1,28/10/2014 12:25,. Laura Grimwood,Tw1 4rf,DPD UK Next Day | UK Express,1,1,0.04,PRINTED
AFG,Magento,100077041,1of1,28/10/2014 12:25,. Cheryl Nimmo,Ka3 7lf,DPD UK Next Day | UK Express,1,1,0.4,PRINTED
AFG,Magento,100077039,1of1,28/10/2014 12:25,. Jake Scott,SA3 3DU,DPD UK Next Day | UK Express,1,1,0.4,PRINTED
AFG,Magento,100077038,1of1,28/10/2014 12:25,. ROBERT HURFORD,TA6 5DP,DPD UK Next Day | UK Express,1,1,0.4,PRINTED
AFG,Magento,100077037,1of1,28/10/2014 12:25,. Jack Tune,Yo8 6nx,DPD UK Next Day | UK Express,1,1,0.4,PRINTED
AFG,Magento,100077169,1of1,28/10/2014 13:44,jon barnes,tn29 943,DPD UK Next Day | UK Express,1,1,0.04,PRINTED
AFG,Standard,98702,1of1,28/10/2014 13:49,thomas shiels .,g60 5er,1st Class Packet | UK Standard,1,1,0.4,PRINTED
AFG,Magento,800012121,1of1,28/10/2014 14:36,. Maxime Sanguinetti,Mies,DHL European Express (ECX) | Euro Express,2,1,0.8,PRINTED
AFG,Magento,100077194,1of1,28/10/2014 14:37,Rory Gunn,IV118YD,DPD UK Next Day | UK Express,1,1,0.4,PRINTED
AFG,Magento,100077339,1of1,28/10/2014 16:40,. Rachel Routledge,Sg12ls,1st Class Large Letter | UK Standard,1,1,0.4,PRINTED
AFG,Magento,100077509,1of1,28/10/2014 18:32,. Gill Barker,EH4 3RX,DPD UK Next Day | UK Express,1,1,0.4,PRINTED
AFG,Magento,100077503,1of1,28/10/2014 18:32,. David Sharp,SE9 3AL,DPD UK Next Day | UK Express,1,1,0.4,PRINTED
AFG,Magento,100077532,1of1,28/10/2014 18:59,. Ozan Ergisi,E175jt,DPD UK Next Day | UK Express,2,1,0,PRINTED
AFG,Magento,100077684,1of1,28/10/2014 20:24,. Karen Davidson,Ka15ae,DPD UK Next Day | UK Express,1,1,0.4,PRINTED
AFG,Magento,200035096,1of1,28/10/2014 20:24,. Michael Schuster,84453,DHL European Express (ECX) | Euro Express,1,1,0.4,PRINTED
AFG,Magento,800012152,1of1,28/10/2014 20:52,. matthieu scuotto,91630,DHL European Express (ECX) | Euro Express,1,1,0.4,PRINTED
AFG,Magento,100077822,1of1,28/10/2014 22:12,. Karen Earp,LE8 6LP,DPD UK Next Day | UK Express,2,1,0.8,PRINTED
AFG,Magento,100078079,1of1,29/10/2014 02:22,. Garry Cusack,KA9 2SZ,DPD UK Next Day | UK Express,1,1,0.4,PRINTED
AFG,Magento,1000001656,1of1,29/10/2014 10:35,. Fulvia Paneri,15121,DHL European Express (ECX) | Euro Express,2,1,0.8,PRINTED
AFG,Standard,98910,1of1,29/10/2014 14:10,Conrad Alexander .,WV13 1BF,DPD UK Next Day | UK Standard,0,1,0,PRINTED
AFG,Standard,98914,1of1,29/10/2014 14:10,james barker .,ol59pl,DPD UK Next Day | UK Standard,0,1,0,PRINTED
AFG,Standard,98920,1of1,29/10/2014 14:10,Lea Tropini .,E1 2EN,DPD UK Next Day | UK Standard,0,1,0,PRINTED
AFG,Magento,100078520,1of1,29/10/2014 14:24,. Tanya Burn,Ct170re,DPD UK Next Day | UK Express,1,1,0.4,PRINTED
AFG,Magento,100078651,1of1,29/10/2014 16:41,. Reiss Gandy,Sa2 7pg,DPD UK Next Day | UK Express,1,1,0.4,PRINTED
AFG,Magento,100078763,1of1,29/10/2014 18:22,. Angela Greenhorn,G53 6AX,DPD UK Next Day | UK Express,1,1,0.4,PRINTED
AFG,Magento,100078995,1of1,29/10/2014 21:27,. Sue Miller,N10 3UA,DPD UK Next Day | UK Express,1,1,0.4,PRINTED
AFG,Magento,100078976,1of1,29/10/2014 21:27,. Anuar Smew,Kt227pa,DPD UK Next Day | UK Express,1,1,0.4,PRINTED
AFG,Magento,100079022,1of1,29/10/2014 21:50,. Allison Macarthur,Cf626jy,DPD UK Next Day | UK Express,1,1,0.4,PRINTED
AFG,Magento,100079053,1of1,29/10/2014 22:43,. Laura Latif,M168lu,DPD UK Next Day | UK Express,2,1,1.4,PRINTED